{
  "annotations": [
    {
      "progress": 0.0,
      "text": "L’élégance tenait au pas adopté et au trajet suivi : le premier jamais traînant, le second dans les rues du centre historique."
    },
    {
      "progress": 0.0,
      "text": "une tendresse si vaste qu’on aurait dit de la méchanceté."
    },
    {
      "progress": 0.0,
      "text": "On veillait tout particulièrement à respecter le précieux rituel consistant à laisser partout dans la maison des gestes inachevés : c’était, semble-t-il, la garantie absolue qu’on viendrait les terminer."
    },
    {
      "progress": 0.0,
      "text": "Il ouvrit la chemise qu’il emportait toujours quand il allait en ville (souvent elle ne contenait rien, mais il aimait avoir quelque chose à ne pas oublier partout"
    },
    {
      "progress": 0.0,
      "text": "des provisions de réponses."
    },
    {
      "progress": 0.0,
      "text": "L’élégance unique au monde de l’homme qui a tout perdu,"
    },
    {
      "progress": 0.0,
      "text": "Le fait est que certains écrivent des livres et que d’autres les lisent : Dieu seul sait qui est le mieux placé pour y comprendre quelque chose."
    },
    {
      "progress": 0.0,
      "text": "quand il fallait parler, elle ne perdait pas de temps à choisir son interlocuteur"
    },
    {
      "progress": 0.8,
      "text": "elle avait l’impression d’être dans une pièce où, à la place des couleurs, on aurait collé sur les murs des morceaux de papier avec le nom des teintes : indigo, rouge vénitien, jaune sable. "
    }
  ],
  "attribution": "Baricco, Alessandro",
  "cover": "1519121653",
  "description": "",
  "id": "1519121653",
  "isbn": "1519121653",
  "language": "fr",
  "lastread": "2018-11-19T22:38:30Z",
  "publisher": "",
  "subtitle": null,
  "title": "La Jeune Épouse"
}