{
  "annotations": [],
  "attribution": "Alessandro Baricco",
  "cover": "Alessandro-Baricco-Trois-fois-dès-l-aube-Du-monde-entier-French-Edition-",
  "description": "",
  "id": "Alessandro-Baricco-Trois-fois-dès-l-aube-Du-monde-entier-French-Edition-",
  "isbn": "urn:uuid:011df514-fe44-4c00-af33-a344b42c5a51",
  "language": "fr",
  "lastread": "2015-07-04T03:36:19.068",
  "publisher": "",
  "subtitle": null,
  "title": "Trois fois dès l'aube (Du monde entier) (French Edition)"
}