{
  "annotations": [
    {
      "progress": 0.02,
      "text": ": la fiscalité française est asphyxiée par sa complexité et par sa faible progressivité réelle, qui menacent de rompre le lien de confiance entre les citoyens et l’impôt."
    },
    {
      "progress": 0.02,
      "text": "Le problème aujourd’hui n’est ni de réduire ni d’augmenter les impôts. Il s’agit bien plutôt de les remettre à plat, de mieux les répartir, de les rendre plus simples, plus équitables et plus lisibles."
    },
    {
      "progress": 0.03,
      "text": "Équité : le prélèvement à la source et la suppression des niches fiscales permettront de rétablir le principe « à revenu égal, impôt égal »."
    },
    {
      "progress": 0.03,
      "text": "Équité, en particulier, entre revenus du travail et revenus du capital : les seconds sont aujourd’hui largement détaxés en France, et ils seront désormais imposés sur un pied d’égalité avec les premiers – ni plus, ni moins.\n"
    },
    {
      "progress": 0.03,
      "text": "Progressivité : cette refondation permet de mettre en place des taux effectifs d’imposition réellement plus élevés pour les hauts revenus que pour les bas et moyens revenus, ce qui n’est pas le cas aujourd’hui."
    },
    {
      "progress": 0.06,
      "text": ": la CSG doit absorber entièrement l’impôt sur le revenu, mais avec un barème progressif."
    },
    {
      "progress": 0.11,
      "text": "le revenu national de la France était en 2010 de 1 680 milliards d’euros, soit un revenu moyen d’environ 33 000 euros par an (soit 2 800 euros par mois)"
    },
    {
      "progress": 0.13,
      "text": "Le revenu est un flux"
    },
    {
      "progress": 0.13,
      "text": "Le patrimoine est un stock."
    },
    {
      "progress": 0.13,
      "text": "Pour résumer, chaque adulte, dans la France d’aujourd’hui, dispose d’un revenu moyen avant impôt de 33 000 euros par an (2 800 euros par mois) et possède un patrimoine moyen de 182 000 euros,"
    },
    {
      "progress": 0.15,
      "text": "’émergence d’une classe moyenne patrimoniale au cours du XXE siècle, c’est-à-dire l’émergence d’un large groupe social ne possédant pas énormément individuellement (avec 150 000 euros de patrimoine, on n’est plus pauvre, sans être vraiment riche), mais assez nombreux pour posséder collectivement un tiers du patrimoine national(1), constitue sans nul doute un développement historique majeur, aux conséquences sociales et politiques considérables."
    },
    {
      "progress": 0.16,
      "text": "avec la croissance élevée des Trente Glorieuses, les patrimoines issus du passé étaient relativement faibles comparés à l’épargne nouvelle ; avec une croissance faible, inférieure au rendement du capital, le poids du passé est au contraire dominant"
    },
    {
      "progress": 0.17,
      "text": "nous regroupons dans les « revenus du capital » l’ensemble des revenus liés à la détention d’un patrimoine immobilier ou financier, sans que le détenteur ait à travailler pour percevoir ce revenu."
    },
    {
      "progress": 0.17,
      "text": "Nous incluons bien sûr dans les revenus fonciers la valeur locative de l’ensemble des habitations, qu’elles soient louées à un locataire (on parle de loyer « réel ») ou occupées par leur propriétaire (on parle alors de loyer « fictif » ou « imputé »). "
    },
    {
      "progress": 0.18,
      "text": "les revenus du capital – tout comme les patrimoines dont ils sont issus, ce qui est logique – ont retrouvé en ce début du XXIE siècle une prospérité que l’on n’avait pas observée depuis la Belle Époque"
    },
    {
      "progress": 0.22,
      "text": "nous vivons dans des sociétés où tout le monde paie des impôts élevés."
    },
    {
      "progress": 0.22,
      "text": "on observe des recettes totales d’environ 820 milliards d’euros en 2010, soit 49 % du revenu national de 1 680 milliards."
    },
    {
      "progress": 0.24,
      "text": "La distinction entre « impôts acquittés par les ménages » et « impôts acquittés par les entreprises » n’a aucun sens : en dernier recours, tous les prélèvements obligatoires sont payés par les ménages."
    },
    {
      "progress": 0.25,
      "text": "Ces dépenses publiques peuvent être considérées comme des transferts en nature. Par exemple, en l’absence d’un service public d’éducation et de santé, nous devrions acheter pour nous– mêmes et pour nos enfants des services d’éducation et de santé produits par le secteur privé."
    },
    {
      "progress": 0.27,
      "text": "Nous considérons que la priorité n’est ni de réduire ni d’augmenter le poids général des prélèvements obligatoires en France, mais de les remettre à plat."
    },
    {
      "progress": 0.27,
      "text": "Quelle que soit la qualité des services publics et de la protection sociale, un taux global d’imposition de 49 % ou 45 % nous semble objectivement très élevé et ne nous paraît tenable qu’à deux conditions. D’une part, il est nécessaire que des efforts permanents soient faits pour améliorer cette qualité de services et de protections et pour les adapter aux besoins individuels et collectifs. D’autre part et surtout, tout doit être fait pour que les citoyens comprennent le système fiscal et le considèrent comme équitable et transparent – ce qui, de toute évidence, n’est pas le cas actuellement."
    },
    {
      "progress": 0.29,
      "text": "nous payons en moyenne 240 euros par mois au titre de l’IRPP et de la CSG, soit environ 9 % du revenu moyen avant impôt de 2 800 euros par mois et par adulte. Dans les pays européens à niveau de prélèvement global comparable, l’impôt sur le revenu est unique et rapporte généralement au moins 10 à 12 points de revenu national.\n"
    },
    {
      "progress": 0.3,
      "text": "Les plus pauvres n’ont en effet pas les moyens d’épargner et consomment la quasi-totalité de leur revenu. Ils se retrouvent donc à payer sous forme d’impôts sur la consommation un plus fort pourcentage de leur revenu que les plus riches, qui ont en moyenne des taux d’épargne élevés(1)"
    },
    {
      "progress": 0.32,
      "text": "le système est légèrement progressif jusqu’au niveau des « classes moyennes », puis devient franchement régressif au sein des 5 % les plus riches – et surtout à l’intérieur des 1 % les plus riches (soit 0,5 million de personnes sur 50 millions).\n"
    },
    {
      "progress": 0.34,
      "text": "actuellement, les cotisations retraite des travailleurs à bas salaire servent en partie à subventionner les retraites des cadres, d’une part parce que rien n’est fait pour corriger les écarts d’espérance de vie, et d’autre part parce que ceux qui ont commencé à travailler tôt sont contraints de cotiser plus longtemps que les autres – iniquité que la récente réforme des retraites et le passage à soixante-deux ans viennent d’aggraver."
    },
    {
      "progress": 0.37,
      "text": "L’IRPP est véritablement un condensé de tout ce qui va mal dans notre fiscalité : accumulation invraisemblable de règles complexes et de dispositifs dérogatoires ; ruptures multiples et caractérisées du principe « à revenu égal, impôt égal » ; très faible progressivité réelle ; tout cela pour un rendement fiscal inférieur à trois points de PIB, alors que dans tous les pays comparables l’impôt sur le revenu en rapporte au moins trois fois plus.\n"
    },
    {
      "progress": 0.44,
      "text": "le quotient conjugal fonctionne de facto comme une machine à subventionner les couples inégaux !"
    },
    {
      "progress": 0.46,
      "text": "Le jeu combiné des différentes règles (barème exprimé en taux marginal et non en taux effectif, multiples déductions et abattements catégoriels, division du revenu par le nombre de parts de quotient familial) fait que le barème d’imposition est totalement illisible."
    },
    {
      "progress": 0.51,
      "text": "L’impôt sur le revenu rapportait environ 5 % du PIB dans les années 1980, moins de 4,5 % au début des années 1990, moins de 3,5 % au début des années 2000, et à peine 2,5 % du PIB en 2010."
    },
    {
      "progress": 0.61,
      "text": "les barèmes exprimés en taux effectifs se sont déjà appliqués en France de 1936 à 1941, suite à l’ambitieuse réforme du barème de l’impôt général du revenu (IGR) mise en place par Vincent Auriol, ministre des Finances du Front Populaire."
    },
    {
      "progress": 0.69,
      "text": "l’optimum social correspond à l’amélioration maximale des conditions d’existence et des opportunités de vie des groupes sociaux les plus désavantagés"
    },
    {
      "progress": 0.73,
      "text": "la complexité du fonctionnement du quotient familial masque son deuxième grand défaut : son importante régressivité. Il bénéficie de manière disproportionnée aux 10 % des revenus les plus élevés."
    },
    {
      "progress": 0.75,
      "text": "Nos simulations montrent qu’en remplaçant l’ensemble de ces dispositifs par un crédit d’impôt de 190 euros mensuel par enfant, on préserve toutes les caractéristiques du système actuel, tout en réglant l’anomalie des effets du quotient familial au niveau du dernier décile,"
    },
    {
      "progress": 0.77,
      "text": "Notre idée est de créer un « revenu jeune » qui viendrait se substituer, entre dix-huit et vingt-cinq ans, à tous les autres transferts perçus aujourd’hui soit par les parents soit par les jeunes eux-mêmes."
    },
    {
      "progress": 0.82,
      "text": "au moment de la création de la Sécurité sociale, tous les risques (maladie, vieillesse, famille, etc.) étaient financés par des cotisations sociales assises sur les revenus d’activité"
    },
    {
      "progress": 0.85,
      "text": "la TVA, comme tous les impôts sur la consommation, est franchement régressive,"
    },
    {
      "progress": 0.86,
      "text": "À notre avis, le bouclier fiscal, censé plafonner l’imposition totale à 50 % des revenus, n’a pas de justification économique."
    },
    {
      "progress": 0.86,
      "text": "les Français qui paient effectivement 50 % de leur revenu en impôts, c’est-à-dire les classes moyennes, sont bien plus nombreux et bien moins fortunés que les bénéficiaires du bouclier fiscal."
    },
    {
      "progress": 0.86,
      "text": "en pratique, les contribuables qui bénéficient du bouclier fiscal font massivement partie des 0,1 % des contribuables les plus riches, alors même que le taux effectif d’imposition de ce groupe est déjà inférieur à 50 % !"
    },
    {
      "progress": 0.87,
      "text": "nous pensons qu’un impôt progressif sur l’ensemble du patrimoine, comme l’ISF, est l’impôt sur le patrimoine le plus rationnel et le plus équitable."
    },
    {
      "progress": 0.89,
      "text": "\n L’un des principaux messages de ce livre est que les impôts ne doivent être ni réduits ni augmentés massivement : la priorité est bien plutôt de les remettre à plat, de les refonder, de mieux les répartir."
    }
  ],
  "attribution": "Camille Landais",
  "cover": "Camille-Landais-Pour-une-Révolution-Fiscale-Un-Impôt-Sur-le-Revenu-Pour-le-XXIe-Siècle",
  "description": "<div><p class=\"description\">La fiscalité française est asphyxiée par sa complexité, son manque de transparence et l'accumulation de privilèges pour une minorité de contribuables ultra-riches. Mais on en reste trop souvent, en la matière, à des énoncés aussi vagues que stériles. Ce livre innove en proposant une critique d'ensemble du système fiscal français. Il démontre scientifiquement, pour la première fois, le caractère régressif de l'impôt dans notre pays (ce qui signifie que, tous prélèvements confondus, les taux d'imposition sont plus élevés pour les ménages les plus modestes et s'abaissent pour les plus riches). Pour cette raison, il fera date. Mais cette analyse au scalpel ne se contente pas de mettre au jour l'injustice du système. Elle plaide pour une révolution fiscale, chiffrée et opérationnelle, fondée sur trois principes: équité, progressivité réelle, démocratie. Ce livre contribue de manière décisive à l'édification d'une nouvelle critique sociale et se pose au centre du débat politique pour les années à venir. Pour la première fois dans le monde, un site Internet permet à chacun d'évaluer les propositions des auteurs et de concevoir une réforme www.revolution-fiscale.fr</p><hr class=\"annotations_divider\"><hr class=\"annotations_divider\">",
  "id": "Camille-Landais-Pour-une-Révolution-Fiscale-Un-Impôt-Sur-le-Revenu-Pour-le-XXIe-Siècle",
  "isbn": "urn:uuid:539B3769-6BF3-1014-81B2-B86550AE5F44",
  "language": "fr",
  "lastread": "2015-06-20T20:37:55Z",
  "publisher": "",
  "subtitle": null,
  "title": "Pour une Révolution Fiscale: Un Impôt Sur le Revenu Pour le XXIe Siècle"
}