{
  "annotations": [
    {
      "progress": 0.8571428571428571,
      "text": "c'est sa façon de se reposer du désastre que de chercher\nà le reconnaître partout"
    },
    {
      "progress": 0.16666666666666666,
      "text": "embaumé dans son avenir"
    },
    {
      "progress": 0.5,
      "text": "La\nlecture du journal est une chose sérieuse, sans conséquence sur la vie comme\ntoutes les choses sérieuses"
    }
  ],
  "attribution": "Christian Bobin",
  "cover": "Christian-Bobin-Une-Petite-Robe-De-Fête",
  "description": "<p class=\"description\">\" Celle qu'on aime, on la voit avancer toute nue. Elle est dans une robe claire, semblable à celles qui fleurissaient autrefois le dimanche sous le porche des églises, sur le parquet des bals. Et pourtant elle est nue -comme une étoile au point du jour. A vous de Voir, une clairière s'ouvrait dans mes yeux. A voir cette robe blanche, toute blanche comme du ciel bleu. Avec le regard simple, revient la force pure. \"</p>",
  "id": "Christian-Bobin-Une-Petite-Robe-De-Fête",
  "isbn": null,
  "language": "en",
  "lastread": "2018-11-24T23:22:01Z",
  "publisher": "Gallimard",
  "subtitle": null,
  "title": "Une Petite Robe De Fête"
}