{
  "annotations": [],
  "attribution": "Daniel Pennac",
  "cover": "Daniel-Pennac-La-petite-marchande-de-prose",
  "description": "<div><div style=\"text-align: justify;\">« \"L'amour, Malaussène, je vous propose l'amour !\" L'amour ? J'ai Julie, j'ai Louna, j'ai Thérèse, j'ai Clara, Verdun, le Petit et Jérémy. J'ai Julius et j'ai Belleville...\"Entendons-nous bien, mon petit, je ne vous propose pas la botte ; c'est l'amour avec un grand A que je vous offre : tout l'amour du monde !\"Aussi incroyable que cela puisse paraître, j'ai accepté. J'ai eu tort. »</div><div style=\"text-align: justify;\">Transformé en objet d'adoration universelle par la reine Zabo, éditeur de génie, Benjamin Malaussène va payer au prix fort toutes les passions déchaînées par la parution d'un best-seller dont il est censé être l'auteur. Vol de manuscrit, vengeance, passion de l'écriture, frénésie des lecteurs, ébullition éditoriale, délires publicitaires, La petite marchande de prose est un feu d'artifice tiré à la gloire du roman. De tous les romans. </div><div style=\"text-align: justify;\"><br></div><div style=\"text-align: justify;\"><a href=\"http://www.amazon.fr/petite-marchande-prose-Daniel-Pennac/dp/2070403688\">Lien Amazone</a></div></div><hr class=\"annotations_divider\" />\n",
  "id": "Daniel-Pennac-La-petite-marchande-de-prose",
  "isbn": "8508a9c0-0fcd-40a7-81f2-9a0a0d532988",
  "language": "fr",
  "lastread": "2016-02-04T22:52:07.876",
  "publisher": "",
  "subtitle": null,
  "title": "La petite marchande de prose"
}