{
  "annotations": [],
  "attribution": "Daniel Pennac",
  "cover": "Daniel-Pennac-Aux-fruits-de-la-passion",
  "description": "<p class=\"description\">La tribu Malaussène et ses proches ont le regret de vous annoncer le mariage de Thérèse Malaussène avec le comte Marie-Colbert de Roberval, conseiller référendaire de première classe. Cet avis tient lieu d'invitation.</p><hr class=\"annotations_divider\" />\n",
  "id": "Daniel-Pennac-Aux-fruits-de-la-passion",
  "isbn": "urn:uuid:c67fa5b3-dd62-492e-b3d8-58d539efbfdd",
  "language": "fr",
  "lastread": "2016-02-01T18:40:46.984",
  "publisher": "",
  "subtitle": null,
  "title": "Aux fruits de la passion"
}