{
  "annotations": [
    {
      "progress": 0.010416666666666666,
      "text": "Je te le dis une fois et c’est déjà une de\ntrop"
    },
    {
      "progress": 0.13541666666666666,
      "text": "Pour celui qui\nest né à Naples, le destin est dans son dos"
    },
    {
      "progress": 0.3020833333333333,
      "text": "les consonnes ne servent pas en mer,"
    },
    {
      "progress": 0.90625,
      "text": "je pensais à une honte plus\npetite"
    }
  ],
  "attribution": "De Luca, Erri",
  "cover": "De-Luca-Erri-Les-poissons-ne-ferment-pas-les-yeux",
  "description": null,
  "id": "De-Luca-Erri-Les-poissons-ne-ferment-pas-les-yeux",
  "isbn": null,
  "language": "fr",
  "lastread": "2018-10-28T12:52:29Z",
  "publisher": "Editions Gallimard",
  "subtitle": null,
  "title": "Les poissons ne ferment pas les yeux"
}