{
  "annotations": [
    {
      "progress": 0.0,
      "text": "Je vais consulter ma défunte\nfemme,"
    },
    {
      "progress": 0.0,
      "text": "une télévision en circuit fermé"
    }
  ],
  "attribution": "Dick,Philip K.",
  "cover": "Dick-Philip-K-Ubik",
  "description": "<div><div align=\"justify\">La publicité des organismes de protection \nanti-psi proclame : « Défendez votre intimité. Est-ce qu'un étranger \nn'est pas à l'affût de vos pensées ? Ëtes-vous <i>vraiment</i> seul ? \nCela concerne les télépathes mais aussi les précognitifs. Vos actes \nsont-ils prédits par quelqu'un que vous n'avez jamais rencontré ? Mettez\n fin à votre anxiété ; contactez le plus proche organisme de \nprotection... »</div> <div align=\"justify\">C'est dans cet univers \nque Glen Runciter vit et meurt. Mais meurt-il vraiment ? Le temps s'en \nva en lambeaux. Une bouffée de 1939 dérive en 1992. Et par les trous du \ndécor se glissent les messages d'Ubik. Ubik qui est partout, Ubik qui \nest tout. Mais qui est Ubik ?</div> <div><a href=\"http://www.amazon.fr/Ubik-Philip-K-Dick/dp/B0014MQZP2\">http://www.amazon.fr/Ubik-Philip-K-Dick/dp/B0014MQZP2</a></div></div>",
  "id": "Dick-Philip-K-Ubik",
  "isbn": "f187580c-4c29-467a-bda9-a4fd1660b18b",
  "language": "fr",
  "lastread": "2015-10-28T22:37:11Z",
  "publisher": "",
  "subtitle": null,
  "title": "Ubik"
}