{
  "annotations": [
    {
      "progress": 0.09,
      "text": ": c’est un homme qui\nse révolte, qui se plaint comme tu t’en es plaint, comme\ntu t’en plaindras encore, de porter une croix plus lourde\nque celle des autres. Un ange l’entend, et l’emporte sur ses\nailes jusqu’à l’endroit du ciel où sont stockées les croix de\ntous les hommes. Des millions, des milliards de croix, de\ntoutes les tailles. L’ange lui dit : choisis celle que tu veux.\nL’homme en soupèse quelques-unes, compare, prend celle\nqui lui paraît la plus légère. L’ange sourit et dit : c’était la\ntienne."
    },
    {
      "progress": 0.59,
      "text": "Malgré des tentatives répétées, je ne suis jamais arrivé\nau bout des Mémoires d’Hadrien."
    },
    {
      "progress": 0.66,
      "text": "il y a une\nénorme différence entre dire : « Ne fais pas à un autre ce\nque tu ne voudrais pas qu’il te fasse » (ça, c’est la règle d’or,\ncelle dont le rabbin Hillel disait qu’elle résumait la Loi et\nles Prophètes) et dire : « Ce que tu fais à un autre, tu te\nle fais à toi-même. » "
    },
    {
      "progress": 0.66,
      "text": ": « Si tu fais advenir ce\nqui est en toi, ce que tu feras advenir te sauvera. Si tu ne\nfais pas advenir ce qui est en toi, ce que tu n’auras pas fait\nadvenir te tuera. » "
    },
    {
      "progress": 0.73,
      "text": " le métier de l’historien est\nde donner à la société où il vit le sentiment de la relativité\nde ses valeurs"
    },
    {
      "progress": 0.82,
      "text": " Quand ils ont tout détruit, les Romains appellent\nça la paix."
    }
  ],
  "attribution": "Emmanuel Carrère",
  "cover": "Emmanuel-Carrère-Le-Royaume-FICTION-French-Edition-",
  "description": "",
  "id": "Emmanuel-Carrère-Le-Royaume-FICTION-French-Edition-",
  "isbn": "urn:uuid:c9a2dbd5-db10-4dfd-8988-d643600e5220",
  "language": "fr",
  "lastread": "2015-09-27T15:23:04Z",
  "publisher": "",
  "subtitle": null,
  "title": "Le Royaume (FICTION) (French Edition)"
}