{
  "annotations": [],
  "attribution": "Erri de Luca",
  "cover": "Erri-de-Luca-Le-Poids-Du-Papillon",
  "description": "<p class=\"description\">Quelque part dans les Alpes italiennes, un chamois domine sa harde depuis des années. Il est d’une taille et d’une puissance exceptionnelles, mais il pressent que sa dernière saison en tant que roi est arrivée, sa suprématie étant désormais menacée par les plus jeunes. En face de lui, un braconnier, revenu vivre en haute montagne ses espoirs en la Révolution déçus, sait lui aussi que le temps joue contre lui. A soixante ans passés, sa dernière ambition de chasseur sera d’abattre le seul animal qui lui ait toujours échappé, malgré son extrême agilité d’alpiniste : ce chamois à l’allure majestueuse...Le poids du papillon, récit insolite d’un duel entre l’homme et l’animal, nous offre une épure poétique d’une très grande beauté. Erri De Luca condense ici sa vision de l’homme et de la nature, nous parle de la montagne, de la solitude et du désir pour affirmer plus que jamais son talent de conteur, hors du temps et indifférent à toutes les modes littéraires.</p><hr class=\"annotations_divider\" />\n",
  "id": "Erri-de-Luca-Le-Poids-Du-Papillon",
  "isbn": "urn:uuid:4bb1303a-f386-4ffa-b7fb-cfee69c3d68d",
  "language": "fr",
  "lastread": "2016-11-13T13:54:07.068",
  "publisher": "",
  "subtitle": null,
  "title": "Le Poids Du Papillon"
}