{
  "annotations": [
    {
      "progress": 0.75,
      "text": "une langue grand-maternelle"
    },
    {
      "progress": 1.0,
      "text": "Il y avait une tour à Shinéar, elle fut démantelée à Babel. Quand on dit « tour de Babel », on confond un édifice avec son écroulement, un bateau avec la tempête qui le fait couler"
    },
    {
      "progress": 0.4444444444444444,
      "text": "celui qui craint Dieu ne peut craindre autre chose"
    },
    {
      "progress": 0.8888888888888888,
      "text": "« Un songe qu’on n’interprète pas est comme une lettre qu’on ne lit pas »"
    },
    {
      "progress": 0.4,
      "text": "« Dieu a dit une chose, j’en ai entendu deux », annonce le psaume 62."
    },
    {
      "progress": 0.7777777777777778,
      "text": "« Au moment où les mots sont dans ta bouche tu es leur maître ; une fois prononcés, tu es leur esclave. »"
    }
  ],
  "attribution": "Erri de Luca",
  "cover": "Erri-de-Luca-Un-nuage-comme-tapis",
  "description": "<p class=\"description\">\"Pour beaucoup, la Bible est un texte sacré. Mais ce qui me touche plus que cette valeur en soi, c’est le sacré qui s’est ajouté, l’œuvre des innombrables lecteurs, commentateurs, savants qui ont consacré à ce livre le plus clair de leur vie. Le sacré de la Bible est devenu, à travers eux, une civilisation. Il m’arrive d’être frappé par la beauté d’un vers qui a perdu son éclat en quittant sa langue maternelle. Ainsi la ligne 39 du psaume 105, où l’on chante Dieu guidant les Hébreux dans le désert. Le texte officiel de l’Église le traduit : \"Il étendit une nuée pour les protéger.\" Mot à mot il s’agit au contraire de : \"Il étendit un nuage comme un tapis.\" Illustrer la Bible d’une note nouvelle : non pas pour apposer en bas de page, à l’infini, une autre signature, mais pour refléter une part de la lumière qu’elle offre, même au dernier de ses lecteurs.\"</p>",
  "id": "Erri-de-Luca-Un-nuage-comme-tapis",
  "isbn": null,
  "language": "fr",
  "lastread": "2018-10-27T05:49:30Z",
  "publisher": "Editions Gallimard",
  "subtitle": null,
  "title": "Un nuage comme tapis"
}