{
  "annotations": [
    {
      "progress": 0.0,
      "text": "sur ordre du Führer, le ministre de l’Air Goering doit abandonner immédiatement toute entreprise ne pouvant aboutir avant un an586 ; voilà qui conduit à la mise en sommeil de plusieurs projets majeurs, depuis l’avion à réaction jusqu’au bombardier à long rayon d’action, en passant par les recherches sur la haute fréquence"
    },
    {
      "progress": 0.0,
      "text": "le tout nouveau maréchal de l’Air, se faisant l’interprète du Führer, va donner aux membres de l’ambassade d’Allemagne et aux ministres proallemands une longue suite d’instructions comminatoires, confuses et parfois contradictoires, visant toutes à faire remplacer le gouvernement autrichien légal par une administration nazie dirigée par Seyss-Inquart – et chargée de demander l’« assistance » des forces allemandes pour rétablir l’ordre dans le pays."
    },
    {
      "progress": 0.0,
      "text": "Je vous le dis : le réarmement nous rend forts… le beurre ne fait que nous rendre gras"
    },
    {
      "progress": 0.0,
      "text": "Il ne s’agit pas de Dantzig, mais d’un agrandissement de notre espace vital à l’Est et de la sécurisation de nos approvisionnements alimentaires."
    },
    {
      "progress": 0.0,
      "text": "La seule chose que je redoute, c’est qu’au dernier moment, un quelconque saligaudXXXVI me présente un plan de médiation."
    },
    {
      "progress": 0.0,
      "text": "Dès la fin du mois d’avril, le Reich domine l’ensemble des Balkans.\n\n       Cette impressionnante série de victoires est complétée au-delà de la Méditerranée par l’avance fulgurante de l’Afrika Korps du général Rommel, qui bouscule les troupes britanniques, traverse toute la Cyrénaïque et occupe le 12 avril la bourgade de Bardia, à quelques kilomètres seulement de la frontière égyptienne. C’est le moment que choisit le Premier ministre irakien Rachid Ali pour mener une révolte contre les faibles contingents britanniques stationnés dans le pays, et faire appel à l’aide allemande au début du mois de mai. Ainsi, sur les deux rives de la Méditerranée, rien ne semble pouvoir s’opposer à l’avance victorieuse de la Wehrmacht."
    },
    {
      "progress": 0.0,
      "text": "derrière la façade en apparence monolithique du Troisième Reich, dont la devise pourrait être « tous contre tous », il n’y a pas de gouvernement collégial – d’autant moins que le Conseil des ministres ne se réunira même plus après 1937I… Il y a par contre une série d’empires organisés verticalement, dont les chefs coopèrent rarement, s’observent jalousement et se querellent incessamment pour élargir leurs fiefs, leurs prérogatives et leurs compétences."
    },
    {
      "progress": 0.0,
      "text": "on apprend que Mussolini vient de lancer l’idée d’une conférence à quatre pour réviser les clauses du traité de Versailles, préserver la paix, donner satisfaction à Hitler et sauvegarder les apparences pour tout le monde ; en quelque sorte une réédition de Munich, dont personne n’avait eu à se plaindre – sauf les Tchèques, évidemmentLV"
    },
    {
      "progress": 0.0,
      "text": " : « Gœring, note Rommel avec consternation, passe son temps à rechercher des tableaux et des sculptures ! Seule l’intéresse la question de savoir s’il parviendra à en remplir tout son train spécial. Il n’essaie jamais de voir quiconque pour les affaires de guerre,"
    },
    {
      "progress": 0.0,
      "text": "  Il est vrai du reste que l’homme a fort à faire ailleurs, car le Führer lui a réservé un rôle de tout premier plan dans son jeu diplomatique : celui d’instaurer de bonnes relations avec la Grande-Bretagne, pour l’amener à accepter les plans d’expansion nazis en direction de l’Europe de l’"
    },
    {
      "progress": 0.0,
      "text": "’unique formation de biplans Arado 68 disponible est donc déplacée d’un terrain d’aviation à l’autre, les appareils (non armés) étant repeints à chaque fois avec des emblèmes et des numéros d’identification différents296. Les attachés militaires alliés s’y laissent prendre,"
    },
    {
      "progress": 0.0,
      "text": "Varsovie résiste encore, mais la chute de Lvov et l’intervention de l’armée soviétique le 17 septembre scellent le sort de l’armée polonaise de l’Est,"
    },
    {
      "progress": 0.0,
      "text": "Lorsque les Américains prennent Palerme le 22 juillet, personne ne doute que les Alliés seront bientôt maîtres de toute la Sicile, d’où ils ne manqueront pas de prendre pied sur la péninsule italienne. C’est ce qui explique les événements du 25 juillet à Rome : Mussolini, mis en minorité la veille au Grand Conseil fasciste, désavoué par le roi, remplacé par le maréchal Badoglio en tant que chef du gouvernement, est arrêté et incarcéré sur l’île de Ponza."
    },
    {
      "progress": 0.0,
      "text": "le colonel devrait se rendre compte du fait qu’il a affaire à des personnages historiques. Quoi que nous ayons fait, nous sommes des personnalités historiques – et lui, il n’est rien du tout"
    },
    {
      "progress": 0.0,
      "text": "les offensives allemandes s’ouvrent par des percées de divisions blindées, puissamment soutenues par l’artillerie tractée et l’infanterie motorisée. Elles sont précédées d’une action éclair de la Luftwaffe, qui bombarde d’emblée tous les terrains d’aviation, détruisant au sol l’essentiel de l’aviation polonaise et libérant les Stuka comme les Messerschmitt 109 pour des missions d’appui "
    },
    {
      "progress": 0.0,
      "text": "dans sa seconde intervention, Goering a accrédité une légende qui va empoisonner le débat en Allemagne et ruiner les forces modérées du pays pendant toute une décennie : celle du coup de poignard dans le dos. Selon cette thèse, l’armée allemande n’aurait pas été vaincue par l’ennemi extérieur, mais par l’action néfaste de politiciens allemands avides de pouvoir"
    },
    {
      "progress": 0.0,
      "text": " ; il survole des aérodromes où sont alignés des centaines de bombardiers He 111 et de chasseurs Me 109 – qui sont déplacés d’un terrain à l’autre sans que les Français s’en rendent compteXLIII"
    },
    {
      "progress": 0.0,
      "text": "En tant que chef du Forschungsamt, Goering sait parfaitement qu’à la différence de l’Autriche et de la Tchécoslovaquie, la Pologne ne capitulera pas sans livrer un combat acharné. En tant que responsable du plan quadriennal, il sait aussi que l’Allemagne n’est pas prête à engager un conflit d’envergure en 1939"
    },
    {
      "progress": 0.0,
      "text": "; Hitler exige la création immédiate d’une division de cyclistes armés de grenades et de PanzerfaustIII pour combattre les tanks soviétiques"
    },
    {
      "progress": 0.0,
      "text": "; à la mi-juillet 1938, il s’est discrètement enquis de la possibilité de se rendre à Londres pour y rencontrer le nouveau ministre des Affaires étrangères Lord Halifax. Ce dernier s’y est montré favorable, mais Hitler a mis fin au projet d’un seul mot : Ausgeschlossen ! – c’est exclu382"
    },
    {
      "progress": 0.0,
      "text": "depuis l’été de 1940, il parcourt la France, la Belgique et les Pays-Bas à la recherche d’œuvres d’art abandonnées, confisquées, récupérées ou vendues à vil prix. C’est qu’il veut constituer un grand musée à Carinhall, et bien sûr décorer son hôtel particulier de la Leipzigerplatz, son pavillon de chasse de Rominten et ses deux châteaux de Veldenstein et Mauterndorf. "
    },
    {
      "progress": 0.0,
      "text": "il fait même preuve d’une franchise littéralement désarmante, à en juger par le rapport de son interlocuteur : « Pour Goering, l’impérialisme allemand devait se déployer en deux étapes complémentaires. Au cours de la première, on créerait une Mitteleuropa, une zone de l’Europe centrale dominée économiquement et politiquement par l’Allemagne, et acquise sans déclencher une guerre générale. L’Autriche serait incorporée de son plein gré ; les Sudètes et la Bohême (mais pas la Slovaquie) seraient pris de force, au cas où les Tchèques n’accepteraient pas volontairement le démembrement de leur pays […]. Les Etats slaves du Sud deviendraient alliés ou dépendants, et la Pologne serait “reconquise"
    },
    {
      "progress": 0.0,
      "text": "Le 10 juin, l’Italie, volant au secours de la victoire, déclare la guerre à la France"
    },
    {
      "progress": 0.0,
      "text": "derrière ces brillantes apparences, les déconvenues s’accumulent : en mars 1941, c’est l’annonce du vote par le Congrès américain de la loi prêt-bail, qui donne à la Grande-Bretagne un accès pratiquement illimité aux ressources américaines, tout en rapprochant nettement les Etats-Unis de l’entrée en guerre."
    },
    {
      "progress": 0.0,
      "text": "le désintérêt de Goering pour les techniques modernes lui fait sous-estimer fatalement les inconvénients de l’absence de tout système de guidage radio à partir du sol, qui rend impossible la réception de toute nouvelle instruction après le décollage des avions ; il ne saisit pas non plus tout l’avantage que procure à l’adversaire sa ceinture de radars de basse altitude, qui couvre toute la Grande-Bretagne jusqu’aux extrémités est, sud et sud-ouest du pays, de même que ses radars de haute altitude, dont la portée s’étend jusqu’aux côtes françaises, belges et néerlandaisesLXIV."
    },
    {
      "progress": 0.0,
      "text": "  Mais la modestie restant pour Goering un mot étrangerXLI, cette demeure rustique, naturellement baptisée Carinhall, va prendre dès 1937 une ampleur phénoménale,"
    },
    {
      "progress": 0.0,
      "text": ". Le lendemain, tout est oublié, et le comité des fêtes de la ville lui offre 50 couronnes pour chaque looping qu’il exécutera au-dessus de la ville. Jusqu’au dixième looping, la gaîté règne sur le champ d’aviation ; à partir du vingtième, une certaine inquiétude devient perceptible ; au bout du cinquantième, les officiels du comité des fêtes sont catastrophés… Mais Goering, grand seigneur, se contentera de la moitié de la caisse !"
    },
    {
      "progress": 0.0,
      "text": ", il prend très au sérieux ses fonctions de grand-veneur et maître des Forêts du Reich, et force est de reconnaître que ses initiatives dans le domaine de la préservation du domaine forestier comme de la conservation des espèces animales font de lui un écologiste avant l’heure"
    },
    {
      "progress": 0.0,
      "text": "l’Allemagne ne s’étant pas acquittée de ses obligations en matière de réparations, cinq divisions françaises et une division belge sont entrées en Rhénanie au début de 1923. "
    },
    {
      "progress": 0.0,
      "text": " C’est ainsi que Goering est à l’époque en conflit quasi permanent avec Ribbentrop, Keitel, Lammers, Sauckel, Darré, Himmler, Goebbels et Bormann, pour ne citer que les principaux. Himmler, par exemple, le fait espionner et écouter en permanence, accumule les dossiers sur ses pratiques corrompues, et informe le Führer des efforts d’Emmy Goering pour protéger ses amies juives."
    },
    {
      "progress": 0.0,
      "text": ". En tant que commandant des SSXVIII, le nouveau dirigeant de la Gestapo Heinrich Himmler est encore aux ordres du chef d’état-major des SA Ernst Roehm, et cette subordination lui pèse singulièrement."
    },
    {
      "progress": 0.0,
      "text": ", les pilotes comme les maréchaux peuvent constater que Goering s’intéresse assez peu aux questions techniques, et que les problèmes de rodage du Ju 88, par exemple, ne semblent pas l’émouvoir outre mesure."
    },
    {
      "progress": 0.0,
      "text": ": le 25 juillet 1936, une délégation espagnole envoyée par le général Franco vient demander l’aide d’Hitler pour transporter les troupes marocaines insurgées depuis Tétouan jusqu’à Séville."
    },
    {
      "progress": 0.0,
      "text": "Hermann Goering a désormais franchi la frontière qui sépare l’engagement politique du banditisme pur et simple. Pour servir son Führer ? Pour assouvir ses propres ambitions ? Depuis six années au moins, les deux motifs sont indissolublement liés"
    },
    {
      "progress": 0.0,
      "text": "il venait en effet de découvrir que le conteneur standard dit « de 250 kg » ne pouvait contenir 250 kg de vivres : il portait uniquement ce nom parce qu’il occupait sur le râtelier des Junkers 52 l’emplacement d’une bombe de 250 kg"
    },
    {
      "progress": 0.0,
      "text": "depuis les nobles jusqu’aux militaires en passant par les étudiants et les journalistes, d’innombrables témoins de ses discours ont décrit l’effet hypnotique produit par ce curieux mélange de conviction, de violence, d’ironie, d’exaltation, de simplicité, de haine, de logique, de démagogie et d’invectives que prononce avec une stupéfiante variété de tons et de mouvements cet homme au physique insignifiant, à la moustache courte, à la mèche rebelle et aux yeux de fanatique."
    },
    {
      "progress": 0.0,
      "text": "« Le Führer, note ainsi le major Engel, ne cesse d’osciller entre des objectifs économiques, stratégiques – et raciaux aussi, malheureusement"
    },
    {
      "progress": 0.0,
      "text": "au début d’août, après la mort du maréchal Hindenburg, il s’attribue les fonctions de président, ce qui lui permet de cumuler tous les pouvoirs, de devenir chef des armées, et même d’exiger de chaque militaire un serment de fidélité à sa personne."
    },
    {
      "progress": 0.0,
      "text": ". Le plus sûr moyen de perdre les hommes, disait la sagesse antique, c’est d’exaucer tous leurs désirs…"
    },
    {
      "progress": 0.0,
      "text": "les pilotes de chasseurs d’escorte qui s’aviseraient de s’écarter des formations de bombardiers sont promis à la cour martiale"
    },
    {
      "progress": 0.0,
      "text": " le 1er décembre 1941, Hermann Goering trouve tout de même le temps de rencontrer le maréchal Pétain à Saint-Florentin-Vergigny. Cette rencontre de trois heures tourne au dialogue de sourds, Goering demandant à Pétain de défendre plus fermement les colonies françaises contre les Britanniques, et Pétain répondant qu’il lui faudrait pour cela davantage de troupes et d’armement"
    },
    {
      "progress": 0.0,
      "text": "le général Vuillemin confie à l’ambassadeur François-Poncet : « Si la guerre éclate, comme vous le croyez, à la fin de septembre, il n’y aura plus un avion français au bout de quinze jours385 ! »"
    },
    {
      "progress": 0.0,
      "text": "« Il causait familièrement, se souviendra l’ambassadeur François-Poncet, et il répondait aux questions indiscrètes ; dédaigneux des précautions et des périphrases, il parlait crûment et librement ; il soulevait pour nous un coin du voile dont la Wilhelmstrasse et la presse de Goebbels enveloppaient la réalité. Nous lui en savions gré et lui procurions volontiers les satisfactions de vanité auxquelles il était sensible318."
    },
    {
      "progress": 0.0,
      "text": "lorsque l’évêque lui demande s’il préfère la paix ou la victoire, il répond de façon caractéristique : « La paix ! La paix, absolument ! », pour ajouter immédiatement : « Mais j’aimerais beaucoup avoir la victoire avant… »587 – ce qui donne toute la mesure du dilemme."
    },
    {
      "progress": 0.0,
      "text": "Goering omet l’essentiel : dès la fin de novembre 1942, son état-major à Potsdam et son commandant de flotte aérienne à Rostov l’avaient averti qu’il était hors de question de ravitailler indéfiniment la 6e armée par voie aérienne. Mais Goering ayant engagé sa parole inconsidérément, il ne pouvait ensuite se déjuger – par vanité, certes, mais surtout par peur. Car tout indique depuis longtemps déjà que Goering redoute fort les réactions de colère hystérique d’Adolf Hitler, qui sont d’autant plus épouvantables que les nouvelles se font plus défavorables ; et pour s’éviter ce genre d’épreuves, le Reichsmarschall s’ingénie justement à épargner au Führer toutes les informations déplaisantes."
    },
    {
      "progress": 0.0,
      "text": ". Le 29 juin, Goering obtient ainsi que Hitler signe un décret confirmant qu’en cas de décès du Führer, il lui succédera dans toutes ses fonctionsXLI."
    },
    {
      "progress": 0.0,
      "text": "les événements semblent se conjuguer pour l’encourager dans son entreprise : l’agitation croissante des minorités allemandes de Bohême et Moravie, la déclaration d’indépendance de fait de la Slovaquie, fortement encouragée au préalable par Berlin, la menace que font peser sur Prague les voisins hongrois et polonais, le désintérêt ostensible de Londres et Paris pour les événements d’Europe centrale, la faiblesse manifeste des défenses tchèques, et enfin une erreur fatale du président Hacha, qui demande le 13 mars à être reçu par Hitler pour obtenir un relâchement de la pression allemande sur son pays."
    },
    {
      "progress": 0.0,
      "text": "en moins de deux ans, la Luftwaffe va passer de 77 à 2 700 avions"
    },
    {
      "progress": 0.0,
      "text": "Le 19 août, enfin, il fait entériner cette succession de coups de force par un vote massif du peuple allemand, qui approuve à près de 90 % l’instauration de la dictature."
    },
    {
      "progress": 0.0,
      "text": "au milieu de la masse grise, sévère, secrète et passablement inquiétante formée par Hitler, Goebbels, Himmler, Heydrich, Darré, Hess et Rosenberg, l’ancien héros de la Grande Guerre Hermann Goering est aisément le plus populaire de tous les dirigeants nazis, avec ses uniformes de fantaisie, son humour bonhomme, sa silhouette enveloppée et son luxe ostentatoire."
    },
    {
      "progress": 0.0,
      "text": ": Hitler intervient intempestivement, change souvent d’avis, ne tient aucun compte des distances, des reliefs, de la nature du terrain, de l’état des routes, des conditions d’approvisionnement, de l’épuisement des hommes et de l’usure de leur matériel ; il ne se fie qu’à ses intuitions, dédaigne les rapports des services de renseignement, méprise ses généraux, rejette leurs conseils, confond le possible et le souhaitable, veut attaquer partout à la fois, croit aveuglément à la toute-puissance de la volonté et sous-estime constamment l’adversaire"
    },
    {
      "progress": 0.0,
      "text": "Quant aux modèles éprouvés, ils commencent à montrer leurs limites : avec des blindages renforcés et des équipements sans cesse plus nombreux, les Me 109 et les FW 190 voient décroître leur vitesse et leur capacité ascensionnelleXLIII, tandis que leurs moteurs de plus en plus puissants consomment toujours davantage d’essence, limitant ainsi une autonomie déjà beaucoup trop faible"
    },
    {
      "progress": 0.0,
      "text": "on est souvent possédé par ses possessions, et le Reichsmarschall, en tant que prince héritier et premier parvenu du Reich, ne peut qu’attendre servilement son heure en jouissant de ses nombreuses acquisitions."
    },
    {
      "progress": 0.0,
      "text": "à partir d’août, les Britanniques produisent 470 chasseurs par mois, contre 178 seulement pour les Allemands"
    },
    {
      "progress": 0.0,
      "text": "depuis l’attaque de l’URSS, l’Europe occupée devient de plus en plus difficile à tenir, et de la Carélie jusqu’à la Yougoslavie, des mouvements de partisans commencent à harceler les forces allemandes"
    },
    {
      "progress": 0.0,
      "text": "Il se rend même à Cologne pour assister à la représentation d’un chansonnier qui a l’habitude de le parodier, et qui jouera ce soir-là avec une appréhension certaine : « Je parie qu’il a souffert davantage que si je l’avais fait enfermer334 ! » s’esclaffera plus tard un Goering rouge de plaisir"
    },
    {
      "progress": 0.0,
      "text": "il est tellement sûr de son fait qu’il a éconduit le commandant en chef de l’armée von Brauchitsch, qui voulait que l’on prépare des vêtements chauds pour les forces armées engagées en Russie."
    },
    {
      "progress": 0.0,
      "text": ". En consultant son propre dossier, Goering constate que les autorités de Prusse n’ignoraient rien de ses séjours à l’asile d’aliénés de Langbro, et apprend avec la plus grande indignation qu’un enquêteur zélé doublé d’un psychiatre amateur lui avait attribué des « tendances homosexuelles refoulées"
    },
    {
      "progress": 0.0,
      "text": ", les résultats des élections du 5 mars 1933 ne seront pas à la hauteur des efforts déployés : avec 288 sièges et 43,9 pour cent des voix, le NSDAP remporte certes la plus grande victoire électorale jamais obtenue dans l’histoire de la République de Weimar, mais il ne peut obtenir la majorité simple au Reichstag qu’avec le renfort des nationaux-allemands de Hugenberg."
    },
    {
      "progress": 0.0,
      "text": "un dollar vaut 98 860 000 marks en septembre et 25 260 280 000 marks en octobre"
    },
    {
      "progress": 0.0,
      "text": " Une dernière considération a pu jouer un rôle dans le processus de prise de décision purement instinctif du Führer : en laissant à la Luftwaffe tout le crédit de la victoire finale à Dunkerque, il privilégiera cette arme national-socialiste par excellence, aux dépens d’une armée de terre réactionnaire et imparfaitement nazifiée"
    },
    {
      "progress": 0.0,
      "text": "ce jour-là, un avion léger appartenant à la Luftflotte II du général Felmy se perd dans le brouillard et atterrit en Belgique, à Mechelen-sur-Meuse. Or, contrairement aux consignes très strictes données par la Luftwaffe, il transporte le major Helmut Reinberger, qui est porteur des plans d’opérations complets d’une division de parachutistes devant participer à l’offensive en Belgique, prévue cette fois pour le 17 janvier. Le major est donc capturé avec ces documents hautement sensibles, qu’il tente de brûler sans y parvenir complètement."
    },
    {
      "progress": 0.0,
      "text": " la présence de Goering, avec ses représentations de gala, son faste et ses fêtes, au milieu de l’élite des officiers chamarrés d’or, transformait tout en quelque chose qui n’avait plus rien d’arbitraire, qui recréait une atmosphère séduisante de légèreté et de frivolité"
    },
    {
      "progress": 0.0,
      "text": " « Dès ce moment, écrira Albert SpeerV, je m’étais aperçu que Goering ne faisait rien pour traiter les problèmes. Lorsqu’il lui arrivait de s’y atteler, il ne parvenait qu’à créer un désordre total, car il ne prenait jamais la peine d’aller au fond des choses, préférant prendre ses décisions impulsivement, sous le coup de l’inspiration"
    },
    {
      "progress": 0.0,
      "text": "le chancelier Schuschnigg, contraint de mener une politique qu’il désapprouve, commet une nouvelle erreur : au soir du 9 mars, il annonce la tenue d’un plébiscite quatre jours plus tard, afin que le peuple autrichien puisse se prononcer sur la question suivante : « Voulez-vous une Autriche allemande, indépendante, chrétienne, sociale et libre ? »\n\n       C’est le prétexte que recherchait Hitler, et dès le 10 mars, il ordonne à ses forces armées de se préparer à franchir la frontière autrichienne dans les quarante-huit heures"
    },
    {
      "progress": 0.0,
      "text": ", le chef de l’OKH von Brauchitsch, son chef d’état-major Halder et le commandant du groupe d’armées Centre von Bock sont partisans d’une offensive immédiate en direction de la capitale : haut lieu du pouvoir bolchevique et principal nœud ferroviaire du pays, elle ne manquera pas d’être défendue par le gros de l’armée soviétique – ou par ce qu’il en reste –, ce qui permettra de remporter une victoire décisive. Mais Hitler a d’autres idées : en prenant Leningrad et Kronstadt, la Wehrmacht fermera la Baltique à la flotte soviétique et opérera sa jonction avec les forces finlandaises venues de Carélie ; en s’emparant de Kiev, elle s’ouvrira le chemin de Kharkov et des bassins miniers du Donetz, et surtout, elle avancera vers Rostov, qui donne accès aux pétroles du Caucase"
    },
    {
      "progress": 0.0,
      "text": "Goering, lui, veut une aviation de propagande, propre à donner satisfaction au Führer et à intimider la France et la Pologne, considérées à l’époque comme les ennemis les plus probables"
    },
    {
      "progress": 0.0,
      "text": "  « L’énorme choc de Stalingrad avait saisi la Luftwaffe comme l’ensemble du pays, se souviendra le photographe officiel Eitel Lange ; mais je me suis intéressé à une chose qui sautait aux yeux : à partir de là, les officiers et les soldats de la Luftwaffe se sont mis à ne plus prendre leur commandant en chef tout à fait au sérieux871. "
    },
    {
      "progress": 0.0,
      "text": "le 21 juin, il se rend également à Neudeck, où le ministre de la Guerre von Blomberg lui fait clairement comprendre qu’il ne peut espérer obtenir le soutien de l’armée qu’au prix de l’élimination des SA en tant que force politique – ce que le vieux maréchal Hindenburg lui confirme aussitôt"
    },
    {
      "progress": 0.0,
      "text": "Pour découvrir le dessous des cartes, il faut se reporter au 5 novembre 1937 : ce jour-là, le Führer réunit à la chancellerie du Reich von Blomberg, von Fritsch, Goering, Raeder et von Neurath, officiellement pour évoquer l’approvisionnement en matières premières des forces armées, mais en réalité pour leur faire part des « buts de la politique étrangère allemande »."
    },
    {
      "progress": 0.0,
      "text": "dans un mouvement unanime, ces industriels prudents et avisés sortent allègrement leurs carnets de chèques pour contribuer à enterrer la démocratie allemande"
    },
    {
      "progress": 0.0,
      "text": "Il déteste l’« art dégénéré » de Braque et de Picasso, mais s’en empare malgré tout pour l’utiliser comme monnaie d’échange."
    },
    {
      "progress": 0.0,
      "text": "Goering et sa suite n’ont que le temps d’abandonner leur voiture et de se réfugier dans un grand abri antiaérien, où ils se trouvent bien involontairement mêlés à la population berlinoise. Mais quoi qu’ait pu en dire Goebbels, la popularité du Reichsmarschall a survécu à toutes les épreuves : l’accueil est étonnamment chaleureux, Goering, retrouvant tous ses talents de comédien, se présente en disant : « Bonjour, je m’appelle Meyer ! », "
    },
    {
      "progress": 0.0,
      "text": "Hermann lui a fait construire une reproduction au 1/10e du château de Sans-Souci : 50 m de long, 7 m de large et 3,5 m de hautL, avec toutes les pièces et tous les meubles à la dimension d’un enfant"
    },
    {
      "progress": 0.0,
      "text": "pour consolider l’autorité d’Hitler dans le pays – et mieux asseoir son propre pouvoir –, il crée dès le début de mai la police secrète d’Etat, qu’il place sous l’autorité du très dévoué et très inquiétant Rudolf Diels. Cette redoutable institution, bientôt connue sous le nom de GestapoVII,"
    },
    {
      "progress": 0.0,
      "text": "Comment pourrait-il imaginer que le code de conduite médiéval de Hermann Goering lui interdit d’abattre un ennemi ayant rompu sa lance au cours du tournoiVII"
    },
    {
      "progress": 0.0,
      "text": "Hermann Goering reste un homme sous influence, et il n’a pas la moindre intention de se retourner contre son maître – si déraisonnables que puissent lui paraître certaines de ses décisions."
    },
    {
      "progress": 0.0,
      "text": "Pour Goering, le manque d’expérience n’est pas un handicap : seule compte la fidélité à sa personne"
    },
    {
      "progress": 0.0,
      "text": " l’inextinguible soif de décorations de Hermann Goering est bien connue de tous les dirigeants du continent, qui lui en décernent d’autant plus volontiers que le Führer n’en a que faire"
    },
    {
      "progress": 0.0,
      "text": "Milch en est réduit à faire construire en grande série un bombardier Ju 88 amélioré, rebaptisé Ju 188 – « afin de faire croire à l’ennemi que c’est un nouveau modèle"
    },
    {
      "progress": 0.0,
      "text": "« Lors de ma visite à la Leipzigerplatz, où la villa d’un ministre de Prusse était devenue un véritable palais, je fus fort irrité de rencontrer un lion de taille respectable, qui se promenait librement dans le bureau et l’emplissait de son odeur de fauve, bien que Robert, le domestique, l’ait régulièrement aspergé d’eau de Cologne – un mélange qui n’améliorait pas exactement l’atmosphère. Ce n’est que lorsque l’animal, abordant une princesse bien en chair, lui arracha d’un seul coup de patte amical dans le dos sa robe avec tout ce qu’il y avait dessous, que l’on se décida à renvoyer le roi de la jungle dans le zoo qu’il n’aurait jamais dû quitter327. "
    },
    {
      "progress": 0.0,
      "text": "au ministre des Finances de Prusse Popitz, qui lui dit que les responsables de ces exactions antisémites devraient être châtiés, Goering répond : « Mon cher Popitz, vous voulez donc châtier le Führer424 ? » Hélas ! Voilà la triste vérité : Hitler fait connaître sa volonté, et dès lors, Hermann Goering ne s’appartient plus vraiment"
    },
    {
      "progress": 0.0,
      "text": "alors que les forces aériennes britanniques du sud de l’Angleterre, avec de lourdes pertes et un système d’appui au sol fortement désorganisé, sont sur le point de fléchir, la Luftwaffe se détourne brusquement de la plupart de ses objectifs militaires. Ce répit providentiel va permettre à la RAF de réparer ses lignes de communications, de réapprovisionner ses aérodromes, de rebâtir ses postes de commandement et de reconstituer ses escadrilles décimées. "
    },
    {
      "progress": 0.0,
      "text": "le 7 novembre, un jeune Juif de dix-sept ans nommé Herschel Grynszpan abat le troisième secrétaire de l’ambassade d’Allemagne à Paris, Ernst von Rath. Ce geste doublement malheureuxIII va déclencher en Allemagne des représailles d’une ampleur sans précédent : dans la nuit du 9 au 10 novembre 1938, plus de 100 Juifs sont tués et 20 000 déportés en camps de concentration, tandis que 7 500 boutiques sont détruites et 12 000 pillées, 101 synagogues sont incendiées, 76 démolies et 267 endommagées."
    },
    {
      "progress": 0.0,
      "text": "les contacts discrets en vue de parvenir à un règlement pacifique avec les alliés occidentaux vont se poursuivre, avec chez Hitler l’intention manifeste de séparer les Britanniques des Français, et chez Goering le souci de seconder son Führer, doublé du désir secret d’éviter le déclenchement anticipé d’une guerre mondiale."
    },
    {
      "progress": 0.0,
      "text": "Hitler nomme Goebbels dès la fin de juillet « plénipotentiaire à la guerre totale"
    },
    {
      "progress": 0.0,
      "text": "  C’est à l’été de 1934 qu’Adolf Hitler devient véritablement le maître de l’Allemagne : entre la fin de juin et le début de juillet, il terrasse à la fois ses adversaires de droite et de gauche, et fait légaliser a posteriori les trois jours d’assassinats en tant que « mesures de salut public » ; "
    },
    {
      "progress": 0.0,
      "text": "l’opposition à tout nouveau conflit est très forte dans la Wehrmacht, et Goering en a une preuve éclatante dès la fin du mois d’août, avec la démission du chef d’état-major de l’armée de terre "
    },
    {
      "progress": 0.0,
      "text": "Les services de renseignement allemands avaient prévu la grande offensive soviétique du 12 janvier 1945, mais son ampleur va prendre tout le monde par surprise : sur plus de 1 200 kilomètres, à partir de la Vistule et du Narew, 2,5 millions d’hommes et 7 000 blindés, couverts par 6 500 avions, s’élancent en direction de la Bohême-Moravie, de la Silésie, de la Poméranie et de la Prusse orientale."
    },
    {
      "progress": 0.0,
      "text": "L’atmosphère dans cette ville, comme dans beaucoup d’autres, oscille entre la révolution et l’anarchie : les soldats, les marins et les ouvriers bolcheviks, qui se sont rendus maîtres de la rue, insultent les officiers et arrachent leurs médailles. La foule, qui acclamait hier ses héros, les accueille à présent avec hostilité et dérision ; comment rester insensible à un si brusque revirement ?"
    },
    {
      "progress": 0.0,
      "text": "  C’est seulement le 16 janvier que le Führer quitte le nid d’aigle de Ziegenberg pour rentrer à Berlin, et les ordres qu’il donne dès son retour manquent singulièrement de cohérence : aucune retraite n’est permise"
    },
    {
      "progress": 0.0,
      "text": "Lorsque ce condottiere paradait dans ses somptueux et si nombreux costumes, il semblait vraiment inviter tous les observateurs sceptiques à ne pas le prendre plus au sérieux qu’il ne se prenait lui-même ; il se caricaturait en quelque sorte."
    },
    {
      "progress": 0.0,
      "text": "en tant qu’ancien chef de la police politique, Hermann Goering a pris l’habitude d’envoyer un émissaire auprès du comité directeur de la Bourse de Berlin, afin d’« indiquer en termes non équivoques les valeurs dont les cours doivent s’effondrer le lendemain, et remonter à un taux supérieur le surlendemain », "
    },
    {
      "progress": 0.0,
      "text": "Il est vrai que l’armée du Kaiser n’a pas été vaincue militairement et que le pays n’a pas été envahi par les armées alliées. Mais prétendre qu’elle aurait pu poursuivre la lutte pendant plus de quelques semaines dans l’état de délabrement et de démoralisation où elle se trouvait en novembre 1918, c’est faire preuve d’inconscience ou de malhonnêteté,"
    },
    {
      "progress": 0.0,
      "text": "le 17 mai, une vingtaine de bombardiers britanniques parvient à détruire le barrage de Möhne, qui retient les réserves d’eau alimentant le bassin industriel de la Ruhr. Il s’ensuit une inondation de la vallée, une mise hors service des installations électriques et un ralentissement sensible de la production sidérurgiqueXVII."
    },
    {
      "progress": 0.0,
      "text": "Les déclarations publiques de Roehm au sujet d’une fusion des SS, des SA et de la Reichswehr sous sa directionXVII ont alerté depuis longtemps le ministre de la Guerre von Blomberg et le chef d’état-major von Reichenau, qui s’en sont plaints à la présidence et à la chancellerie. Quant aux conversations privées de Roehm avec Hitler sur l’opportunité de constituer une « Reichswehr du peuple » sous l’autorité de la SA, puis de mener à bien une « seconde révolution » de type socialiste, elles ont passablement indisposé le Führer, qui n’a aucun goût pour une nouvelle révolution et ne peut modifier la structure de la Reichswehr du vivant de Hindenburg."
    },
    {
      "progress": 0.0,
      "text": "Celui qui débarque, lors d’une invasion, est toujours l’idiot, car il ne sait pas où il met les pieds. "
    },
    {
      "progress": 0.0,
      "text": "en vérité, Hitler ne cesse d’hésiter entre un blocus impraticable, une guerre aérienne coûteuse et une invasion à haut risque"
    },
    {
      "progress": 0.0,
      "text": "la Société des Nations transférait à la Pologne une partie de la Haute-Silésie, avec ses précieuses mines de charbon"
    },
    {
      "progress": 0.0,
      "text": "Cette journée du 30 juin 1934 qui commence à peine restera dans l’histoire sous un nom qui fait encore frémir : la Nuit des Longs Couteaux"
    },
    {
      "progress": 0.0,
      "text": " Sa carte de visite avait les dimensions d’une carte postale : c’était typique du personnage."
    },
    {
      "progress": 0.0,
      "text": "le 17 février, Hitler est informé du plan conçu par le général von Manstein ; ce chef d’état-major du groupe d’armées A, cantonné au sud de l’Eifel, envisage un bouleversement complet du dispositif stratégique existant : au lieu de faire passer l’axe principal de l’offensive par les Pays-Bas et le nord de la Belgique, il propose de le déplacer vers les Ardennes pour frapper entre Sedan et Dinant, puis de lancer les divisions blindées en un grand mouvement de faux d’est en ouest pour gagner la Manche et prendre à revers les armées alliées engagées en Belgique."
    },
    {
      "progress": 0.0,
      "text": ". A l’automne de 1933, si Hitler a pu épurer son gouvernement, balayer ses adversaires politiques, juguler les libertés, laminer l’opposition, étouffer les Länder, éliminer les syndicats, mettre au pas les Eglises, bâillonner le Reichstag, instaurer un Etat policier et imposer sa dictature, c’est très largement à Hermann Goering qu’il le doit."
    },
    {
      "progress": 0.0,
      "text": "je me promets toujours de dire à Hitler exactement ce que je pense, mais quand j’entre dans son bureau, mon cœur descend invariablement dans mes bottes"
    },
    {
      "progress": 0.0,
      "text": "Nous nous saluons avec le signe conventionnel que nous avons peu à peu adopté, un serrement de main et un battement de paupières."
    },
    {
      "progress": 0.0,
      "text": "chacun sait que le Reichsmarschall minore effrontément les pertes de la Luftwaffe, tout en exagérant démesurément celles de la RAF"
    },
    {
      "progress": 0.0,
      "text": "  C’est évidemment un poste clé que celui de ministre de l’Intérieur en Prusse : il contrôle les forces de police du plus grand Etat allemand, à commencer par celles de Berlin"
    },
    {
      "progress": 0.0,
      "text": "« Les militaires disent que nous ne sommes pas prêts, mais une armée n’est jamais prête. […] Ce qui compte, c’est de savoir si nous sommes plus prêts que les autres ; et c’est bien le cas578. »"
    },
    {
      "progress": 0.0,
      "text": "son but étant moins de renverser Staline que de réduire la Russie à l’état de colonie allemande, il interdit toute coopération avec les éléments nationalistes et antistaliniens baltes, ukrainiens et biélorusses qui avaient accueilli les Allemands en libérateurs au cours des premières semaines de l’invasion."
    },
    {
      "progress": 0.0,
      "text": " C’est ainsi que dès novembre 1941, les Soviétiques ont reçu les plans détaillés de l’offensive vers le Caucase prévue par Hitler pour le printemps de 1942"
    },
    {
      "progress": 0.0,
      "text": "  A l’issue de la conférence de Munich, le Führer a triomphé sur toute la ligne : les territoires qu’il revendiquait vont lui être remis avec un délai insignifiant, la commission internationale apparaît rapidement comme un paravent dérisoire qui n’organisera pas le moindre plébiscite, 2,5 millions d’Allemands des Sudètes entrent dans le Reich, les Tchèques se trouvent réduits à l’impuissance, Français et Britanniques sont humiliés, et Chamberlain rentre à Londres en brandissant une « déclaration anglo-allemande » qui constitue un engagement écrit de non-agression et de consultation mutuelle. A tout cela s’ajoute que l’issue de la conférence a immensément accru le prestige du Führer au sein de l’armée et du peuple allemandsI"
    },
    {
      "progress": 0.0,
      "text": "Après la France et la Grande-Bretagne, il y a naturellement l’Italie, qu’il ne s’agit plus d’intimider, mais bien de séduire. Car la campagne d’Ethiopie et l’engagement dans la guerre d’Espagne ayant définitivement éloigné l’Italie du camp des Alliés et considérablement rapproché Rome de Berlin, il ne reste plus qu’à éblouir Mussolini pour l’amener définitivement dans l’orbite allemande."
    },
    {
      "progress": 0.0,
      "text": "lors d’un bombardement américain sur Düren, en Rhénanie, au début d’avril 1943, Goering, qui séjourne à Carinhall, croit pouvoir mieux estimer la trajectoire ultérieure des assaillants que le PC de la Luftwaffe, et il envoie ses chasseurs en masse vers Schweinfurt, puis Leipzig, puis Pilsen. La confusion est totale, jusqu’à ce que l’on constate que les bombardiers américains ont depuis longtemps quitté le territoire du Reich… et que les chasseurs allemands ont abattu dix de leurs propres bombardiers"
    },
    {
      "progress": 0.0,
      "text": "Je me suis fait apporter une carte et me suis préparé au vol en l’étudiant pendant une demi-heure, afin de m’en imprégner jusqu’à ce que je la connaisse par cœur. C’est ainsi que je procédais sur le front de France."
    },
    {
      "progress": 0.0,
      "text": "pour le président du Reichstag Hermann Goering, par exemple, il suffit d’invalider les 81 sièges remportés par le parti communiste – dont la plupart des titulaires ont été arrêtés –, d’expulser quelques députés sociaux-démocrates, de faire de vagues promesses aux partis de la droite nationaliste, et d’intimider tous les autres par un judicieux déploiement de SA et de SS. L’effet est magique : le 23 mars, les nationaux-allemands de Hugenberg, le Zentrum et le Parti populaire bavarois se joignent au NSDAP pour constituer la majorité nécessaire au vote de l’Ermächtigungsgesetz – la loi d’habilitation –, qui donne au gouvernement d’Hitler les pleins pouvoirs pour quatre ans, et lui permet d’édicter toute mesure législative sans même en référer au Reichstag."
    },
    {
      "progress": 0.0,
      "text": "les Bavarois, dans leur grande majorité catholiques et régionalistes, sont hostiles par principe aux autorités protestantes et centralisatrices de Berlin,"
    },
    {
      "progress": 0.0,
      "text": "Mais aux dignitaires du parti qui se plaignent amèrement à Hitler de ces invraisemblables débauches de luxe dans un régime qui se glorifie de ses origines prolétariennesL, le Führer répond impatiemment : « Lassen Sie den Göring. Der allein kann repräsentieren ! » – « Laissez donc Goering tranquille. C’est le seul qui puisse assumer la représentation »321."
    },
    {
      "progress": 0.0,
      "text": "se mêlent chez ce satrape habillé en maréchal la lucidité occasionnelle, la servilité récurrente et la vanité omniprésente."
    },
    {
      "progress": 0.0,
      "text": "les divisions ont trente-huit modèles différents de véhicules blindés, sans compter les variantes de fabrication pour chaque modèle, de sorte que l’obtention des pièces détachées constitue un cauchemar permanent"
    },
    {
      "progress": 0.0,
      "text": "on est bien conscient à Londres de la minceur des différences séparant les positions allemandes et britanniques ; après tout, Chamberlain était disposé à remettre les Sudètes aux Allemands, pourvu que l’on y mette les formes, que l’on procède à des plébiscites et qu’une commission internationale donne au processus une apparence de respectabilité. Hitler, lui, veut les mêmes résultats, mais selon des modalités plus brutales, propres à renforcer son prestige et à humilier les Tchèques. A Londres, Chamberlain mesure l’absurdité que représenterait le déclenchement d’une guerre pour des motifs aussi dérisoires"
    },
    {
      "progress": 0.0,
      "text": "la prise de la ville semble imminente, lorsque le général reçoit un ordre téléphonique du chef d’état-major de von Leeb : la division doit renoncer à l’assaut, et même évacuer sa position avancée ! Reinhard proteste, mais s’entend dire que von Leeb lui-même a vainement tenté de faire rapporter l’ordre ; c’est qu’il émane directement de Rastenburg, et la raison en est proprement effarante : le Führer ne veut plus prendre Leningrad, il préfère l’assiéger et laisser mourir de faim sa population de 3 millions d’habitants, afin de ne pas avoir de bouches inutiles à nourrir"
    },
    {
      "progress": 0.0,
      "text": "après le krach de Wall Street en octobre 1929, les financiers américains ont commencé à retirer leurs capitaux d’Allemagne, ce qui a touché l’industrie de plein fouet, paralysé les exportations et enfoncé brusquement le pays dans la crise."
    },
    {
      "progress": 0.0,
      "text": "XLI. A la fin du mois de mai, le Feldmarschall n’a pas osé exprimer ses doutes, car de son propre aveu, il perd tous ses moyens en présence du Führer ; mais avant la conférence du 28 mai, il avait demandé discrètement à l’aide de camp d’Hitler : « Wiedemann, est-ce que le Führer s’imagine que les Français ne feront rien si nous rentrons dans les Tchèques ? Est-ce qu’il lit les comptes rendus du Forschungsamt que je lui envoie381 ? "
    },
    {
      "progress": 0.0,
      "text": "Quinze jours plus tard, pour mieux briller aux yeux du Führer, Goering fait organiser au centre d’essais de Rechlin une présentation des derniers modèles ultra-secrets de la production aéronautique allemande, y compris l’avion à réaction Me 262,"
    },
    {
      "progress": 0.0,
      "text": "Tout cela n’étant pas encore suffisant, le Reichsmarschall a fait construire à 7 kilomètres plus au nord une réplique parfaite de Carinhall en bois, toile et métal, pour tromper les aviateurs alliés"
    },
    {
      "progress": 0.0,
      "text": "Entre le 23 février et le 5 mars 1945, la Finlande et la Turquie, sentant le vent tourner, ont déclaré la guerre à l’Allemagne, isolant encore davantage un Reich aux abois."
    },
    {
      "progress": 0.0,
      "text": "Wenner-Gren, de retour à Stockholm, rédige lui aussi un programme de paix, intitulé « Pacte de vingt ans », et comportant cette fois des obligations réciproques : les nazis, pour leur part, mettraient fin à toutes les persécutions raciales, libéreraient les prisonniers politiques et fermeraient les camps de concentration"
    },
    {
      "progress": 0.0,
      "text": "Pour réaliser ses ambitions, il lui faut en somme apparaître aux yeux des Anglais comme une colombe de la paix et aux yeux d’Hitler comme un foudre de guerre ! Ainsi que le note à cette époque l’ambassadeur von Hassel, qui reçoit des confidences de l’entourage du maréchal : « Goering ne veut plus être engueulé et traité de lâche485. » D’où son attitude quelque peu schizophrénique, qui fait alterner en succession rapide les offres de paix et les discours belliqueux"
    },
    {
      "progress": 0.0,
      "text": "informé par le Führer de sa nomination au poste de chef d’état-major de l’armée, « avec interdiction formelle de donner sa démission à l’avenir"
    },
    {
      "progress": 0.0,
      "text": "c’est la coordination pratiquement parfaite de l’action des chars et des avions, exécutée pour la première fois sur un théâtre d’opérations, qui crée la surprise et la rupture"
    },
    {
      "progress": 0.79,
      "text": ": « Le troisième jour du jugement, […] Ralph AlbrechtXV était en train de faire sa présentation de la structure du gouvernement allemand, […] lorsque je l’ai entendu dire que “les successeurs désignés d’Hitler étaient, dans l’ordre, l’accusé Hess et ensuite l’accusé Goering”. […] Etant assis à moins de 6 mètres de ces deux messieurs, j’ai voulu voir si l’un ou l’autre avaient remarqué l’erreur, et ce que serait leur réaction. Goering était déjà en train d’agiter les bras, il se désignait avec insistance en répétant : “Ich war der Zweite !” – “le second, c’était moi !”. Hess s’est retourné et a éclaté de rire devant cet accès de vanité caractéristique"
    },
    {
      "progress": 0.8,
      "text": "Lorsque les Soviétiques inscrivent parmi les chefs d’accusation l’invasion de la Pologne, ils se déconsidèrent entièrement, s’exclame-t-il, puisqu’ils ont fait la même chose à la même époque."
    },
    {
      "progress": 0.8,
      "text": "ce qui frappe chez Hermann Goering, c’est ce manque total d’empathie."
    },
    {
      "progress": 0.81,
      "text": ": si Goering a fait des efforts pour extraire des personnes de camps de concentration, c’est donc qu’il savait parfaitement ce qui s’y passait"
    }
  ],
  "attribution": "François Kersaudy",
  "cover": "François-Kersaudy-Hermann-Goering",
  "description": "",
  "id": "François-Kersaudy-Hermann-Goering",
  "isbn": "urn:uuid:bc761d35-db9d-4ffa-9063-d34794c6541b",
  "language": "fr",
  "lastread": "2016-02-13T21:14:09Z",
  "publisher": "",
  "subtitle": null,
  "title": "Hermann Goering"
}