{
  "annotations": [
    {
      "progress": 0.0,
      "text": "tout apprenti-stratège connaît le vieux dicton : « Qui veut protéger tout à la fois ne protège rien »."
    },
    {
      "progress": 0.0,
      "text": ". Dans les autres neuf dixièmes, la R.A.F. pouvait donc en toute tranquillité construire des appareils, former des pilotes, constituer des réserves qu’elle jetait au moment opportun sur le théâtre étroit des opérations, surtout dans la région londonienne."
    },
    {
      "progress": 0.0,
      "text": "Dans les premières batailles de chasseurs, les Anglais étaient assez largement désavantagés par leur principe de vol en formation resserrée. Nous, par contre, avions déjà appris en Espagne la méthode du dispositif espacé qui étirait les diverses sections, patrouilles et escadrilles, sur un espace considérable et les étageait à des niveaux différents. Cette formation offrait plusieurs avantages : couverture d’un secteur étendu, liberté d’action accrue des pilotes qui n'étaient plus forcés de consacrer leur attention essentiellement au maintien rigide du dispositif, diminution de la surface visible et, surtout, amélioration de la propre visibilité."
    },
    {
      "progress": 0.0,
      "text": "le moteur du Messerschmitt 109 avait des pompes à injection, à la place du carburateur classique des moteurs anglais, ce qui l’empêchait de « couper » aux fortes décélérations qui peuvent se produire au cours d’un combat aérien."
    },
    {
      "progress": 0.0,
      "text": "le haut commandement utilisa avec un rare bonheur une méthode tout à fait nouvelle dans l’histoire militaire : la collaboration intime et entière des unités rapides de l'armée de terre et des forces aériennes."
    },
    {
      "progress": 0.0,
      "text": "Hitler lui-même n’avait jamais cessé de regarder vers l’Est. La guerre contre la Grande-Bretagne n’était pour lui qu’une obligation pénible, un mal nécessaire qu’il devait liquider d’une façon ou d’une autre."
    },
    {
      "progress": 0.0,
      "text": "le palmarès de Hartmann, le meilleur de tous, atteint le chiffre fantastique de trois cent quarante-six adversaires abattus."
    },
    {
      "progress": 0.0,
      "text": "On dit souvent, et probablement avec raison, que la première victoire d’un chasseur peut être décisive pour sa carrière future. Fréquemment, celui à qui une déveine persistante refuse pendant longtemps cette satisfaction va contracter un complexe d’infériorité dont il ne se débarrassera jamais. J'eus la chance de remporter dès le deuxième jour une victoire facile."
    },
    {
      "progress": 0.0,
      "text": "En général, dans une formation lancée à l’attaque, le pourcentage des pertes est en proportion inverse du nombre des appareils engagés."
    },
    {
      "progress": 0.0,
      "text": "Dans le combat aérien, il s’agit surtout de voir avant d'être vu."
    },
    {
      "progress": 0.0,
      "text": "Pour compléter leur programme de destruction, les Américains tentèrent de porter un coup mortel à notre production de roulements à billes. Cette industrie, entièrement concentrée à Schweinfurth, constituait le talon d’Achille de l’arsenal allemand."
    },
    {
      "progress": 0.0,
      "text": "Après le décollage, les formations se groupaient, encore au-dessus du continent, à une altitude de 5 000 à 6 000 mètres, pour grimper durant la traversée de la Manche jusqu’à 7 000 à 8 000 mètres. Comme chacun cherchait à dominer l’adversaire, les combats se déroulaient à des altitudes de plus en plus élevées."
    },
    {
      "progress": 0.0,
      "text": ": l’offensive aérienne contre l’Angleterre allait inévitablement révéler les limites et les faiblesses de la Luftwaffe. On risquait donc de galvauder le meilleur atout politique dont l’Allemagne disposait alors."
    },
    {
      "progress": 0.0,
      "text": " je fondais de grands espoirs sur le Messerschmitt 262, le premier chasseur à réaction, que j’avais piloté personnellement à la fin du printemps. Grâce à cet appareil, nous aurions pu faire le pas décisif qui nous aurait permis de pallier d’un seul coup notre infériorité. Il n’en fut rien. On m’objectait que la production massive de Messerschmitt 262 n’était réalisable qu’aux dépens des modèles améliorés d’appareils à hélice, et qu’on ne pouvait opérer une telle révolution sans risquer une interruption assez longue des livraisons. Or, de toute évidence, une telle interruption aurait réduit nos effectifs à zéro."
    },
    {
      "progress": 0.0,
      "text": "Chaque appareil sortait en moyenne deux à trois fois par jour."
    },
    {
      "progress": 0.0,
      "text": "les Britanniques possédaient une aviation de chasse numériquement très forte, mieux conduite que la nôtre grâce à leur avance dans le domaine du radar, et dont les pilotes, admirablement entraînés, faisaient preuve d'un mordant extraordinaire."
    },
    {
      "progress": 0.0,
      "text": "Pour échapper à la meute des chasseurs, nos submersibles furent obligés d’étendre leurs opérations d’abord dans l’Atlantique Nord et Sud, puis jusqu’au golfe de Mexique dans la mer des Caraïbes et sur la côte orientale de l’Amérique du Sud. "
    },
    {
      "progress": 0.0,
      "text": "les Stukas étaient obligés de rompre leur formation et de piquer jusqu’à proximité du sol, offrant ainsi une cible magnifique à la D.C.A. et à la chasse."
    },
    {
      "progress": 0.0,
      "text": "la production allemande d'appareils de chasse ne démarra que lentement pour atteindre son point culminant au moment où la guerre était pratiquement perdue. Au début de l'année 1940, la production mensuelle de Me 109 se chiffrait par environ 125 appareils. Sous l’impulsion d’Udet, elle arriva péniblement à 375 avions, pour retomber dès 1942 à 250. En 1943, Milch la porta à 1.000 et sous le ministre Speer, elle monta jusqu’à 2.500 appareils par mois. Seulement, on était alors à la fin de l'automne 1944 "
    },
    {
      "progress": 0.0,
      "text": "la chaude camaraderie du front qui, seule, rendait la guerre supportable."
    },
    {
      "progress": 0.0,
      "text": "Ensuite, pendant que la Grande-Bretagne réaffirmait ses engagements vis-à-vis de la Pologne, Hitler entama avec Varsovie des négociations au sujet de Dantzig et du Couloir. Après des débuts prometteurs, ces entretiens aboutirent à une impasse. Et leur échec fut la raison officielle du déclenchement de la seconde guerre mondiale."
    },
    {
      "progress": 0.0,
      "text": "Lorsque, à un endroit quelconque des fronts démesurés, l'ennemi ouvrait une trouée, on la colmatait avec des forces prélevées ailleurs, en attendant le moment où l'adversaire percerait dans le secteur dégarni."
    },
    {
      "progress": 0.0,
      "text": "En 1940, et même en 1941, les dirigeants du Reich n’avaient d'ailleurs pas du tout l’intention de s’occuper d'un problème aussi peu actuel que la défense aérienne du territoire national. Pour eux, le cauchemar des bombardements alliés allait prendre fin dès que la victoire à l’est permettrait de ramener le gros de la Luftwaffe sur le front de l’Ouest."
    },
    {
      "progress": 0.0,
      "text": "  Les Britanniques ont réussi à éliminer complètement notre couverture de radar. Pour la première fois, ils ont employé le procédé des « fenêtres », méthode aussi simple qu’efficace. Les bombardiers et les appareils d’escorte lâchent des faisceaux de « fenêtres », minces feuilles métalliques dont les dimensions correspondent à la fréquence de nos radars. Dérivant au gré du vent, ces feuilles, dans leur lente chute, forment une sorte de brouillard imperméable aux ondes. Bientôt, leur masse bouche complètement les écrans."
    },
    {
      "progress": 0.0,
      "text": ". Sur 1.160 sous-marins mis en service jusqu’à la fin de la guerre, nous en perdîmes plus de 700."
    },
    {
      "progress": 0.0,
      "text": "Quelques semaines plus tard, mourut le maréchal-président Hindenburg. L’armée entière prêta serment à Adolf Hitler, führer du Troisième Reich"
    },
    {
      "progress": 0.0,
      "text": "  Du terrain de départ jusqu’à la côte anglaise, à l'endroit le plus étroit de la Manche, nous mettions environ une demi-heure. Avec une autonomie de vol de quatre-vingts minutes nous ne disposions donc que de vingt minutes pour accomplir notre mission."
    },
    {
      "progress": 0.0,
      "text": "les pilotes anglais bénéficiaient d’un système de radar bien supérieur au notre. Durant les quatre mois de la bataille d’Angleterre, leur célèbre ground control joua un rôle de premier plan, dirigeant les appareils de seconde en seconde, les menant au combat dans les conditions les plus favorables et au meilleur moment."
    },
    {
      "progress": 0.0,
      "text": "Hitler lui-même avait déclaré en plaisantant qu’il confierait à notre allié italien son intention d'envoyer l’escadre de Brest au secours des Japonais. C’était, disait-il, le moyen le plus sûr de faire parvenir cette « information » à Londres."
    },
    {
      "progress": 0.0,
      "text": "que, sur la Manche, et particulièrement en automne, le temps change en général d’ouest en est, ce qui représente évidemment un lourd handicap pour les forces attaquant d’est en ouest. Le défenseur connaît ainsi le temps qu’il fait et qu’il fera au-dessus du théâtre des opérations bien avant l’assaillant."
    },
    {
      "progress": 0.0,
      "text": "Voulant trop bien faire, je reçus dans les ailes les éclats de mes propres bombes ; les passages en rase-mottes avaient parfois des inconvénients imprévus."
    },
    {
      "progress": 0.0,
      "text": " Si les Anglais avaient groupé leurs vingt Forteresses dans un dispositif serré, volant à 8.000 mètres, ils auraient obtenu, dès 1941, les résultats que les Américains devaient obtenir en 1943"
    },
    {
      "progress": 0.0,
      "text": " A présent, la Pologne était le seul pays d’Europe Centrale à garder encore, aux termes du traité de Versailles, de vastes régions peuplées de centaines de milliers d’Allemands. Le fameux « couloir polonais » notamment, monstruosité ethnologique et juridique qui séparait la Prusse Orientale du Reich, apparaissait comme une création arbitraire, pour ne pas dire grotesque."
    },
    {
      "progress": 0.0,
      "text": "la R.A.F. luttait au-dessus de son propre territoire. Ses pilotes abattus — et qui parvenaient à sauter à temps — étaient immédiatement engagés de nouveau, tandis que les nôtres étaient faits prisonniers."
    },
    {
      "progress": 0.0,
      "text": "Le Focke-Wulf 190 avait d’ailleurs un défaut grave : à partir de sept mille mètres, altitude d’approche normale des Forteresses Volantes, il perdait une grande partie de sa maniabilité, de sorte qu’à partir de cette hauteur, il devenait pour les chasseurs d’escorte américains une proie facile."
    },
    {
      "progress": 0.0,
      "text": "Entre temps, le Troisième Reich était né. Nous nous rendions compte que les ailes allemandes allaient prendre un essor prodigieux. Comment pouvait-il en être autrement, puisque le collaborateur le plus intime de Hitler était le dernier commandant de la célèbre escadrille « Richthofen », le capitaine Hermann Göring"
    },
    {
      "progress": 0.0,
      "text": "Le premier chef d'état major de la Luftwaffe, le général Wever, mort en 1936 dans l’accident de l'appareil qu’il pilotait lui-même, était également partisan de cette méthode. Considéré comme le Douhet allemand, il s’attacha, en parfait accord avec Hitler et Göring, à développer uniquement les bombardiers. Si bien que les chasseurs jouaient, dès le début, un rôle de second plan. Ils n’étaient en quelque sorte que tolérés, comme un mal nécessaire, une concession inévitable aux nécessités hypothétiques de la défensive."
    },
    {
      "progress": 0.0,
      "text": "même l’occupation totale des Iles britanniques n’aurait jamais amené l’Empire à capituler."
    },
    {
      "progress": 0.0,
      "text": ", ce merveilleux cadeau de l’ingénieur Messerschmitt fut tout d’abord considéré avec une extrême méfiance et faillit être refusé."
    },
    {
      "progress": 0.0,
      "text": ". Ils expliquaient leurs indications fantaisistes par l’impossibilité de contrôler les « adversaires détruits » réclamés par les bombardiers. Chaque mitrailleur qui, après avoir tiré sur un chasseur allemand, le voyait descendre en flammes, inscrivait de bonne foi cette victime à son actif. Or, le plus souvent, ils étaient plusieurs à viser le même appareil. Ainsi, au-dessus de Lille, nous perdîmes un jour deux Messerschmitt 109. Les Américains, eux, annoncèrent cent deux avions ennemis abattus. En simplifiant le problème à l’extrême, on pouvait expliquer cette différence en disant que cinquante et un mitrailleurs avaient dû vider leurs chargeurs sur nos deux appareils."
    },
    {
      "progress": 0.0,
      "text": "  Au moment où mon pauvre zinc, le fuselage troué, les ailes criblées, fut sur le point de se désagréger, j'eus recours à un subterfuge qui m'avait déjà sauvé une fois, au-dessus de l'Angleterre : déclenchant mes armes, je tirai dans le vide, droit devant moi. L'effet fut immédiat. Voyant tout à coup la fumée des départs venir à leur rencontre, ils crurent probablement avoir affaire au premier chasseur allemand capable de tirer en arrière. Ils s’écartèrent précipitamment, d’un commun accord. J’étais sauvé."
    },
    {
      "progress": 0.0,
      "text": "Hitler ne connaissait et n’admettait qu’une seule stratégie : l'offensive."
    },
    {
      "progress": 0.0,
      "text": "Les pilotes anglais, pris en chasse, essayaient en général de dégager par un demi-tonneau suivi d’un demi-looping, alors que nous pouvions les suivre par un simple quatre-vingt-dix degrés, à plein régime de moteur (et aussi, il est vrai, avec les yeux qui nous sortaient de la tête"
    },
    {
      "progress": 0.0,
      "text": "Le haut commandement eut alors l’idée d’adjoindre aux formations de chasseurs quelques bombardiers et Stukas, surnommés très vite « les appâts ». Idée juste, car c’était seulement avec ces appareils porteurs de bombes qu’apparaissait la possibilité d’une guerre venant du ciel, c’est-à-dire d’une attaque directe du territoire anglais. Empêcher ces attaques était justement la grande préoccupation des dirigeants britanniques."
    },
    {
      "progress": 0.0,
      "text": "j’avoue, sans la moindre honte, qu’avant chaque décollage, j’avais peur, terriblement et lamentablement peur. Il est vrai qu’à 3 000 ou 4 000 mètres, ma frousse disparaissait comme par enchantement"
    }
  ],
  "attribution": "Général Galland",
  "cover": "Général-Galland-Jusqu-au-bout-sur-nos-Messerschmitt",
  "description": "",
  "id": "Général-Galland-Jusqu-au-bout-sur-nos-Messerschmitt",
  "isbn": "{68183A40-6AC4-484D-B6C5-7A62D4704D31}",
  "language": "fr-FR",
  "lastread": "2015-12-22T10:05:31.479",
  "publisher": "",
  "subtitle": null,
  "title": "Jusqu'au bout sur nos Messerschmitt"
}