{
  "annotations": [
    {
      "progress": 0.0,
      "text": "Le 5 juin 1967, Israël, déterminé à briser l’encerclement arabe, prend l’initiative des hostilités et détruit au sol l’aviation égyptienne. Durant cette « guerre des Six-Jours », la bande de Gaza et le Sinaï égyptien sont occupés pour la deuxième fois – la première remontait à la crise de Suez de 1956-1957."
    },
    {
      "progress": 0.0,
      "text": "la France de Louis-Philippe ne ménage pas son soutien à l’Égypte de Mohammed Ali, y compris lorsque son fils Ibrahim se lance à la conquête de la Palestine en 1831, réussissant là où Bonaparte avait échoué : Acre tombe, ouvrant la voie de la Syrie, et, quelques années plus tard, les forces égyptiennes menacent l’Anatolie elle-même. C’en est trop pour l’Angleterre, qui intervient aux côtés de l’Empire ottoman et contraint Ibrahim à évacuer le Levant en 1840."
    },
    {
      "progress": 0.0,
      "text": "Saddam Hussein comprend qu’il a les mains libres pour une répression sauvage et il va jusqu’à utiliser des gaz de combat contre les villes chiites du Sud. Dans le nord de l’Irak, la crainte d’un nouveau massacre chimique, comme celui déjà perpétré à Halabja en mars 1988, provoque un exode de la population kurde vers la Turquie. Moins pour aider les Kurdes d’Irak que pour garantir le flanc méridional de l’OTAN, les États-Unis imposent une zone d’interdiction aérienne au nord du 36e parallèle, qui aboutit à une autonomie de fait des provinces kurdes par rapport à Bagdad."
    },
    {
      "progress": 0.0,
      "text": "  En mai 1964, Nasser crée sous son égide une Organisation de libération de la Palestine (OLP), dont il confie la présidence à Ahmed Shuqayri, ancien ambassadeur de l’Arabie Saoudite à l’ONU, depuis rallié à l’Égypte. Faysal réagit en encourageant Yasser Arafat et son mouvement, le Fatah, qui prône la lutte armée des fedayines (littéralement « ceux qui se sacrifient », prêts qu’ils sont à mourir pour leur foi et/ou leur patrie)"
    },
    {
      "progress": 0.0,
      "text": "Le patriarche hachémite a cependant sous-estimé la virulence de l’hostilité que nourrit à son endroit son éternel rival Ibn Saoud. Les militants wahhabites se sont bien gardés de se joindre à la Révolte arabe, anticipant dès alors la confrontation, à leurs yeux inéluctable, avec les Hachémites. Ils font mouvement vers le Hedjaz à l’automne 1924, s’emparant de La Mecque (où ils pénètrent les fusils tournés vers le sol), puis de Médine. Ce n’est cependant qu’après un long siège que Djedda tombe entre leurs mains, en décembre 1925"
    },
    {
      "progress": 0.0,
      "text": "Obsédé par sa confrontation avec Faysal, Nasser ne perçoit plus la tension avec Israël que sous l’angle de la propagande et de la surenchère interarabe. Les incidents se multiplient à la frontière syrienne, du fait des infiltrations répétées du Fatah, et les baasistes au pouvoir à Damas dénoncent la passivité de l’Égypte. Nasser sait qu’un tiers de son armée est immobilisé au Yémen, mais il joue son va-tout en mai 1967, en exigeant le retrait des forces de l’ONU déployées entre Israël et l’Égypte, puis en annonçant le blocus du golfe d’Aqaba (et donc du port israélien d’Eilat)."
    },
    {
      "progress": 0.0,
      "text": "La tension monte au sein de l’armée algérienne. En juin 1965, les blindés de Boumediene font mouvement dans la capitale. La population ne comprend que tardivement qu’il s’agit d’un putsch, car le coup d’État coïncide avec le tournage par Gillo Pontecorvo de La Bataille d’Alger, reconstitution de la crise de 1957, avec figurants et véhicules de l’APN. Ce télescopage entre la fiction et la réalité permet à Boumediene de limiter les violences et d’imposer son « mouvement de redressement ».\n"
    },
    {
      "progress": 0.0,
      "text": "Bourguiba fait feu de tout bois. Aux élites francophones, il se présente comme le champion d’un modèle de développement à l’européenne. Mais il organise aussi sa célébration comme le « combattant suprême », en arabe le « plus grand des moudjahidines », revendiquant la paternité du jihad d’émancipation de la Tunisie. Ben Youssef est contraint de s’exiler et ses partisans sont neutralisés. En mars 1956, la Tunisie accède à l’indépendance et Bourguiba devient Premier ministre de Liamine Bey"
    },
    {
      "progress": 0.0,
      "text": "Le monde arabe est intégralement passé sous la domination coloniale, à l’issue du premier conflit mondial, à l’exception de l’Arabie bientôt Saoudite et de l’imamat autarcique du Yémen."
    },
    {
      "progress": 0.0,
      "text": "  N’ont véritablement échappé à l’emprise ottomane que le port d’Oran, sous occupation espagnole jusqu’en 1792, et le royaume du Maroc, adossé aux chaînes du Rif et de l’Atlas, tourné vers l’Atlantique pour mieux conserver son indépendance. Les souverains alaouites, descendants du prophète Mohammed, y ont consolidé leur dynastie à partir de 1666 et c’est en leur nom que la prière est prononcée dans le pays"
    },
    {
      "progress": 0.0,
      "text": "Zarqaoui qualifie de « grâce » divine l’irruption des États-Unis au cœur du Moyen-Orient3. À partir de là, le jihad antiaméricain en Irak attire des recrues du monde entier."
    },
    {
      "progress": 0.0,
      "text": "  L’opulence financière induite par le choc pétrolier attire dans le Golfe des millions de travailleurs immigrés. Égyptiens et Yéménites représentent les plus importants contingents, mais tout le monde arabe est concerné. Ces expatriés vont adopter une forme de rigorisme piétiste, en phase avec l’environnement wahhabite. De retour dans leur pays d’origine, ils s’emploieront à « importer » ces nouvelles pratiques religieuses, gages de leur réussite sociale comme de leur promotion culturelle."
    },
    {
      "progress": 0.0,
      "text": "La succession des coups d’État et la férocité des luttes de pouvoir opèrent une véritable sélection darwinienne au profit du plus implacable des intrigants, celui capable d’éliminer les compagnons de toute une vie ou d’accuser des révolutionnaires authentiques des pires compromissions."
    },
    {
      "progress": 0.0,
      "text": "  La France octroie en mai 1926 une constitution au Grand-Liban, qui devient ainsi la République du Liban."
    },
    {
      "progress": 0.0,
      "text": "  La polarisation entre « nationalisme arabe » et « islam politique » dégénère en une véritable « guerre froide arabe4 ». Les deux champions en sont Nasser en Égypte d’un côté, et Faysal d’Arabie de l’autre. Faysal ben Abdelaziz devient souverain d’Arabie en novembre 1964, écartant du trône son frère le roi Saoud, dont il avait déjà usurpé de nombreuses prérogatives au cours des années précédentes."
    },
    {
      "progress": 0.0,
      "text": "En juillet 1925, la Syrie, pourtant supposée « pacifiée » par le mandat français, entre de nouveau en « révolution » (thawra). L’indépendance de la Syrie est proclamée par un Conseil national de la révolution, avec égalité solennellement consacrée entre les citoyens de toutes confessions. La répression, féroce, culmine avec une offensive de plus de 40 000 militaires à Damas, dans sa périphérie de la Ghouta (où une guérilla semi-urbaine s’était implantée) et dans les régions druzes."
    },
    {
      "progress": 0.0,
      "text": "En novembre 1916, le chérif Hussein se proclame « roi des pays arabes », conformément à l’esprit et à la lettre de sa correspondance avec McMahon. Mais Paris et Londres ne le reconnaissent que comme « roi du Hedjaz ». Et pour cause : les deux empires coloniaux ont convenu secrètement d’un partage du Moyen-Orient qui va directement à l’encontre des engagements contractés par le Royaume-Uni envers le chérif Hussein. Ces accords, conclus en mai 1916, sont connus sous le nom de « Sykes-Picot », du nom de leurs deux négociateurs, Mark Sykes et François Georges-Picot."
    },
    {
      "progress": 0.0,
      "text": "au sein de l’OLP ressources, prestige et promotion.\n\n         Un mois après la révolution iranienne, Anouar Sadate et Menahem Begin signent à la Maison-Blanche, sous l’égide de Jimmy Carter, un traité de paix entre l’Égypte et Israël. Le Premier ministre israélien, vétéran de l’Irgoun reconverti dans la droite « dure » du Likoud, a refusé la moindre concession sur la question palestinienne. Il s’agit donc bel et bien d’une paix séparée, qui laisse les mains libres à Israël pour la colonisation de la Cisjordanie et de Gaza."
    },
    {
      "progress": 0.0,
      "text": "Bonaparte prend soin d’amener en Égypte une imprimerie en caractères arabes, et même d’en transporter une lors de la campagne de Palestine, à des fins de propagande."
    },
    {
      "progress": 0.0,
      "text": "Ahmed Ier, bey de Tunis de 1837 à 1855, né d’une mère sarde, parle mieux l’italien que le turc."
    },
    {
      "progress": 0.0,
      "text": "Après un second séjour en Algérie en 1865, Napoléon III promulgue une loi faisant de l’Algérien musulman un Français régi par la charia. L’accès à la citoyenneté est cependant subordonné pour les musulmans à l’abandon de leur statut personnel spécifique, notamment en matière de polygamie et de succession."
    },
    {
      "progress": 0.0,
      "text": "Napoléon III se rend peu après en Algérie où il déclare : « Notre premier devoir est de nous occuper du bonheur de trois millions d’Arabes que le sort des armes a fait passer sous notre domination4. » L’empereur caresse l’idée d’un « royaume arabe » qui s’étendrait sous protection française d’Alger à Bagdad et qu’il confierait volontiers à Abdelkader. Mais l’émir exilé, désormais concentré sur sa quête mystique, ne donne pas suite."
    },
    {
      "progress": 0.0,
      "text": "Sadate et Assad savent que la consolidation de leurs régimes passe par l’effacement de l’humiliation de 1967. Le 6 octobre 1973, Yom Kippour en Israël, jour de Ramadan en islam, les armées égyptienne et syrienne enfoncent les lignes israéliennes. Le choc est énorme pour l’État hébreu, malgré sa contre-offensive réussie dans le Sinaï et sur le Golan. Sadate, dont les forces ont franchi le canal de Suez, interdit à sa Troisième Armée de pousser son avantage, laissant Assad seul face à Israël."
    },
    {
      "progress": 0.0,
      "text": "Le passage de l’arabe à l’imprimé engage un processus de « laïcisation » d’une langue jusqu’alors confinée au cadre dogmatique de la mosquée ou de l’enseignement islamique."
    },
    {
      "progress": 0.0,
      "text": "De décembre 1991 à mai 1996, Ben Laden tisse patiemment depuis Khartoum la toile d’Al-Qaida, l’organisation secrète qu’il a constituée autour de ses compagnons du jihad afghan, à qui il assigne désormais une mission révolutionnaire. Zawahiri a rejoint Ben Laden au Soudan et il y théorise la dialectique entre l’« ennemi lointain », hier l’URSS, aujourd’hui les États-Unis, et l’« ennemi proche », les régimes faussement musulmans, cibles prioritaires d’Al-Qaida."
    },
    {
      "progress": 0.0,
      "text": "  Le monde arabe qui accède enfin à l’indépendance est donc sensiblement moins divers qu’un siècle plus tôt."
    },
    {
      "progress": 0.0,
      "text": "En novembre 1979, des insurgés millénaristes s’emparent du sanctuaire le plus sacré de l’islam, à La Mecque. Ce soulèvement, déclenché le premier jour du XVe siècle du calendrier musulman, s’inscrit dans une dynamique eschatologique, car il est mené par un mahdi, un imam « bien dirigé », annonciateur de la fin des temps. Le siège de La Mecque se prolonge durant deux semaines et n’est brisé que par l’intervention du Groupement d’intervention de la gendarmerie nationale (GIGN) français et son utilisation de gaz incapacitants."
    },
    {
      "progress": 0.0,
      "text": "  Ce passage imposé à la confrontation armée n’a pas seulement eu un coût terrible pour les populations arabes, il a aussi profondément affecté leur dynamique politique."
    },
    {
      "progress": 0.0,
      "text": "Le 20 octobre, l’Arabie Saoudite, bientôt suivie par les autres producteurs arabes, décide un embargo sur les livraisons énergétiques aux États-Unis. La production arabe de pétrole a déjà été réduite de 10 %, avec menace de réduction de 5 % par mois jusqu’à la conclusion d’un accord satisfaisant sur les frontières de 1967. Le cours du pétrole quadruple en quelques semaines. Même si les États-Unis ne dépendent qu’à 4 % du pétrole saoudien et puisent dans leurs réserves nationales, leur facture pétrolière passe de 4 milliards de dollars en 1972 à 24 milliards en 1974."
    },
    {
      "progress": 0.0,
      "text": "En Palestine, la Grande-Bretagne admet l’échec de son expérience mandataire et demande à l’ONU de trancher l’avenir du territoire. En novembre 1947, l’Assemblée générale de l’ONU adopte, par trente-trois voix contre treize (et dix abstentions), un plan qui partage la Palestine entre un État juif et un État arabe, avec internationalisation de la zone de Jérusalem. Les Arabes refusent cette partition soit par principe (comme en 1937), soit parce qu’elle attribue à l’État juif plus de la moitié du territoire (et les meilleures terres).\n"
    },
    {
      "progress": 0.0,
      "text": " la prise du pouvoir par les nazis, en 1933, entraîne une vague massive d’émigration juive. En trois ans, l’effectif de la communauté juive en Palestine est multiplié par deux, jusqu’à atteindre près de 30 % de la population du territoire sous mandat."
    },
    {
      "progress": 0.0,
      "text": "La France, puissance hégémonique en Afrique du Nord, a développé tout comme le Royaume-Uni une « politique musulmane » qui fait peu de cas de l’autorité du calife de Constantinople.\n\n       L’Allemagne de Guillaume II a, en revanche, multiplié les marques de solidarité avec l’Empire ottoman, contribuant à ses efforts de réformes administratives."
    },
    {
      "progress": 0.0,
      "text": "Leur chef, le mollah Omar, prend Ben Laden sous sa protection, car il trouve en lui une caution arabe inespérée au projet taliban."
    },
    {
      "progress": 0.0,
      "text": "Le chef du Likoud, opposant historique aux « accords d’Oslo », va s’employer à les vider de leur substance, tout en intensifiant la colonisation. Il dépêche, en septembre 1997, un commando du Mossad à Amman pour y assassiner, au moyen d’un poison lent, Khaled Mechaal, le dirigeant du Hamas en exil. Mais les services jordaniens interceptent les espions israéliens et le roi Hussein, furieux, menace Clinton d’abroger le traité de paix signé avec Rabin si Netanyahou ne livre pas l’antidote seul capable de sauver Mechaal. Le refus initial de « Bibi » amène le souverain jordanien à accentuer ses exigences et il obtient, outre l’antidote, la libération du cheikh Yassine, le fondateur du Hamas, emprisonné en Israël depuis 1989."
    },
    {
      "progress": 0.0,
      "text": "  Le Baas syrien, au nom du rêve de l’unité arabe, se jette dans les bras de l’Égypte de Nasser en février 1958. Les deux pays fusionnent dans une « République Arabe Unie » (RAU) dont le drapeau à deux étoiles (représentant l’Égypte et la Syrie) remplace le drapeau à trois étoiles de l’indépendance syrienne."
    },
    {
      "progress": 0.0,
      "text": "  La crise de Suez éclate en novembre 1956. L’offensive coordonnée entre Israël, la France et la Grande-Bretagne est dévastatrice pour l’armée égyptienne. Mais les États-Unis d’Eisenhower se mobilisent contre cette agression : ils contraignent d’abord leurs alliés européens à évacuer la zone du canal, avant de forcer Israël à se retirer du Sinaï égyptien puis de la bande de Gaza. Nasser, malgré sa défaite militaire, sort auréolé de l’épreuve tel un Saladin moderne."
    },
    {
      "progress": 0.0,
      "text": "les coups d’État de Syrie et d’Égypte, eux-mêmes liés au séisme israélo-palestinien, enferment la Nahda d’Orient dans une impasse mortifère : soit le « nationalisme arabe » de dictatures militaires, qui nie le pluralisme politique et célèbre les « masses » pour mieux exalter le chef ; soit l’« islam politique », dans la forme qu’il prend par amalgame entre le wahhabisme saoudien et les Frères musulmans radicalisés dans l’exil."
    },
    {
      "progress": 0.0,
      "text": "  La « guerre des Six-Jours » a été remportée par les armes françaises dont Israël est alors très largement doté. Malgré l’embargo décrété par la France au début des hostilités, De Gaulle autorise une livraison secrète de pièces de rechange, essentielle pour l’aviation israélienne."
    },
    {
      "progress": 0.0,
      "text": "Après la Nakba, la « Catastrophe » de 1948, voici le temps pour les Palestiniens de la Naqsa, le « Revers ». De nouvelles vagues de réfugiés franchissent le Jourdain."
    },
    {
      "progress": 0.0,
      "text": "La contribution des chrétiens d’Orient de toutes obédiences est alors essentielle dans l’enrichissement d’un discours nationaliste nourri de solides références historiques, qui va jusqu’à l’exaltation de la figure de Mohammed comme héros arabe, plutôt que comme messager d’une révélation."
    },
    {
      "progress": 0.0,
      "text": "En janvier 1949, la guerre s’achève sur une éclatante victoire d’Israël, qui s’étend sur 77 % de la Palestine mandataire. La Transjordanie en annexe 22 % (la Cisjordanie et Jérusalem-Est) et, de cette « union des deux rives », naît le royaume hachémite de Jordanie. Seule a échappé à l’expansion des uns et à l’absorption des autres la « bande de Gaza », soit 1 % du territoire de la Palestine originelle, sur lequel se concentre désormais le quart de la population arabe du pays.\n"
    },
    {
      "progress": 0.0,
      "text": "Invoquer l’existence d’un peuple arabe en 1800 serait tomber dans la classique erreur du « futur antérieur », bien connue des historiens, qui consiste à projeter sur le passé des catégories qui leur sont contemporaines. C’est par la Nahda que les Arabes vont progressivement prendre conscience d’eux-mêmes. Cette Renaissance arabe, équivalent des Lumières européennes, aura trois pôles principaux : l’Égypte par la puissance d’un État modernisateur, la Tunisie par la légitimité d’une construction constitutionnelle, et le Levant par le dynamisme d’une effervescence intellectuelle."
    },
    {
      "progress": 0.0,
      "text": "  À la veille de l’expédition d’Égypte, le monde arabe est, pour sa plus grande part, intégré directement ou indirectement à l’Empire ottoman. Le sultan de Constantinople est reconnu comme le souverain légitime, au nom duquel la prière est prononcée le vendredi, les impôts prélevés et les militaires mobilisés."
    },
    {
      "progress": 0.0,
      "text": "Mais la défaite nassérienne ouvre la voie à d’autres tenants du « nationalisme arabe », les militants du parti Baas."
    },
    {
      "progress": 0.0,
      "text": "En janvier 1920, la SDN tient sa première réunion à Londres, avant de transférer son siège à Genève. Deux mois plus tard, le Congrès général syrien proclame à Damas l’indépendance de la Syrie (incluant la Palestine et le Liban, auquel une large autonomie serait accordée), avec Faysal pour souverain constitutionnel. Les puissances coloniales n’en ont cure et elles obtiennent que la conférence internationale, réunie à San Remo en avril 1920, attribue des « mandats » de la SDN à la France (sur la Syrie et le Liban) et à la Grande-Bretagne (sur la Palestine et l’Irak)."
    },
    {
      "progress": 0.0,
      "text": "  Les puissances impériales ont compris, après ce recul tout relatif, qu’il valait mieux, afin de préserver leur mainmise sur les territoires arabes, y affronter des insurrections armées plutôt que des soulèvements pacifiques."
    },
    {
      "progress": 0.0,
      "text": "Afin d’enterrer toute perspective d’internationalisation de la Palestine, Londres va cette fois s’engager auprès du mouvement sioniste, sous la forme d’une lettre signée par Arthur Balfour, le chef de la diplomatie anglaise. Cette « déclaration Balfour » stipule, en novembre 1917, que « le gouvernement de Sa Majesté envisage favorablement l’établissement en Palestine d’un foyer national pour le peuple juif et emploiera tous ses efforts pour faciliter la réalisation de cet objectif, étant clairement entendu que rien ne sera fait qui puisse porter atteinte aux droits civils et religieux des communautés non juives existant en Palestine2 ».\n"
    },
    {
      "progress": 0.0,
      "text": "  En septembre 1980, Saddam Hussein décide d’envahir l’Iran. Il croit la République islamique fragilisée par ses tensions internes, alors qu’il va en fait provoquer un sursaut nationaliste autour de Khomeiny. Le conflit s’enlise rapidement. Il durera huit ans et fera des centaines de milliers de morts, aggravant les divisions déjà profondes entre les régimes arabes"
    },
    {
      "progress": 0.0,
      "text": "Dans ces grandes manœuvres politiciennes, nationalistes et islamistes jouent donc souvent à fronts renversés : Banna et ses Frères musulmans accusent le Wafd de manquer de patriotisme envers la tutelle britannique ; Bourguiba et son « Néo-Destour » interdisent aux Tunisiens naturalisés l’enterrement dans des cimetières musulmans, établissant ainsi une équivalence entre la nationalité tunisienne et la religion islamique."
    },
    {
      "progress": 0.0,
      "text": "Sadate, quant à lui, obtient la restitution intégrale de la péninsule du Sinaï, en trois étapes étalées sur trois ans. Il décroche aussi une aide considérable des États-Unis, indexée sur l’assistance déjà colossale allouée par Washington à Israël. Le volet le plus important est le versement de 1,3 milliard de dollars chaque année à l’armée égyptienne, un versement qui se poursuit à ce jour, au point que les militaires égyptiens ne le considèrent plus comme une aide, mais comme un dû.\n"
    },
    {
      "progress": 0.0,
      "text": "Mitterrand, dégagé des contraintes de la cohabitation, se mobilise de nouveau au profit d’Arafat. Un soulèvement (intifada) secoue en effet la Cisjordanie et Gaza depuis décembre 1987. Ce mouvement refuse la voie des armes, malgré la brutale répression israélienne, et la presse voit en lui une « révolution des pierres ». L’OLP, sous la pression de cette intifada, s’engage en faveur d’une solution à deux États, où la future Palestine cohabiterait avec Israël, sur la base des frontières de 1967. Le mouvement Hamas, né de la branche palestinienne des Frères musulmans, refuse en revanche toute concession, ce qui lui vaut le soutien actif de la Syrie et de l’"
    },
    {
      "progress": 0.0,
      "text": "naissance, en 1928, d’un mouvement de type nouveau : les Frères musulmans.\n\n         Son fondateur, Hassan al-Banna, peut, comme Zaghloul avant lui, se réclamer de l’influence de Mohammed Abduh. Il s’inscrit cependant dans la lignée de Rachid Rida qui a durci, dans un sens « salafiste » plutôt que « réformiste », les thèses d’Abduh. Surtout, Banna rejette catégoriquement la devise du Wafd « La religion est pour Dieu et la patrie pour tous » : l’islam a, selon lui, une dimension explicitement politique et c’est la fraternité des fidèles qui fonde le nationalisme authentique. L’accent mis sur la dimension « islamiste » par Banna ne retranche donc rien de son engagement « nationaliste », puisqu’il se prétend au fond plus patriote que le Wafd."
    },
    {
      "progress": 0.0,
      "text": "  En novembre 1967, après d’âpres débats, le Conseil de sécurité de l’ONU adopte la résolution 242 qui prescrit en français le retrait israélien « des territoires occupés lors du récent conflit ». Mais la version anglaise, de valeur juridique équivalente, mentionne « withdrawal from occupied territories », soit le retrait « de » territoires, l’absence d’article ouvrant la voie à un retrait partiel."
    },
    {
      "progress": 0.0,
      "text": "L’effondrement de l’empire soviétique et la fin de la guerre froide amènent l’hyperpuissance américaine à jeter les fondements d’un « nouvel ordre mondial » au Moyen-Orient. Saddam Hussein, durablement corseté par les sanctions de l’ONU, ne peut représenter un ennemi à la mesure de ce « nouvel ordre ». C’est alors que la menace diffuse du « terrorisme islamique » s’impose dans le discours stratégique et la planification militaire. Les despotes arabes ne vont pas tarder à comprendre tout le profit qu’ils peuvent tirer d’une telle dérive idéologique."
    },
    {
      "progress": 0.0,
      "text": "Israël, au nom du « diviser pour mieux régner » colonial, favorise les islamistes aux dépens des nationalistes, en Cisjordanie comme à Gaza. Alors que l’occupant traque sans relâche les sympathisants de l’OLP et élimine physiquement les fedayines, le gouverneur israélien de Gaza assiste officiellement à l’inauguration de la mosquée du cheikh Yassine en septembre 1973 et encourage l’implantation associative des Frères musulmans."
    },
    {
      "progress": 0.0,
      "text": "Mitterrand tente en vain de convaincre Begin, puis son successeur Itzhak Shamir, que l’affaiblissement de l’OLP ne peut que faire le jeu des extrémistes, et qu’il dessert donc les intérêts à long terme d’Israël. C’est pourquoi la France intervient une deuxième fois, en décembre 1983, pour sauver Arafat : le chef de l’OLP est alors assiégé au nord du Liban, dans la ville de Tripoli, par l’armée syrienne, les radicaux palestiniens et les milices pro-iraniennes. L’opération française permet à Arafat et à ses fidèles d’échapper à l’étau syrien, mais aussi à la marine israélienne qui pilonne Tripoli depuis le large.\n\n         La France est de fait impliquée dans une guerre inavouée avec la Syrie. C’est Assad qui ouvre les hostilités, en septembre 1981, en faisant assassiner l’ambassadeur français à Beyrouth, car son activisme contrarie les visées de Damas à la fois sur le Liban et sur l’OLP."
    },
    {
      "progress": 0.0,
      "text": "L’invasion américaine de l’Irak a aussi implanté Al-Qaida au cœur du Moyen-Orient, galvanisant les réseaux jihadistes dans toute la région. Les dictateurs arabes se gardent bien d’éradiquer une menace qui leur garantit une rente stratégique dérivée de Washington."
    },
    {
      "progress": 0.0,
      "text": "la rente des hydrocarbures, directe ou dérivée, gonfle avec le deuxième choc pétrolier, lié aux troubles iraniens de 1978-1979. Et elle se double désormais pour les dictatures arabes d’une rente stratégique, liée à leur positionnement envers Israël. L’Égypte est ainsi soutenue avec la même générosité par les États-Unis que la Syrie l’est par l’URSS. Les deux superpuissances sont pourtant fort peu exigeantes à l’égard de leur protégé respectif : Washington est prêt à tout pour préserver la paix de Camp David et Moscou est convaincu que seul Damas lui garantit une influence dans la région."
    },
    {
      "progress": 0.0,
      "text": "Benito Mussolini vient galvaniser les quelque 20 000 colons italiens à Tripoli en avril 1926. Deux années plus tard, la conquête du golfe de Syrte aggrave l’isolement de la Cyrénaïque, où Omar al-Mukhtar mène la résistance au nom de l’émir Idriss. Rodolfo Graziani lance la phase finale de la « pacification » en 1930, d’abord en occupant la province méridionale du Fezzan, puis en faisant interner dans des camps de concentration la moitié de la population bédouine de Cyrénaïque.\n\n         Des dizaines de milliers de civils trouvent la mort dans ces camps, que la propagande fasciste présente comme des centres d’adaptation à la vie sédentaire."
    },
    {
      "progress": 0.0,
      "text": "colons qui célèbrent en 1870, avec la chute du Second Empire, celle du « royaume arabe »"
    },
    {
      "progress": 0.0,
      "text": "Le 15 mai 1948, la Grande-Bretagne officialise la fin de son mandat sur la Palestine. L’État juif d’Israël a été proclamé la veille, car le 15 mai tombe un jour de shabbat. Les armées arabes entrent en action, mais sans coordination d’ensemble. En outre, les objectifs de guerre des contingents transjordanien et égyptien sont incompatibles (un arrangement « à chaud » avec les sionistes pour le premier, une victoire militaire pour le second)"
    },
    {
      "progress": 0.0,
      "text": "Au fond, le mythe ottoman a vécu. Il s’est révélé incapable de rallier, sous la bannière du calife, les peuples musulmans de toutes origines : la Première Guerre mondiale va bel et bien opposer en Orient les Turcs aux Arabes, les uns et les autres ayant chacun choisi un camp adverse dans cette immense conflagration historique."
    },
    {
      "progress": 0.0,
      "text": "Le visiteur actuel de l’Orient arabe ne sera donc pas étonné qu’on lui renvoie « Sykes-Picot » et « Balfour » à la figure, même s’il n’était pas né lors de telles forfaitures."
    },
    {
      "progress": 0.0,
      "text": "  Des officiers baasistes opposés à la RAU se sont constitués, dès octobre 1959, en « Comité militaire », par définition clandestin. Ils reprochent amèrement à la direction civile de leur parti son aveuglement envers Nasser. Mohammed Omrane, Salah Jedid et Hafez al-Assad, les trois principaux comploteurs, sont tous issus de la minorité alaouite. Ils s’inquiètent de retrouver, derrière le nassérisme triomphant, le discours traditionnel de l’hégémonie sunnite – les courants minoritaires de l’islam et les chrétiens d’Orient sont ainsi surreprésentés au sein du Baas et des formations marxistes, opposées à Nasser."
    },
    {
      "progress": 0.0,
      "text": "La posture française suscite une immense popularité de Chirac dans le monde arabe. Elle a effectivement évité que la « guerre globale contre la terreur » tourne au « choc des civilisations » entre deux blocs identifiés à l’islam et à l’Occident. Paris n’a pourtant pas pu empêcher la catastrophe irakienne."
    },
    {
      "progress": 0.0,
      "text": "  Le conquérant frustré rentre en Égypte, accompagné de troupes supplétives, notamment palestiniennes, recrutées surtout en Galilée. Il met en déroute l’armée turque débarquée à Aboukir. En août, il participe encore, au Caire, aux cérémonies en l’honneur du prophète Mohammed, sa dernière apparition publique avant son retour en France. Le 18 brumaire (9 novembre 1799), Bonaparte renverse le Directoire et prend le pouvoir à Paris."
    },
    {
      "progress": 0.0,
      "text": "Deux jours avant que n’éclate la Commune de Paris, en mars 1871, un vaste soulèvement arabe secoue l’Algérie. Durant de longs mois, 100 000 insurgés contrôlent jusqu’à un tiers du pays. La répression est féroce et elle prépare le terrain d’une colonisation de peuplement cette fois systématique, avec refoulement de la population arabe, privée de ses terres et marginalisée dans son propre pays. Cette dépossession massive conduite au nom de la République contribuera largement à retrancher l’Algérie de la dynamique de la Renaissance arabe."
    },
    {
      "progress": 0.0,
      "text": "la France a remporté militairement la guerre d’Algérie, mais c’est cette victoire par les armes qui a signé la fin de l’« Algérie française ».\n"
    },
    {
      "progress": 0.0,
      "text": "À la différence des monarchies du Maroc, du Yémen et d’Oman, toutes trois assises sur la légitimité religieuse de leur souverain, l’Arabie centrale voit émerger en 1744 une forme inédite de contestation du régime ottoman. Un « pacte » est conclu entre le prêcheur Mohammed Ibn Abdelwahhab et la famille des Saoud, qui trouve dans l’intolérance agressive de la doctrine « wahhabite » (du nom de son fondateur) la justification de campagnes contre les tribus environnantes. Nul n’aurait alors pu imaginer l’extraordinaire postérité que connaîtra ce foyer wahhabite, enclavé et aride, dans le développement de l’islamisme contemporain."
    },
    {
      "progress": 0.81,
      "text": "Cette frustration, ils l’expriment dans une langue commune, l’arabe moderne et standard (AMS), généralisé par les programmes d’arabisation, les chaînes satellitaires, Internet et les réseaux sociaux. Jamais les Arabes n’ont aussi bien parlé l’arabe entre eux, d’un bout à l’autre du monde arabe"
    },
    {
      "progress": 0.82,
      "text": "Assad et Saleh comprennent tout l’intérêt qu’ils ont à magnifier la menace jihadiste pour discréditer et diviser une opposition d’un pacifisme sourcilleux. Assad fait libérer des centaines de détenus radicaux, qui rejoignent rapidement les rangs de l’« État islamique en Irak », alors même que ses nervis raflent par milliers, torturent et font « disparaître » les activistes non violents. Saleh va encore plus loin en ordonnant à ses troupes, en mai 2011, d’abandonner aux jihadistes la ville de Zinjibar, qui devient la « capitale » d’un « émirat islamique » au Sud-Yémen."
    },
    {
      "progress": 0.84,
      "text": "Nous sommes en octobre 2011 et ce CNS est infiniment plus transparent et représentatif que le CNT libyen. Mais Sarkozy et ses pairs occidentaux lui refusent la reconnaissance qu’ils avaient accordée en quelques jours aux révolutionnaires libyens."
    },
    {
      "progress": 0.84,
      "text": "En refusant la reconnaissance du CNS, la France ferme un horizon alternatif qui aurait accéléré les mouvements de défection hors de l’appareil politique et militaire d’Assad."
    },
    {
      "progress": 0.84,
      "text": "Il n’en faut pas plus pour que les commentateurs, qui n’avaient salué que du bout des lèvres le « printemps arabe », se répandent en considérations sur l’« automne islamiste » et l’« hiver intégriste ». Il était pourtant acquis que les partis islamistes remporteraient le premier scrutin de la transition démocratique, du fait de l’ancienneté de leur appareil et de leur capacité à mobiliser le vote protestataire. L’enjeu, comme en Jordanie en 1989-1993, est le scrutin suivant, où le choc des réalités et l’exercice gouvernemental peuvent être fatals aux islamistes."
    },
    {
      "progress": 0.86,
      "text": "La « formule yéménite » constitue le fondement du « Plan arabe de paix » publié en janvier 2012, après une mission d’observateurs de la Ligue arabe en Syrie marquée par une escalade de la répression gouvernementale sur tous les fronts. Ce « plan » prévoit la dévolution du pouvoir au vice-président Farouk Charaa, chargé d’ouvrir dans les deux semaines un dialogue avec l’opposition, dans la perspective de la constitution d’un gouvernement d’union nationale et de la tenue, sous son égide, d’élections libres dans un délai de deux mois.\n\n         L’Arabie s’engage sans réserve en faveur de ce plan, alors que la Russie et l’Iran n’amendent rien de leur soutien inconditionnel à Bachar al-Assad."
    },
    {
      "progress": 0.86,
      "text": "Le plan arabe de paix est endossé peu après par 137 voix contre 12 à l’Assemblée générale de l’ONU. Kofi Annan, l’ancien secrétaire général de l’Organisation, est mandaté pour le mettre en œuvre. Mais Annan, renversant l’ordre des priorités, se rend chez Assad à Damas en mars 2012 pour obtenir l’aval préalable du dictateur."
    },
    {
      "progress": 0.88,
      "text": "Le président Obama met en garde son homologue syrien, en août 2012, contre le franchissement de la « ligne rouge » que constituerait l’utilisation des armes chimiques. Assad comprend parfaitement que, s’il respecte cette condition, tout lui est permis : il recourt désormais à l’artillerie lourde, aux bombardements aériens, voire aux tirs de missiles Scud, d’une portée de 300 kilomètres."
    },
    {
      "progress": 0.94,
      "text": "Rappelons que la « filière des Buttes Chaumont » était assistée par les services d’Assad et que les frères Kouachi ont été entraînés dans un camp yéménite d’Al-Qaida,"
    }
  ],
  "attribution": "Jean-Pierre Filiu",
  "cover": "Jean-Pierre-Filiu-Les-Arabes-leur-destin-et-le-nôtre",
  "description": "Depuis des décennies, l’actualité offre l’image d’un monde arabe sombrant dans la violence et le fanatisme. Comme si une malédiction frappait ces peuples, de l’interminable conflit israélo-palestinien aux guerres d’Irak et de Syrie, en passant par l’essor du jihadisme international. Jean-Pierre Filiu remonte à l’expédition de Bonaparte en Égypte, en 1798, pour nous offrir une autre histoire des Arabes. Une histoire intimement liée à la nôtre, celle de l’Occident, de l’Europe, de la France. Une histoire faite d’expéditions militaires et de colonisations brutales, de promesses trahies et de manœuvres diplomatiques, une histoire de soutien à des dictatures féroces ou à des régimes obscurantistes, mais tous riches en pétrole. Cette « histoire commune » qui a fait le malheur des Arabes ne doit pas faire oublier une autre histoire, largement méconnue : une histoire d’émancipation intellectuelle, celle des « Lumières arabes » du XIXe siècle, mais aussi une histoire d’ébullition démocratique et de révoltes sociales, souvent écrasées dans le sang. Autant de tentatives pour se libérer du joug occidental et de l’oppression des despotes, afin de pouvoir, enfin, écrire sa propre histoire. Sous la plume de Jean-Pierre Filiu, les convulsions du présent se prêtent alors à une autre lecture, remplie d’espoir : dans la tragédie, un nouveau monde arabe est en train de naître sous nos yeux.",
  "id": "Jean-Pierre-Filiu-Les-Arabes-leur-destin-et-le-nôtre",
  "isbn": "urn:uuid:b1974449-e403-43e8-a34b-60539bdef1eb",
  "language": "fr",
  "lastread": "2016-10-15T14:32:54Z",
  "publisher": "",
  "subtitle": null,
  "title": "Les Arabes, leur destin et le nôtre"
}