{
  "annotations": [
    {
      "progress": null,
      "text": "Les synergies induites par la révolution de l’imprimé et les énergies de l’eau et du vent, accompagnées d’améliorations régulières des transports routier et fluvial, ont stimulé les échanges et réduit les coûts de transaction, ce qui a rendu possible de commercer sur des marchés régionaux plus larges."
    },
    {
      "progress": null,
      "text": "dans un Internet de la logistique, tous les produits physiques devraient être insérés dans des conteneurs modulaires standardisés, transportables sur tous les réseaux logistiques. Ces conteneurs devraient être équipés d’étiquettes intelligentes et de capteurs pour l’identification et le tri."
    },
    {
      "progress": null,
      "text": "Si la propriété privée est la caractéristique principale du système capitaliste, l’automobile personnelle en est la figure de proue."
    },
    {
      "progress": null,
      "text": "les marchands, qui souhaitaient contourner les corporations, avaient inauguré le putting-out (une forme archaïque de sous-traitance) : ils externalisaient le travail en s’adressant à une main-d’œuvre rurale meilleur marché."
    },
    {
      "progress": null,
      "text": "Jusqu’à présent, le mouvement des Makers a surtout été une affaire de hackers, de bricoleurs et d’entrepreneurs sociaux jouant avec de nouvelles façons d’imprimer des objets précis à usage personnel ou collectif. Il a été animé par quatre principes : le partage en source ouverte des nouvelles inventions, la promotion d’une culture de l’apprentissage collaboratif, la croyance à l’autosuffisance locale et l’attachement aux pratiques de production durables."
    },
    {
      "progress": null,
      "text": "La liberté se mesure davantage à la capacité de se connecter aux autres sur des réseaux qu’à la possession de biens sur des marchés."
    },
    {
      "progress": null,
      "text": "Les sceptiques soutiennent à juste titre que rien de ce que nous échangeons n’est vraiment gratuit, jamais."
    },
    {
      "progress": null,
      "text": "Mais l’Internet des objets est une épée à double tranchant. La pression pour accroître l’efficacité énergétique et la productivité et réduire les coûts marginaux va être irrésistible. Les entreprises qui ne fonceront pas, qui ne profiteront pas pleinement du potentiel de productivité, seront distancées. Or, cette course effrénée à la productivité, déchaînée par une force intelligente active sur tous les liens et tous les nœuds d’une infrastructure de troisième révolution industrielle, va conduire le coût marginal de la production d’électricité verte comme de la fabrication et de la livraison d’un large éventail de biens et services à zéro ou presque dans les vingt-cinq ans."
    },
    {
      "progress": null,
      "text": "Aux États-Unis, la production industrielle s’est accrue de 60 % de 1997 à 2005, alors que 3,9 millions d’emplois industriels ont été éliminés à peu près dans la même période, de 2000 à 2008."
    },
    {
      "progress": null,
      "text": "Une forme démocratique d’autogestion et d’autogouvernance, conçue pour partager des ressources « communes », a démontré qu’elle était un modèle économique résilient pour survivre dans un système féodal despotique qui enfermait les gens dans le servage."
    },
    {
      "progress": null,
      "text": "les grandes révolutions économiques de l’histoire sont des révolutions des infrastructures, et ce qui donne aux grandes révolutions des infrastructures leur puissance transformatrice, c’est la convergence de nouveaux médias de communication avec de nouveaux régimes énergétiques."
    },
    {
      "progress": null,
      "text": "L’automobile allait être le « moteur » de la croissance économique pendant toute la seconde révolution industrielle"
    },
    {
      "progress": null,
      "text": "La première révolution industrielle a mis fin à l’esclavage et au servage. La seconde a réduit considérablement le travail agricole et artisanal. La troisième est en train d’éteindre le travail salarié de masse dans l’industrie et les services, et le travail intellectuel et technique dans de vastes pans de l’économie du savoir."
    },
    {
      "progress": null,
      "text": "il paraît peu probable que ceux de la génération Internet, déjà si souvent distraits au volant par leur smartphone, préfèrent conduire qu’être conduits par la voiture. À l’ère collaborative, l’attention est précieuse et le temps est la denrée rare."
    },
    {
      "progress": null,
      "text": "Dans le cas de la France, l’énergie hydraulique produite par les moulins à eau était égale à l’énergie du quart de la population adulte du royaume : c’était une augmentation prodigieuse de la capacité énergétique"
    },
    {
      "progress": null,
      "text": "près de 87 % de l’énergie que nous avons utilisée dans la seconde révolution industrielle a été gaspillée pendant la transmission"
    },
    {
      "progress": null,
      "text": "Réduire la consommation addictive, optimiser la frugalité et encourager un mode de vie durable n’est pas seulement louable : c’est essentiel si nous voulons assurer notre survie."
    },
    {
      "progress": null,
      "text": "la propriété devient moins importante que l’accès,"
    },
    {
      "progress": null,
      "text": "ces compagnies gèrent un communal social comme une entreprise commerciale."
    },
    {
      "progress": null,
      "text": "Le problème, c’est que des tiers ayant accès aux flux de données sur tout l’Internet des objets et armés de compétences logicielles sophistiquées pourront pénétrer toutes les couches du système nerveux planétaire pour chercher de nouvelles façons d’exploiter le support à leurs propres fins. Des cyberdélinquants pourront voler des identités personnelles pour gagner de l’argent ; des réseaux sociaux, faire des profits en vendant des données à des publicitaires et à des commerciaux ; des agents politiques, transmettre des renseignements vitaux à des États étrangers."
    },
    {
      "progress": null,
      "text": "Que ferait l’humanité, et surtout comment définirait-elle son avenir sur la Terre, si le travail non qualifié et qualifié disparaissait de la vie économique dans les deux prochaines générations"
    },
    {
      "progress": null,
      "text": "De plus en plus, ces nouveaux prosommateurs collaborent et partagent, à des coûts marginaux quasi nuls, des biens et services sur des communaux en réseau distribués au niveau mondial, ce qui perturbe les mécanismes des marchés capitalistes."
    },
    {
      "progress": null,
      "text": "l’acquisition de connaissances relève plus de la quête de la communauté que d’une simple accumulation de savoir privé pour promouvoir ses propres intérêts."
    },
    {
      "progress": null,
      "text": "Si main invisible il y a, c’est l’aptitude de la publicité à faire monter la demande au rythme de l’augmentation de l’offre. Ce n’est pas une mince affaire."
    },
    {
      "progress": null,
      "text": "Pour la première fois, l’énergie des artisans et marchands urbains a commencé à égaler et même à dépasser celle dont disposaient les seigneurs féodaux, ce qui a donné aux bourgeois l’avantage dont ils avaient besoin pour faire basculer le paradigme économique d’une économie féodale, organisée autour des « obligations en matière de propriété », à une économie de marché, structurée autour des droits de propriété."
    },
    {
      "progress": null,
      "text": ". Les régimes capitaliste et socialiste organisaient tous deux la production dans des entreprises verticalement intégrées parce que c’était plus efficace, même si leurs structures de propriété et de répartition des gains étaient différentes"
    },
    {
      "progress": null,
      "text": "Certes, les hôtels continueront à recevoir des réservations, mais la migration de millions de jeunes vers Airbnb et Couchsurfing réduit déjà leur marché. Comment une chaîne hôtelière gigantesque, avec ses coûts fixes élevés, pourrait-elle concurrencer des millions d’espaces privés partageables à des coûts marginaux faibles et même quasi nuls"
    },
    {
      "progress": null,
      "text": "Les observateurs du secteur prévoient que la technologie de collecte du solaire et du petit éolien deviendra aussi bon marché que les téléphones mobiles et les ordinateurs portables dans les quinze ans"
    },
    {
      "progress": null,
      "text": "Le capitalisme a pour raison d’être d’introduire toutes les composantes de la vie humaine dans la sphère économique, où elles seront muées en biens échangeables sur le marché en tant que propriétés privées."
    },
    {
      "progress": null,
      "text": "En Europe et en Amérique, les responsables politiques, et l’opinion publique en général, accusent de ces pertes d’emplois ouvriers la délocalisation de l’industrie vers des pays à bas salaires comme la Chine. En fait, ce qui s’est passé est bien plus grave. De 1995 à 2002, 22 millions d’emplois industriels ont été supprimés dans l’économie mondiale, alors que la production mondiale a augmenté de plus de 30 %."
    },
    {
      "progress": null,
      "text": "Cette démarche les a conduits à une autre prise de conscience : ce qui mettait en péril les espèces menacées, c’étaient souvent les frontières politiques, économiques et résidentielles arbitraires que l’on avait imposées ; elles tranchaient dans le vif des écosystèmes et compromettaient des dynamiques écologiques complexes, ce qui appauvrissait la flore et la faune naturelles."
    },
    {
      "progress": null,
      "text": "L’entreprise sociale est le grand chapiteau sous lequel les mondes du profit et du hors-profit sont en train de concevoir toutes sortes de modes d’activité"
    },
    {
      "progress": null,
      "text": "La monnaie qu’utilise une société pour permettre à ses membres d’échanger entre eux des biens et services est un bon marqueur des valeurs implicites de la communauté."
    },
    {
      "progress": null,
      "text": "on voit bien quelle est la colle forte qui a maintenu la viabilité des communaux : les protocoles d’autogestion sur lesquels tous s’étaient mis d’accord et qui avaient été instaurés volontairement avec la participation démocratique de tous."
    },
    {
      "progress": null,
      "text": "prosommateurs – consommateurs devenus des producteurs contributifs"
    },
    {
      "progress": null,
      "text": "sur le marché des réseaux sociaux, les coûts initiaux sont bien inférieurs pour les nouveaux entrants."
    },
    {
      "progress": null,
      "text": "Qu’arrive-t-il au capitalisme de marché quand les gains de productivité qu’apporte la technologie intelligente réduisent constamment les besoins en travail humain ? C’est la question que les économistes ont si peur de se poser. Nous assistons au découplage de la productivité et de l’emploi. Aujourd’hui la première, loin de stimuler le second, l’élimine."
    },
    {
      "progress": null,
      "text": "Les chemins de fer sont devenus, de fait, les premières compagnies capitalistes modernes. Ils ont établi un nouveau modèle d’entreprise où la propriété est séparée de la gestion et du contrôle."
    },
    {
      "progress": null,
      "text": "elle a aussi encouragé une nouvelle ouverture aux autres et la naissance d’un état d’esprit plus cosmopolite."
    },
    {
      "progress": null,
      "text": "À l’avenir, quand les bases de données ADN se seront élargies et que toute la séquence de l’ADN humain sera disponible pour les essais, des millions de personnes aux traits génétiques communs pourront se rassembler en réseaux de santé personnalisés pilotés par les patients, comparer leurs observations sur les maladies et collaborer pour trouver des remèdes."
    },
    {
      "progress": null,
      "text": "pour garantir la stabilité sociale et défendre le statu quo, les cosmologies associées aux paradigmes économiques ont été plus efficaces que toutes les armées de l’histoire."
    },
    {
      "progress": null,
      "text": "Dans ce cadre théologique, la propriété était conçue comme une succession de fidéicommis en pyramide, se déployant du trône céleste aux paysans qui travaillaient les communaux."
    },
    {
      "progress": null,
      "text": "Les positions de Stallman et de Gates n’auraient pu être plus antithétiques : pour Gates, le logiciel libre, c’était le vol ; pour Stallman, c’était la liberté d’expression."
    },
    {
      "progress": null,
      "text": "Le partage des risques entre consommateurs et agriculteurs crée un lien de confiance mutuelle et alimente le capital social."
    },
    {
      "progress": null,
      "text": "Au départ, la hausse de la demande de denrées alimentaires, due à l’essor d’une population urbaine, a déclenché une spirale inflationniste,"
    },
    {
      "progress": null,
      "text": "aux États-Unis, les semi-remorques ne sont pleins qu’à 60 % en moyenne quand ils roulent."
    },
    {
      "progress": null,
      "text": "Quand les écologistes en ont su davantage sur les relations complexes entre les organismes et leur environnement, ils ont compris que, s’ils voulaient sauver telle ou telle espèce, ils devaient surtout sauver son habitat."
    },
    {
      "progress": null,
      "text": "Gandhi proposait une autre solution : la production locale par les masses, dans leurs maisons, dans leurs quartiers – ce qu’il appelait le swadeshi."
    },
    {
      "progress": null,
      "text": "Pour qu’un régime de propriété privée fonctionne pleinement sur des marchés, il faut qu’un système juridique soutenu par une police et des tribunaux garantisse que les vendeurs et les acheteurs respecteront leurs obligations contractuelles"
    },
    {
      "progress": null,
      "text": "Dans une société du partage et de la coopération, les millions de personnes dont les données contribuent à la pensée collective réclament avec force que leurs connaissances soient accessibles à tous dans des communaux ouverts, et non siphonnées et enfermées dans l’enclos d’une propriété intellectuelle possédée et contrôlée par quelques-uns."
    },
    {
      "progress": null,
      "text": "La perspective d’une infrastructure et d’un paradigme économique permettant de réduire les coûts marginaux à zéro ou presque compromet la viabilité de l’entreprise privée, puisque son existence même dépend du profit. Le modèle d’entreprise des coopératives est le seul qui fonctionnera dans une société du coût marginal quasi nul."
    },
    {
      "progress": null,
      "text": "C’est la plus grande innovation qui a lieu dans l’enseignement depuis deux cents ans. […] Elle va le réinventer, […] transformer les universités [et] démocratiser l’éducation à l’échelon mondial"
    },
    {
      "progress": null,
      "text": "Au moment même où la première révolution industrielle parvenait à son apogée, dans les deux dernières décennies du XIXe siècle, une seconde révolution industrielle était en train de naître en Amérique et en Europe. La découverte du pétrole, l’invention du moteur à combustion interne et l’introduction du téléphone ont constitué un nouveau complexe énergie/communication, qui allait dominer le XXe siècle."
    },
    {
      "progress": null,
      "text": "Darwin prenait « le plus apte » comme une métaphore signifiant : « le mieux adapté à l’environnement local immédiat17 ». Mais Spencer donnait à ces mots un tout autre sens : « celui qui jouit de la meilleure forme physique"
    },
    {
      "progress": null,
      "text": "La déconnexion entre le PIB qui augmente et l’emploi qui diminue devient si nette qu’il est difficile de persister à l’ignorer, quoique je reste passablement stupéfait de constater combien les économistes sont rares, même à ce stade, à bien vouloir reconnaître enfin publiquement que le postulat implicite de la théorie économique classique – la productivité crée plus d’emplois qu’elle n’en supprime – n’est plus crédible."
    },
    {
      "progress": null,
      "text": "Le secteur de la publicité a réorienté le psychisme populaire : évinçant la tradition ancestrale de frugalité, il a prôné une nouvelle éthique qui valorisait la dépense et non l’économie."
    },
    {
      "progress": null,
      "text": "Le passage d’une économie de subsistance à une économie de marché, et de la production pour l’usage à la production pour l’échange, a été un tournant décisif dans le parcours humain."
    },
    {
      "progress": null,
      "text": "Alors que les entreprises privées sont structurées pour faire du profit, les coopératives sont conçues pour fonctionner en communal, donc organisées pour atteindre des objectifs très différents."
    },
    {
      "progress": null,
      "text": "les enfants grandissent sans voir vraiment de différence entre partager de l’information et partager une conversation."
    },
    {
      "progress": null,
      "text": "Les nouveaux communiers constituent bien plus qu’un mouvement politique. Ils incarnent une profonde mutation sociale dont les effets seront probablement aussi importants et durables que ceux qui ont catapulté la société d’un horizon théologique à un horizon idéologique à l’aube de l’ère capitaliste."
    },
    {
      "progress": null,
      "text": "La théorie capitaliste standard reste pratiquement muette sur le rapport indissoluble entre l’activité économique et les contraintes écologiques qu’imposent les lois de l’énergie."
    },
    {
      "progress": null,
      "text": "l’État n’avait pas besoin d’assumer toute la charge : il lui suffisait de faciliter et de garantir financièrement le processus."
    },
    {
      "progress": null,
      "text": "Beaucoup de vendeurs et d’acheteurs ont disparu, remplacés par des fournisseurs et des usagers."
    },
    {
      "progress": null,
      "text": "cette infrastructure intelligente de base se compose de trois Internets emboîtés : un Internet des communications, un Internet de l’énergie et un Internet de la logistique. Quand ils sont reliés en un seul et même système interactif – l’Internet des objets –, ces trois Internets fournissent sur tout ce qui se passe dans la société un flux de Big Data auquel toute l’humanité, dans sa quête de la « productivité extrême » et d’une société du coût marginal zéro, peut avoir accès, et qu’elle peut partager de façon collaborative sur des communaux mondiaux ouverts."
    },
    {
      "progress": null,
      "text": "La liberté d’utiliser un logiciel pour tout objectif ; la liberté d’examiner le fonctionnement d’un logiciel et de l’adapter à ses propres besoins ; la liberté de faire des copies pour d’autres personnes ; la liberté d’améliorer le logiciel et de rendre ces améliorations largement disponibles pour le bien public"
    },
    {
      "progress": null,
      "text": "c’est la montée en flèche de l’efficacité énergétique globale, des 14 % de son plafond de la seconde révolution industrielle aux 40 % de la troisième révolution industrielle, et les gains de productivité concomitants qui vont nous rapprocher toujours plus d’une société du coût marginal quasi nul"
    },
    {
      "progress": null,
      "text": "En transférant des travailleurs aux marchands la propriété des outils, on avait créé un modèle qui allait changer le cours de l’histoire économique"
    },
    {
      "progress": null,
      "text": "les propriétaires, comme tous les autres hommes, aiment à recueillir où ils n’ont pas semé,"
    },
    {
      "progress": null,
      "text": "S’ils craignaient de voir AT&T devenir un monopole, les dirigeants fédéraux comprenaient aussi qu’un service téléphonique universel était si important dans la vie de chaque Américain et pour le bien-être de la société américaine qu’il ressemblait davantage à un droit qu’à un privilège abusif."
    },
    {
      "progress": null,
      "text": "Grâce à la démocratisation de l’industrie, n’importe qui, et finalement tout le monde, aura accès aux moyens de production ; la question de la propriété et du contrôle des moyens de production perdra donc son sens et le capitalisme aussi."
    },
    {
      "progress": null,
      "text": "La source ouverte est une méthodologie de développement ; le logiciel libre est un mouvement social"
    },
    {
      "progress": null,
      "text": "Le mouvement des enclosures, perçu par de nombreux historiens comme « une révolution des riches contre les pauvres », s’est déroulé en Angleterre du XVIe au début du XIXe siècle. Il a bouleversé le paysage économique et politique. Des millions de paysans ont été déracinés des terres de leurs ancêtres et contraints de se comporter en agents libres dont la force de travail serait désormais à louer sur le marché"
    },
    {
      "progress": null,
      "text": "le « gratuit » est une astuce de marketing qui permet de s’assurer une clientèle pour le payant."
    },
    {
      "progress": null,
      "text": "Le principe du swadeshi était d’« apporter le travail aux gens et non les gens au travail"
    },
    {
      "progress": null,
      "text": "Marcus Kayser, étudiant de second cycle du Royal College of Art à Londres, a inventé une imprimante 3D, le Solar Sinter, qui imprime des objets en verre avec du soleil et du sable."
    },
    {
      "progress": null,
      "text": "Pourquoi voudrait-on « posséder » et entretenir une voiture quand on pourra « accéder » en un instant, par smartphone, à un véhicule sans conducteur mis à sa disposition par un service d’auto-partage, se faire conduire sans effort par GPS jusqu’à destination et ne payer que pour la durée d’utilisation réelle"
    },
    {
      "progress": null,
      "text": "Dès les années 1930, Lange et Keynes avaient tous deux anticipé la schizophrénie tapie au cœur du système capitaliste : la dynamique entrepreneuriale inhérente au marché concurrentiel qui accroît la productivité et réduit les coûts marginaux."
    },
    {
      "progress": null,
      "text": "en Allemagne, pays en pointe pour les énergies nouvelles, 51 % de l’énergie renouvelable installée appartient à des PME et à des particuliers, et les géants allemands de l’électricité ne possèdent que 7 % de la production d’énergie verte"
    },
    {
      "progress": null,
      "text": "La différence entre logiciel libre et logiciel en source ouverte est une question d’image plus que de fond."
    },
    {
      "progress": null,
      "text": "Locke en conclut que la propriété privée est un droit naturel."
    },
    {
      "progress": null,
      "text": "Le secteur à propos duquel on parle le plus d’exponentialité aujourd’hui est celui de l’énergie renouvelable."
    },
    {
      "progress": null,
      "text": "Sur les communaux collaboratifs, les vendeurs et les acheteurs cèdent la place aux prosommateurs, les droits de propriété s’effacent devant le partage en source ouverte, la propriété est moins importante que l’accès, les marchés sont supplantés par les réseaux, et le coût marginal de production de l’information, de l’énergie, des biens industriels et de l’enseignement est quasi nul."
    },
    {
      "progress": null,
      "text": "Quand l’infrastructure Internet des objets parviendra à maturité, attendons-nous à la débâcle de nombreux géants dans bien des secteurs, de la production d’électricité et d’énergie aux communications, à l’industrie manufacturière et aux services."
    },
    {
      "progress": null,
      "text": "le principe caveat emptor (« c’est à l’acheteur de faire attention »)"
    },
    {
      "progress": null,
      "text": "Le problème des publicitaires est que leur modèle d’entreprise se fonde sur le financement massif des journaux, revues, télévisions et chaînes de radio, dont le contenu est créé par des professionnels : journalistes, producteurs de télévision, écrivains, gens du spectacle et artistes."
    },
    {
      "progress": null,
      "text": "GoodGuide permet de scanner le code-barre d’un article et de faire défiler sur son écran des avis de consommateurs, pour savoir comment ils l’ont noté sous l’angle de la sécurité, de la santé, de la responsabilité sociale et de la durabilité générale"
    },
    {
      "progress": null,
      "text": "L’aspect vraiment révolutionnaire de l’impression 3D, celui qui va muer cette sous-culture de bricoleurs en nouveau paradigme économique, est l’apparition imminente d’une « infrastructure pour Makers »."
    },
    {
      "progress": null,
      "text": ". Les usines centralisées, avec leurs économies d’échelle à forte intensité en capital et leurs chaînes de montage coûteuses et conçues pour la production en série, n’ont pas l’agilité requise pour concurrencer un processus de production en 3D qui peut créer un produit unique personnalisé au même coût unitaire, ou presque, que 100 000 exemplaires du même article"
    },
    {
      "progress": null,
      "text": "L’imprimé privatise la communication. On lit un livre ou un journal en s’isolant des autres."
    },
    {
      "progress": null,
      "text": "Quand on dit « les communaux », la réponse est un silence perplexe. […] Pourtant les communaux sont plus fondamentaux que l’État et le marché. C’est l’immense domaine qui constitue notre héritage commun à tous, celui que nous utilisons en général sans payer ni péage ni prix. L’atmosphère et les océans, les langues et les cultures, les connaissances et la sagesse accumulées par l’humanité, les systèmes informels de soutien local, la paix et la tranquillité à laquelle nous aspirons, les éléments génétiques de base de la vie – tout cela, ce sont des aspects des communaux"
    },
    {
      "progress": null,
      "text": "Ce qui fait la puissance narrative d’un paradigme, c’est l’exhaustivité de sa description de la réalité."
    },
    {
      "progress": null,
      "text": "Selon le chercheur de Harvard George Church, l’information entreposée aujourd’hui dans l’ensemble des disques durs du monde pourrait tenir dans un petit morceau d’ADN grand comme la paume de la main."
    },
    {
      "progress": null,
      "text": "Le Filabot est un nouvel appareil ingénieux, de la taille d’une boîte à chaussures, qui broie et fond de vieux objets en plastique : seaux, DVD, bouteilles, tuyaux d’arrosage, lunettes de soleil, pots à lait, etc. Après broyage, le plastique est introduit dans une trémie et un baril où il est fondu par un serpentin de chauffage. La matière plastique fondue parcourt ensuite diverses buses, puis passe à travers des rouleaux de dimensionnement : cela crée des filaments de plastique, qui s’enroulent sur une bobine pour l’impression."
    },
    {
      "progress": null,
      "text": "Les communaux sont antérieurs au marché capitaliste et au gouvernement représentatif ; ils constituent la forme d’autogestion institutionnalisée la plus ancienne du monde."
    },
    {
      "progress": null,
      "text": "À l’ère nouvelle, chacun de nous devient un nœud du système nerveux de la biosphère"
    },
    {
      "progress": null,
      "text": "La convergence de la presse à vapeur et du transport par rail, tous deux alimentés au charbon, a créé une infrastructure pour la première révolution industrielle."
    },
    {
      "progress": null,
      "text": "Si la Terre fonctionne comme un organisme autorégulateur, l’activité humaine qui mine l’équilibre biochimique de la planète peut conduire à la déstabilisation catastrophique du système entier."
    },
    {
      "progress": null,
      "text": "La transition de l’ère capitaliste à l’ère collaborative modifie la pédagogie en salle de classe."
    },
    {
      "progress": null,
      "text": "Près d’un demi-siècle avant que la durabilité ne devienne un thème à la mode, Gandhi déclarait : « La Terre fournit assez pour les besoins de tous mais pas assez pour la cupidité de tous56. »"
    },
    {
      "progress": null,
      "text": "S’il y a un principe essentiel dans les communaux, le voici : ce sont les membres de la communauté eux-mêmes qui savent le mieux comment il faut organiser leur vie."
    },
    {
      "progress": null,
      "text": "Cela s’appelle l’impression 3D et c’est le modèle de « production manufacturière » qui accompagne une économie d’Internet des objets."
    },
    {
      "progress": null,
      "text": "Si nous pouvions mettre la main sur 0,1 % de l’énergie que la terre reçoit du soleil, nous aurions six fois celle que nous utilisons aujourd’hui dans l’économie mondiale"
    },
    {
      "progress": null,
      "text": "L’agriculture féodale était structurée sur un mode communautaire. Les paysans unissaient leurs lopins individuels dans des champs ouverts et des pâturages communs qu’ils exploitaient collectivement."
    },
    {
      "progress": null,
      "text": "Les recherches d’Ostrom ont contredit l’assertion de Hardin qui vouait à la ruine « tous » les communaux à cause des exactions des « passagers clandestins », et ont semé le doute sur un précepte admis de longue date chez les économistes puisqu’il remonte à Adam Smith : chacun cherche exclusivement son intérêt personnel immédiat sur le marché"
    },
    {
      "progress": null,
      "text": "Selon Kuhn, un paradigme est un système de croyances et de postulats qui créent conjointement une vision du monde intégrée, unifiée, si convaincante et impérieuse qu’on la confond avec la réalité même."
    },
    {
      "progress": null,
      "text": "C’est cette énergie devenue inutilisable que les physiciens appellent « entropie »."
    },
    {
      "progress": null,
      "text": "Simultanément, l’industrie textile naissante faisait monter le prix de la laine : il devenait plus lucratif pour les propriétaires fonciers de clôturer les terres communes et de les reconvertir à l’élevage des moutons"
    },
    {
      "progress": null,
      "text": "Le système capitaliste est déstabilisé par l’alternance entre des tentatives d’arrêter le progrès économique pour protéger les anciens investissements et d’épouvantables effondrements quand elles échouent"
    },
    {
      "progress": null,
      "text": "C’est un peu par hasard, du nombre croissant de personnes qui cherchaient à s’autodiagnostiquer sur Internet, qu’est né le mouvement de la santé pilotée par le patient."
    },
    {
      "progress": null,
      "text": "Pendant des siècles, les gens avaient appartenu à la terre ; désormais, c’était la terre qui appartenait à des gens : elle s’était muée en biens fonciers négociables et échangeables sur le marché libre."
    },
    {
      "progress": null,
      "text": "Au lieu d’entretenir les communaux, chaque firme privée tentera d’optimiser son propre flux temporel aux dépens des autres : cela ne fera qu’aggraver l’encombrement du réseau et réduire son efficacité, donc affaiblira toutes les entreprises présentes dans le système et aboutira à la tragédie des communaux non entretenus"
    },
    {
      "progress": null,
      "text": "Connecter tout et tout le monde à un système nerveux planétaire, c’est faire passer l’humanité de l’ère de la vie privée – l’une des caractéristiques essentielles de la modernité – à l’ère de la transparence."
    },
    {
      "progress": null,
      "text": "L’impression tridimensionnelle transcende aussi les frontières idéologiques, puisqu’elle séduit libertariens, amateurs du « faire soi-même », entrepreneurs sociaux et localistes : tous préfèrent une conception distribuée, transparente et collaborative de la vie économique et sociale à une approche centralisée et propriétaire."
    },
    {
      "progress": null,
      "text": "Les géants des télécommunications de la seconde révolution industrielle veulent absolument prendre le contrôle du nouveau moyen de communication et lui imposer un système de commandement centralisé, qui leur permettra d’enclore le contenu et le trafic, d’augmenter leurs marges et de s’assurer un monopole grâce aux « tuyaux » dont ils ont la propriété."
    },
    {
      "progress": null,
      "text": "Toute activité économique est issue de l’exploitation d’une énergie disponible dans la nature – sous forme solide, liquide ou gazeuse – et de sa conversion en biens et services."
    },
    {
      "progress": null,
      "text": "Les distributeurs automatiques vendent aujourd’hui de tout, des maillots de bain aux iPods et même aux pièces d’or."
    },
    {
      "progress": null,
      "text": "Dans une dizaine d’années, hommes d’affaires, travailleurs et voyageurs seront équipés d’applications pour téléphone portable qui leur permettront de converser sans effort, en ligne ou face à face, avec des locuteurs d’une autre langue."
    },
    {
      "progress": null,
      "text": "L’automobile est l’ultime enclosure."
    },
    {
      "progress": null,
      "text": "Ses membres préféraient le simple au complexe et privilégiaient les technologies entièrement reproductibles avec les ressources et savoir-faire locaux, pour rester fidèles au principe de l’autosuffisance locale"
    },
    {
      "progress": null,
      "text": "L’économie du partage, dans ses diverses incarnations, est une créature hybride, mi-économie de marché, mi-économie sociale. Si l’économie de marché est réglementée par des lois et par les principes implicites inhérents au système capitaliste, l’économie sociale, qui est un communal, suit à cet égard un autre chemin. Sa surveillance et sa réglementation incombent en partie à l’État, mais elles sont surtout assurées par les normes d’autogestion auxquelles souscrivent volontairement des millions d’acteurs, car c’est l’une des conditions de leur participation aux communaux."
    },
    {
      "progress": null,
      "text": "elle se rendait bien compte qu’elle ne pourrait jamais trouver, en son sein, la compétence technique et la main-d’œuvre nécessaires pour construire ses propres lignes électriques dans toute l’Amérique rurale. Puisque les compagnies d’électricité privées refusaient obstinément de lui prêter main-forte, elle a eu l’idée peu orthodoxe, et, à l’époque, révolutionnaire, d’inciter les agriculteurs à s’associer en communautés locales et à fonder des coopératives électriques."
    },
    {
      "progress": null,
      "text": "au milieu du siècle, peut-être même bien plus tôt, la majorité de la population active dans le monde sera employée dans le secteur non lucratif sur les communaux collaboratifs"
    },
    {
      "progress": null,
      "text": "Des millions de personnes partagent non seulement des automobiles et des bicyclettes, mais aussi leur maison, leurs vêtements, leurs outils, leurs jouets et leurs compétences dans des communaux en réseaux."
    },
    {
      "progress": null,
      "text": "Les artisans, qui jusque-là possédaient leur propre matériel, ont donc été privés des outils de leur métier et transformés en ouvriers salariés travaillant pour un maître de type nouveau – le capitaliste"
    },
    {
      "progress": null,
      "text": "Comme les licences Creative Commons, la servitude vise à promouvoir les communaux en dissociant le droit de posséder la terre et celui d’en faire un usage exclusif."
    },
    {
      "progress": null,
      "text": "l’État fédéral a décidé de produire de l’électricité parce que les compagnies privées ne voyaient pas l’intérêt d’étendre les lignes électriques aux zones rurales : elles disaient que les ménages y étaient trop peu nombreux, trop dispersés et n’avaient pas un pouvoir d’achat suffisant pour payer le service."
    },
    {
      "progress": null,
      "text": "Le nouveau monde des pièces détachées corporelles bio-imprimées en 3D sera probablement une réalité dans les décennies à venir."
    },
    {
      "progress": null,
      "text": "Lovelock et Margulis soutenaient que la Terre fonctionne, en gros, comme un organisme vivant autorégulé : les processus géochimiques et biologiques interagissent et se contrôlent réciproquement pour garantir un équilibre relativement stable de la température, ce qui permet à la planète de rester hospitalière, propice au maintien de la vie."
    },
    {
      "progress": null,
      "text": "Sur le pétrole, voici le plus important à comprendre : pour parvenir jusqu’au marché, il a besoin de plus de capital financier que toute autre ressource dans l’économie mondiale."
    },
    {
      "progress": null,
      "text": "elles n’ont pas besoin de source d’alimentation, car elles peuvent transmettre leurs données en utilisant l’énergie des signaux radio qui les interrogent."
    },
    {
      "progress": null,
      "text": "Au milieu du XXIe siècle ou même plus tôt, chacun pourra, j’en suis sûr, accéder au moteur de recherche d’un communal mondial de la santé, y enregistrer sa constitution génétique, trouver une grappe correspondante de génomes similaires et recevoir un compte rendu détaillé des problèmes de santé qu’il pourrait rencontrer au cours de sa vie,"
    },
    {
      "progress": null,
      "text": "L’Internet de la logistique remplace le transport traditionnel d’un point de départ à un point d’arrivée, ou d’un centre nerveux à une zone de rayonnement, par un transport intermodal, multisegment et distribué."
    },
    {
      "progress": null,
      "text": "Dans le dictionnaire, la première définition de « consommer » était « gâcher, piller et épuiser »."
    },
    {
      "progress": null,
      "text": "les coopératives ont actuellement plus d’un milliard de membres – un être humain sur sept au niveau mondial."
    },
    {
      "progress": null,
      "text": "Les commerces de détail « en dur » sont pris au piège, transformés contre leur gré en espaces d’exposition gratuits où le client vient regarder et manier produits et vêtements qu’il va ensuite acheter en ligne."
    },
    {
      "progress": null,
      "text": "La révolution proto-industrielle douce de la fin du Moyen Âge a engendré le marché libre, mais le capitalisme, tel que nous le concevons aujourd’hui, n’a émergé qu’à la fin du XVIIIe siècle avec l’introduction de la machine à vapeur."
    },
    {
      "progress": null,
      "text": "C’est l’espoir, répétons-le, de tant de jeunes entrepreneurs sociaux qui oscillent entre marché capitaliste et communaux. Mais qu’est-ce qui leur tient vraiment à cœur ? Toute la question est là. Les communaux au coût marginal quasi nul sont-ils seulement pour eux, comme le soutiennent Chris Anderson et quelques autres, une nouvelle opportunité commerciale exploitable par le marché, ou sont-ils une fin en soi – un nouveau paradigme économique –, dont les retombées peuvent éveiller un certain intérêt du marché ?"
    },
    {
      "progress": null,
      "text": "L’impression tridimensionnelle de parties du corps humain est déjà bien avancée. Le Wake Forest Institute for Regenerative Medicine en Caroline du Nord a récemment imprimé un prototype de rein à partir de cellules vivantes"
    },
    {
      "progress": null,
      "text": "Les entreprises sociales à but lucratif insistent sur ce qu’elles appellent le triple bilan, « les personnes, la planète et le profit »,"
    },
    {
      "progress": null,
      "text": "La science économique, dans son ensemble, n’a toujours pas regardé la réalité en face : elle n’admet pas encore que l’activité économique est soumise aux lois de la thermodynamique."
    },
    {
      "progress": null,
      "text": "La vente des titres des chemins de fer a transformé la petite bourse provinciale de New York en centre financier puissant."
    },
    {
      "progress": null,
      "text": "Constatant l’absence de réactions efficaces de l’État et à la merci du rouleau compresseur mondial des grandes entreprises, qui n’ont aucun compte à rendre aux populations, les organisations de la société civile et les entreprises locales ont vu dans les communaux un troisième modèle de gouvernance, sur lequel elles pouvaient commencer à prendre appui pour retrouver leur équilibre économique."
    },
    {
      "progress": null,
      "text": "En permettant d’accomplir une activité économique sans précédent par sa vitesse et son volume, la nouvelle matrice énergie / communication a obligé tous les autres secteurs à repenser entièrement leur modèle d’entreprise."
    },
    {
      "progress": null,
      "text": "Tout le réseau saura combien consomme chaque machine à chaque instant – les thermostats, les machines à laver, les lave-vaisselle, les téléviseurs, les sèche-cheveux, les grille-pain, les fours, les réfrigérateurs, etc. Ces retours d’information permanents permettront au prosommateur sur site de programmer le mieux possible son usage personnel de l’électricité, tandis que la nature distribuée et collaborative du système permettra à des millions d’acteurs énergétiques de partager le courant sur des modes qui optimiseront l’efficacité de tout le réseau."
    },
    {
      "progress": null,
      "text": "L’infofabrication additive utilise un dixième du matériau de la fabrication soustractive, ce qui donne à l’impression 3D une avance substantielle en efficacité et en productivité."
    },
    {
      "progress": null,
      "text": "Le fait même de juger les frontières de la nature plus importantes que celles de la politique et de l’économie réoriente le récit social : il l’éloigne des intérêts personnels, des visées économiques et des considérations géopolitiques pour le concentrer sur le bien-être général de la nature."
    },
    {
      "progress": null,
      "text": "Avec un processus d’impression 3D inséré dans une infrastructure Internet des objets, pratiquement n’importe qui dans le monde peut devenir un prosommateur qui, à l’aide d’un logiciel en source ouverte, fabrique ses propres produits pour s’en servir lui-même ou pour les distribuer. Ce procédé de production n’utilise qu’un dixième de la matière première nécessaire à l’industrie traditionnelle et exige très peu de travail humain dans la fabrication du produit. L’énergie consommée dans la production est une énergie renouvelable collectée sur site ou localement, à un coût marginal quasi nul. Le produit est mis en vente sur des sites Internet de commercialisation mondiale, là encore à un coût marginal presque nul. Enfin, le bien vendu est livré à l’utilisateur dans un véhicule d’e-mobilité alimenté par une énergie renouvelable d’origine locale, là aussi à coût marginal quasi nul."
    },
    {
      "progress": null,
      "text": "Le passage au capitalisme a commencé dans le textile."
    },
    {
      "progress": null,
      "text": "Quelle que soit l’énergie contenue dans le produit ou le service, on l’y a mise en dépensant de l’énergie – utilisée ou perdue – pour effectuer l’activité économique le long de la chaîne de valeur : c’est la facture entropique."
    },
    {
      "progress": null,
      "text": "En 1921, le comité du commerce du Sénat déclara publiquement : « Le téléphone est un monopole naturel37."
    },
    {
      "progress": null,
      "text": "Luther soutenait que nul ne peut gagner sa place au ciel en accumulant les bonnes œuvres sur terre."
    },
    {
      "progress": null,
      "text": "L’un des objectifs des monnaies locales est aussi d’empêcher les « fuites » de richesse à l’extérieur."
    },
    {
      "progress": null,
      "text": "Un nouveau système économique entre sur la scène mondiale : les communaux collaboratifsa. C’est le premier paradigme économique à prendre racine depuis l’avènement du capitalisme et du socialisme au début du XIXe siècle."
    },
    {
      "progress": null,
      "text": "Puisque l’État était vidé de sa substance et ne pouvait plus opposer au marché privé un contrepoids viable, les milieux directement touchés se sont mis en quête d’un autre modèle de gouvernance, plus conforme à leurs intérêts et à leurs sensibilités. Ayant perdu toute illusion sur la gestion bureaucratique, centralisée et parfois impersonnelle de l’État comme sur l’agressivité cupide et manipulatrice des intérêts commerciaux, déterminés à capturer tous les aspects de la vie dans les filets de leurs flux de revenus et de leurs marges de profit, ces bases sociales se sont mises en quête d’un modèle de gouvernance qui permettrait d’organiser la vie économique de façon plus démocratique et collaborative. Elles ont redécouvert les communaux."
    },
    {
      "progress": null,
      "text": "La quasi-totalité des entrepreneurs qui ont prospéré pendant la phase de décollage de la première révolution industrielle, dans la seconde moitié du XIXe siècle, ont réussi parce qu’ils ont pu lever des capitaux suffisants en se constituant en société par actions qu’ils ont fait coter en bourse."
    },
    {
      "progress": null,
      "text": "Certains commerçants combattent les « voleurs à l’essayage » qui viennent au magasin enfiler vêtements et chaussures pour connaître leur taille exacte, puis les commandent en ligne."
    },
    {
      "progress": null,
      "text": "On a créé des systèmes scolaires publics et rendu l’éducation obligatoire dans les nouvelles villes industrialisées, afin de doter la future main-d’œuvre des compétences en communication dont elle aurait besoin pour accomplir les activités économiques plus complexes qui accompagnaient la première révolution industrielle."
    },
    {
      "progress": null,
      "text": ". En trouvant dans la nature un fondement logique à la stratégie des compagnies qui cherchaient à étendre de plus en plus leurs activités et à les intégrer verticalement sous le contrôle de directions toujours plus rationalisées et centralisées, Spencer et les économistes libéraux qui l’ont suivi ont réussi à modérer toute opposition publique sérieuse aux structures économiques existantes."
    },
    {
      "progress": null,
      "text": "Dans un écosystème climax, les relations symbiotiques et synergiques réduisent la perte d’énergie, optimisent l’usage des ressources, et satisfont ainsi en abondance les besoins de chaque espèce."
    },
    {
      "progress": null,
      "text": "la nouvelle matrice énergie / communication de la troisième révolution industrielle permet aux consommateurs de devenir leurs propres producteurs."
    },
    {
      "progress": null,
      "text": "le noyau du système opératoire de l’Internet des objets est l’union de l’Internet des communications, de l’Internet de l’énergie et de l’Internet de la logistique en une plate-forme cohérente qui fonctionne."
    },
    {
      "progress": null,
      "text": "Partout, les populations se trouvaient réduites à la famine tandis que les moutons étaient engraissés et tondus, car on était pressé d’expédier leur laine aux nouvelles fabriques textiles en plein essor en Angleterre et sur le continent."
    },
    {
      "progress": null,
      "text": "Il est probable que, dans un demi-siècle, nos petits-enfants regarderont l’époque du plein-emploi sur le marché avec le même sentiment d’incrédulité totale que nous inspirent l’esclavage et le servage d’autrefois."
    },
    {
      "progress": null,
      "text": "Comme les coûts de l’électricité centralisée fossile et nucléaire augmentent constamment, les PME capables d’alimenter leurs usines avec de l’énergie renouvelable au coût marginal quasi gratuit prennent l’avantage"
    },
    {
      "progress": null,
      "text": "Les élèves s’instruisent en jugeant ce qu’écrivent leurs camarades de classe : cette idée s’est imposée dans la communauté universitaire en ligne."
    },
    {
      "progress": null,
      "text": "la nouvelle entité économique de la troisième révolution industrielle est de nature très différente : elle exige moins de capital financier et davantage de capital social"
    },
    {
      "progress": null,
      "text": "Quand le coût marginal de production est nul, le coût marginal de transmission et de stockage proche de zéro, le processus de création additif et une grande partie de la main-d’œuvre non rémunérée – disons que le monde apparaît un peu différent. C’est au moins un avenir possible, ou un élément d’un avenir possible, et c’est un avenir que nous ne devrions pas exclure sans y réfléchir à deux fois"
    },
    {
      "progress": null,
      "text": "Tout client pourra avoir sa voiture de la couleur qu’il voudra, pourvu qu’il la veuille noire"
    },
    {
      "progress": null,
      "text": "Dans les première et seconde révolutions industrielles, les communications centralisées – revues, journaux, stations de radio, chaînes de télévision – étaient coûteuses ; seuls les géants de l’industrie, dont les activités étaient intégrées au niveau national, pouvaient donc s’offrir le luxe de faire de la publicité à grande échelle, et cette situation limitait considérablement la présence des petites entreprises sur le marché."
    },
    {
      "progress": null,
      "text": "Dans certains cas, les transnationales de l’énergie et les compagnies de l’électricité et du gaz bloquent totalement la création d’un Internet de l’énergie. Dans d’autres, elles tentent d’imposer au réseau intelligent une architecture centralisée, pour permettre un enfermement commercial des énergies nouvelles."
    },
    {
      "progress": null,
      "text": "Dans la troisième révolution industrielle, le fab lab est « le laboratoire de recherche-développement du peuple »."
    },
    {
      "progress": null,
      "text": "L’offensive vient aussi de l’intérieur. Certains des réseaux sociaux les plus connus sur le web cherchent fiévreusement de nouvelles façons d’enclore, de commercialiser et de monopoliser le nouveau moyen de communication. Et leur agression est potentiellement bien plus dangereuse que celle des compagnies qui gèrent les tuyaux."
    },
    {
      "progress": null,
      "text": "L’Internet des objets est l’« âme sœur » technologique des communaux collaboratifs émergents."
    },
    {
      "progress": null,
      "text": "L’instauration des lois sur le copyright a introduit une idée toute nouvelle : on était propriétaire de ses pensées et de ses mots."
    },
    {
      "progress": null,
      "text": "Les sermons de Luther ont suscité la première campagne d’alphabétisation massive dans l’histoire du monde : les convertis au protestantisme apprenaient vite à lire pour pouvoir interpréter la parole de Dieu dans la Bible."
    },
    {
      "progress": null,
      "text": "Ces initiatives pédagogiques et quelques autres sont en voie de transformer la nature même de l’expérience scolaire : au lieu de leur apprendre à vivre dans un monde clos de rapports de propriété privée, on va préparer les élèves à la vie sur les communaux ouverts de l’espace virtuel, de la place publique et de la biosphère."
    },
    {
      "progress": null,
      "text": "la condition la plus fondamentale de l’efficacité économique […] [est] que le prix soit égal au coût marginal"
    },
    {
      "progress": null,
      "text": "Dans une culture manuscrite ou orale, nul n’aurait cru un seul instant que l’on pouvait être propriétaire de ses mots et faire payer aux autres le droit de les écouter."
    },
    {
      "progress": null,
      "text": "comment pouvons-nous maintenir la « neutralité de l’algorithme » ?"
    },
    {
      "progress": null,
      "text": "Au cours de l’offensive économique Reagan/Thatcher de privatisation des biens et services publics, on a vendu les réseaux de télécommunications, les fréquences radio, la production d’électricité et les réseaux électriques, les transports publics, la recherche scientifique parrainée par l’État, les services postaux, les voies ferrées, le foncier public, les droits de prospection, les services de l’eau et de l’assainissement, et des dizaines d’autres activités depuis longtemps considérées comme des monopoles publics et administrées par des organismes d’État. Cette vague de privatisations a marqué l’abandon final par les pouvoirs publics de la responsabilité de veiller au bien-être général de la société."
    },
    {
      "progress": null,
      "text": "les coûts initiaux de création d’un Internet de l’énergie sont importants mais le coût marginal de production de chaque unité d’énergie solaire et éolienne est presque nul."
    },
    {
      "progress": null,
      "text": "Les vendeurs de vêtements en ligne proposent déjà l’essayage virtuel. Leurs clients peuvent créer un modèle virtuel d’eux-mêmes en donnant des informations sur leur taille, leur sexe, leur âge, leur poitrine, leur tour de taille et leur tour de hanches."
    },
    {
      "progress": null,
      "text": ". L’Internet des objets va connecter tout et tout le monde dans un nouveau paradigme économique qui est infiniment plus complexe que les première et seconde révolutions industrielles, mais dont l’architecture est distribuée et non centralisée."
    },
    {
      "progress": null,
      "text": "Les camions quittent souvent pleins leur quai de chargement, mais ils s’allègent peu à peu après chaque livraison et rentrent souvent à vide."
    },
    {
      "progress": null,
      "text": "Sa caractéristique centrale, c’est que des groupes d’individus collaborent avec succès à de très vastes projets en obéissant à un ensemble diversifié de motivations et de signaux sociaux, et non aux prix du marché ou aux ordres d’un directeur"
    },
    {
      "progress": null,
      "text": "Ingénieurs et chimistes soulignent qu’au regard de l’activité économique il n’y a jamais de gain d’énergie net ; le processus de conversion des ressources naturelles en valeur économique se solde toujours par une perte d’énergie disponible. Donc une seule question se pose : quand faudra-t-il payer la facture ?"
    },
    {
      "progress": null,
      "text": "Toutes les fois qu’il fait sortir un objet de l’état où la Nature l’a mis et l’a laissé, il y mêle son travail, il y joint quelque chose qui lui appartient et, par là, il fait de lui sa propriété."
    },
    {
      "progress": null,
      "text": "avec Internet, on a compris qu’exclure la société civile eût été indéfendable, puisque nombre des acteurs et participants qui s’engagent dans la production pair à pair sur le nouveau média viennent du tiers secteur."
    },
    {
      "progress": null,
      "text": "Dans un proche avenir, nous pourrons tous partager l’abondance des ondes gratuites de la Terre en communiquant entre nous pratiquement gratis,"
    },
    {
      "progress": null,
      "text": "C’est l’imprimerie qui a introduit la notion d’auteur individuel. Il y en avait eu avant elle – par exemple Aristote ou saint Thomas d’Aquin –, mais ils étaient rares."
    },
    {
      "progress": null,
      "text": "dans la longue période intermédiaire entre l’ère capitaliste et l’âge collaboratif, les questions de vie privée resteront une préoccupation majeure, qui déterminera dans une large mesure la rapidité de la transition et les chemins que nous prendrons pour entrer dans la prochaine période de l’histoire."
    },
    {
      "progress": null,
      "text": "Selon une étude de l’université de Stanford sur la capacité éolienne mondiale, si 20 % du vent disponible dans le monde était collecté, il produirait sept fois plus d’électricité que nous n’en utilisons aujourd’hui pour alimenter l’ensemble de l’économie mondiale"
    },
    {
      "progress": null,
      "text": "Passer du pouvoir hiérarchique détenu par le professeur au pouvoir latéral réparti dans toute une communauté d’étude, c’est faire une révolution en pédagogie."
    },
    {
      "progress": null,
      "text": ". Le moulin à vent moyen pouvait produire une énergie supérieure à celle de trente chevaux"
    },
    {
      "progress": null,
      "text": "En dernière analyse, pour garantir la stabilité sociale et défendre le statu quo, les cosmologies associées aux paradigmes économiques ont été plus efficaces que toutes les armées de l’histoire."
    },
    {
      "progress": null,
      "text": "Regardons les choses en face : si ces compagnies ont commencé pratiquement au ras du sol sur Internet, ont exploité le potentiel d’une bonne idée et ont détrôné des leaders du marché avec très peu d’investissements, il est infiniment plus difficile d’en faire autant aujourd’hui."
    },
    {
      "progress": null,
      "text": "’ambition de Bell était de créer un vaste réseau national qui pourrait relier tous les téléphones au sein d’un seul et même système."
    },
    {
      "progress": null,
      "text": "Jusqu’à tout récemment, économistes et historiens considéraient les communaux comme un modèle économique unique en son genre, dont la pertinence était indissociable de la société féodale. Mais, dans les vingt-cinq dernières années, de jeunes théoriciens et praticiens les ont réexaminés en tant que forme de gouvernance."
    },
    {
      "progress": null,
      "text": "prosommateurs » – consommateurs devenus leurs propres producteurs"
    },
    {
      "progress": null,
      "text": "Au fil de l’histoire, les grandes transformations économiques se sont produites quand les humains ont découvert de nouveaux régimes d’énergie et inventé des moyens de communication pour les organiser."
    },
    {
      "progress": null,
      "text": "Puisque les travailleurs vont devenir progressivement propriétaires et les consommateurs, producteurs, il est même imaginable que la circulation baisse sur les réseaux routiers aujourd’hui surchargés et que les sommes consacrées à construire de nouvelles routes diminuent."
    },
    {
      "progress": null,
      "text": "En soutenant que chacun avait le devoir de faire mieux professionnellement, les penseurs protestants donnaient sans le vouloir une base théologique au nouvel esprit d’entreprise."
    },
    {
      "progress": null,
      "text": "une question cruciale se pose : comment va-t-on financer la nouvelle infrastructure Internet des objets qui rend tout cela possible ?"
    },
    {
      "progress": null,
      "text": "Les artisans, nous l’avons vu, ont été privés de leurs outils par les capitalistes et transformés en ouvriers, qui ne récupéraient sous forme de salaire qu’une partie du travail qu’ils effectuaient. Le reste de la valeur travail dans le produit allait à l’entreprise, sous forme de profit."
    },
    {
      "progress": null,
      "text": "L’Union européenne, la plus grande économie du monde, a pris des mesures pour que l’Internet de l’énergie garde une architecture ouverte : elle a contraint les compagnies traditionnelles à découpler activités de production et de transmission du courant."
    },
    {
      "progress": null,
      "text": "Salaire, profit et rente sont les trois sources primitives de tout revenu, aussi bien que de toute valeur échangeable."
    },
    {
      "progress": null,
      "text": "Rappelons que 80 % des membres des associations d’auto-partage qui possédaient une voiture l’ont vendue après être entrés sur le réseau, et que chaque véhicule partagé élimine quinze automobiles personnelles."
    },
    {
      "progress": null,
      "text": "Passer d’un style d’enseignement autoritaire à un cadre pédagogique latéral, c’est mieux préparer les élèves d’aujourd’hui à travailler, à vivre et à s’épanouir dans l’économie collaborative de demain."
    },
    {
      "progress": null,
      "text": "La société de fournitures de bureau Staples a introduit dans son magasin d’Almere (Pays-Bas) une imprimante 3D, fabriquée par Mcor Technologies, qui utilise comme matériau du papier bon marché."
    },
    {
      "progress": null,
      "text": ". Le consommateur commence à céder la place au « prosommateur » : de plus en plus de gens deviennent à la fois le producteur et le consommateur de leurs produits"
    },
    {
      "progress": null,
      "text": "Le marché allemand de l’énergie commence à faire l’expérience de l’impact commercial d’une énergie renouvelable à coût marginal presque nul. En 2013, l’Allemagne devait déjà 23 % de son électricité aux énergies renouvelables, et les projections indiquent que ce sera 35 % en 202040. Le problème est qu’à certains moments de la journée, l’afflux massif d’énergie solaire et éolienne dans le réseau dépasse la demande d’électricité, donc les prix deviennent négatifs."
    },
    {
      "progress": null,
      "text": "Les prosommateurs qui ont grandi avec l’accès en source ouverte et la collaboration pair à pair trouveront-ils un modèle de financement capable d’optimiser le potentiel qu’a la nouvelle infrastructure de faire advenir une société du coût marginal quasi nul ? Ou les intérêts d’affaires qui ont partie liée au vieux modèle capitaliste parviendront-ils à utiliser la protection de la propriété intellectuelle, la politique de réglementation et d’autres législations pour distordre l’infrastructure dans leur sens, en maintenant les prix bien au-dessus des coûts marginaux quasi nuls pour que les profits continuent à couler à flots ?"
    },
    {
      "progress": null,
      "text": ". Si le capitalisme fonctionne en utilisant le marché libre, les marchés libres n’exigent pas le capitalisme."
    },
    {
      "progress": null,
      "text": ": le dynamisme du capitalisme se nourrit de la pénurie."
    },
    {
      "progress": null,
      "text": "La Terre fournit assez pour les besoins de tous mais pas assez pour la cupidité de"
    },
    {
      "progress": null,
      "text": "On définit la durabilité comme l’état relativement stable où l’utilisation des ressources pour soutenir la population humaine ne dépasse pas la capacité de la nature à recycler les déchets et à réapprovisionner les stocks."
    },
    {
      "progress": null,
      "text": "course sur place hédoniste"
    },
    {
      "progress": null,
      "text": "Le travail de Layard montre que le bonheur individuel augmente jusqu’au moment où le revenu individuel moyen atteint environ 20 000 dollars par an – le niveau minimal de confort –, après quoi les hausses de revenu additionnelles ont des retours décroissants sur le niveau de bonheur"
    },
    {
      "progress": null,
      "text": "Les études sur le bonheur montrent que les pays où la différence entre riches et pauvres est la plus réduite sont les mieux notés pour le sentiment collectif de bonheur et de bien-être."
    },
    {
      "progress": null,
      "text": "quand l’abondance remplacera la pénurie, l’avidité de l’être humain, née de la peur de ce que pourrait lui réserver le lendemain, perdra de sa force."
    },
    {
      "progress": null,
      "text": "Nous devons réduire non seulement l’empreinte écologique des riches mais aussi la marée montante de la population des pauvres si nous voulons tous jouir des fruits que peut fournir une planète abondante."
    },
    {
      "progress": null,
      "text": "C’est l’électricité qui a libéré les femmes en Europe, aux Amériques et dans certains autres pays au XXe siècle."
    },
    {
      "progress": null,
      "text": "Au milieu du siècle, le taux de fécondité sera probablement tombé à un niveau proche des 2,1 enfants par famille dans le monde entier, ce qui marquera le début d’un lent déclin de la population humaine et la ramènera finalement à cinq milliards de personnes – le nombre qui garantira notre capacité à vivre des intérêts écologiques de la nature et à jouir d’une économie d’abondance."
    },
    {
      "progress": null,
      "text": "Ce qui rend si terrifiantes ces hausses spectaculaires de température de la Terre, c’est que le réchauffement change radicalement le cycle hydrologique de la planète. La Terre est une planète d’eau."
    },
    {
      "progress": null,
      "text": "Chaque fois que la température monte de 1 °C, la capacité de l’atmosphère à retenir l’humidité augmente de 7 %36. Cela modifie profondément la façon dont l’eau nous parvient : les précipitations sont plus intenses mais leur durée et leur fréquence se réduisent."
    },
    {
      "progress": null,
      "text": "En France, 43 % de l’eau douce consommée chaque année sert à refroidir les réacteurs nucléaires."
    },
    {
      "progress": null,
      "text": "L’histoire du parcours humain suggère que le bonheur n’est pas dans le matérialisme mais dans l’engagement empathique."
    },
    {
      "progress": null,
      "text": "Quand j’ai de l’empathie, je ressens la fragilité et la fugacité de l’existence d’un autre."
    },
    {
      "progress": null,
      "text": "La jeune génération apprend que la biosphère est notre village planétaire, que sa santé et son bien-être déterminent les nôtres"
    },
    {
      "progress": null,
      "text": "ont à l’esprit un éventail de positions très différent. Ils se demandent si le comportement d’une institution, qu’il s’agisse d’un État, d’un parti politique, d’une entreprise ou d’un système scolaire, est centralisé, vertical, patriarcal, fermé et propriétaire, ou s’il est distribué, collaboratif, ouvert, transparent, pair à pair et constitue une expression du pouvoir latéral."
    }
  ],
  "attribution": "Jeremy Rifkin",
  "cover": "Jeremy-Rifkin-La-nouvelle-société-du-coût-marginal-zéro-L-internet-des-objet-l-émergence-des-communaux-collaboratifs-et-l-éclipse-du-capitalisme-LIENS-QUI-LIBER-French-Edition-",
  "description": "<p class=\"description\">9791020901750</p><hr class=\"annotations_divider\" />\n",
  "id": "Jeremy-Rifkin-La-nouvelle-société-du-coût-marginal-zéro-L-internet-des-objet-l-émergence-des-communaux-collaboratifs-et-l-éclipse-du-capitalisme-LIENS-QUI-LIBER-French-Edition-",
  "isbn": "24390709-fc77-4a30-90cc-9331b0b3bc23",
  "language": "ar",
  "lastread": "2015-06-08T20:57:18.225",
  "publisher": "",
  "subtitle": null,
  "title": "La nouvelle société du coût marginal zéro: L'internet des objet, l'émergence des communaux collaboratifs et l'éclipse du capitalisme (LIENS QUI LIBER) (French Edition)"
}