{
  "annotations": [],
  "attribution": "Martin-Lugand, Agnès",
  "cover": "Martin-Lugand-Agnès-Les-gens-heureux-lisent-et-boivent-du-café-French-Edition-",
  "description": null,
  "id": "Martin-Lugand-Agnès-Les-gens-heureux-lisent-et-boivent-du-café-French-Edition-",
  "isbn": null,
  "language": "fr",
  "lastread": "2019-01-08T23:37:33Z",
  "publisher": null,
  "subtitle": null,
  "title": "Les gens heureux lisent et boivent du café (French Edition)"
}