{
  "annotations": [
    {
      "progress": 0.12,
      "text": ", il est vrai qu’au sifflement particulier de chacun on devine tout de suite s’il sera pour soi ou pour les camarades d’avant ou pour ceux d’arrière."
    },
    {
      "progress": 0.14,
      "text": "Des bouvreuils jettent leur cri monotone."
    },
    {
      "progress": 0.2,
      "text": " en revanche, je lui donne du chocolat."
    },
    {
      "progress": 0.23,
      "text": "Leur pain a été compissé en même temps que leur personne, donc fureur."
    },
    {
      "progress": 0.26,
      "text": " 2 jours de prison à Braconnot parce que les poilus n’ont pas chié"
    },
    {
      "progress": 0.28,
      "text": "Dastis manque d’être tué – à 10 h ½ comme je sommeille vaguement, les pieds gelés, on vient m’avertir que Gautier qui vient de recevoir une balle au cou, demande à me serrer la main avant de mourir – je cours en baissant le dos. Legouis l’a pansé."
    },
    {
      "progress": 0.3,
      "text": "  Je suis de jour ; la barbe ! Les malades, les mandats, les lettres"
    },
    {
      "progress": 0.3,
      "text": "Rien de particulier – repos et bombardement."
    },
    {
      "progress": 0.33,
      "text": ". Au petit jour je laisse l’abri aux hommes et vais dans mon abri où je m’endors sous la pluie qui me dégoutte sur le nez du plafond. "
    },
    {
      "progress": 0.37,
      "text": "coeur : il donnerait tout… ce qui n’est pas à lui "
    },
    {
      "progress": 0.52,
      "text": "Les trois questions du lieutt d’artillerie et du capitaine Mercier pour savoir si un invité est franc :\n\n   — Vous êtes-vous déjà b… ?\n\n   — Au lit après avoir lâché un pet, ne vous est-il pas arrivé d’agiter la couverture pour laisser l’odeur arriver jusqu’à vos narines ?\n\n   — En vous déshabillant n’avez-vous jamais passé votre index entre vos doigts de pied et porté ensuite ledit index sous votre nez ?"
    },
    {
      "progress": 0.58,
      "text": "Mes poilus sont en train comme tout. "
    },
    {
      "progress": 0.59,
      "text": " Il est tombé sur le dos, une écume rouge aux lèvres, la bouche ouverte et les yeux agrandis d’étonnement. Quel étonnement ! P 3 n’est qu’un cirque sanglant."
    },
    {
      "progress": 0.6,
      "text": "Danvin manque se noyer dans un trou plein de boue, d’eau, de pissat, de merde et de sang. Je saute dedans pour le retirer et j’en ai jusqu’aux genoux. L’odeur me poursuivra 3 jours durant."
    },
    {
      "progress": 0.6,
      "text": "On est en admiration devant nous, n’empêche qu’il y a 111 morts – 250 blessés et autant de disparus. Et pourquoi, pour que le con sinistre qui a nom Boucher de Morlaincourt ait sa 3e étoile. La prise de Marchéville ne signifie rien, rien. Il est idiot de songer à prendre un village et des tranchées aussi puissamment protégées avec des effectifs aussi réduits, chaque poilu fût-il brave comme 3 lions."
    },
    {
      "progress": 0.64,
      "text": "Mistarlet avec 3 brancardiers veut aller relever en avant de P 3 un de nos blessés. On hisse le drapeau de la Croix-Rouge et il se dresse sur le parapet. Les Boches n’ont pas tiré. Calme, Mistarlet s’avance jusqu’au blessé, salue, charge son homme sur le brancard et resalue en s’inclinant. Les Allemands lui rendent son salut. Leurs têtes apparues un instant au haut du parapet se rabaissent. On n’a plus tiré de la journée."
    },
    {
      "progress": 0.74,
      "text": "cette guerre à l’époque de sa mécanisation eut aussi la spécificité de créer une forme de désoeuvrement expliquant en partie, avec la longueur du conflit, la profusion de lettres et de journaux."
    }
  ],
  "attribution": "Pergaud, Louis",
  "cover": "Pergaud-Louis-Carnet-de-guerre",
  "description": "<div><p class=\"description\" style=\"font-family: georgia;text-indent: 1.2em;text-align: justify;\">Louis Pergaud a 32 ans lors de la mobilisation générale du 2 août 1914. Il a déjà publié au Mercure de France <i>De Goupil à Margot</i> (prix Goncourt en 1910), <i>La Guerre des boutons</i> (1912) et <i>Le roman de Miraut</i> (1913). Il part à Verdun le 3 août 1914. Dans la nuit du 7 au 8 avril 1915, lors de l'attaque de la cote 233 de Marchéville, il disparaît dans la boue de la Meuse. En recevant la cantine militaire de son mari, sa femme Delphine trouva à l'intérieur le <i>Carnet de guerre</i>. Pergaud y rend compte de sa vie quotidienne: les corvées, les revues, la solidarité, les mesquineries de la vie en commun, la bonne santé et la crainte des maladies, la qualité du sommeil, la nourriture... Les phrases sont interrompues, heurtées, dictées par une urgence, comme hachées par l'éclat des obus ou les rafales de mitrailleuses. Enfin disponible dans son intégralité, ce <i>Carnet</i> éclaire la guerre d'une lumière brute et factuelle.</p></div>",
  "id": "Pergaud-Louis-Carnet-de-guerre",
  "isbn": "4c584a2e-9219-4260-96c0-d5e0ba80c36f",
  "language": "fr",
  "lastread": "2016-08-13T09:49:32Z",
  "publisher": "",
  "subtitle": null,
  "title": "Carnet de guerre"
}