{
  "annotations": [],
  "attribution": "Roger FRISON-ROCHE",
  "cover": "Roger-FRISON-ROCHE-Premier-de-cordée",
  "description": "<div>\n\n<p class=\"Corpsdutexte0\" style=\"margin-top:0cm;margin-right:1.0pt;margin-bottom:\n12.0pt;margin-left:1.0pt;background:transparent\"><span lang=\"fr\" style='font-size:14.0pt;font-family:\"Georgia\",\"serif\"'>Dans l'âme du héros de\nl'ouvrage se livre le combat fameux de Jacob et de l'Ange: les ambitions\nfamiliales, la fin tragique de son père, guide lui-même, foudroyé près des\ncimes, sa propre invalidité à la suite d'un accident de montagne, rien ne\ndétournera Pierre Servettaz de la voie qu'il s'est tracée: devenir\n\"Premier de Cordée\", l'homme qui, dans la vie exaltante et rude des\nsommets, assume les plus lourdes responsabilités, le guide énergique et sûr\ndont dépend l'existence des alpinistes: en un mot, le chef.</span></p><p></p><p></p>\n\n<p class=\"Corpsdutexte0\" style=\"margin-top:0cm;margin-right:1.0pt;margin-bottom:\n28.3pt;margin-left:1.0pt;background:transparent\"><span lang=\"fr\" style='font-size:14.0pt;font-family:\"Georgia\",\"serif\"'>Dans un cadre grandiose\nqui élève l'âme, une haute leçon nous est donnée par ceux dont la vie est toute\nde risque et de dévouement.</span></p><p></p><p></p>\n\n<p class=\"Corpsdutexte20\" style=\"margin-top:0cm;margin-right:1.0pt;margin-bottom:\n16.9pt;margin-left:1.0pt;background:transparent\"><span lang=\"fr\" style='font-size:14.0pt;font-family:\"Georgia\",\"serif\"'>Illustration de la\ncouverture d'après une photo de GEORGES TAIRRAZ. Chamonix</span></p><p></p><p></p>\n\n</div><hr class=\"annotations_divider\" />\n",
  "id": "Roger-FRISON-ROCHE-Premier-de-cordée",
  "isbn": "055c2078-dc9d-4fe1-ab76-4bcc5cd09b47",
  "language": "fr",
  "lastread": "2015-09-09T12:31:12Z",
  "publisher": "",
  "subtitle": null,
  "title": "Premier de cordée"
}