{
  "annotations": [
    {
      "progress": 0.0,
      "text": "nous vivons une époque où les Français cherchent plutôt à oublier qu’à se souvenir."
    },
    {
      "progress": 0.0,
      "text": "Je n’avais pas envie de tuer des hommes, et lorsqu’on arrive à distinguer un S.S. d’un homme, il est déjà trop tard, il est mort."
    },
    {
      "progress": 0.0,
      "text": ". Il croyait au malheur parce qu’il était seul. L’espoir a besoin d’être deux."
    },
    {
      "progress": 0.0,
      "text": "  L’espoir est une frayeur."
    },
    {
      "progress": 0.0,
      "text": " C’est leur tour, dans l’histoire, et voilà tout. On verra bien, après la guerre, une fois l’Allemagne vaincue et le nazisme enfui ou enfoui, si d’autres peuples, en Europe, en Asie, en Afrique, en Amérique, ne viendront pas prendre la relève."
    },
    {
      "progress": 0.0,
      "text": ". Il faut se méfier d’un excès de lucidité et de bon sens : la vie y laisse quelquefois ses plus belles plumes."
    },
    {
      "progress": 0.0,
      "text": "« Mon père est maire de Mamers et mon frère est masseur. »"
    },
    {
      "progress": 0.0,
      "text": "Il y a des guérisons qui vous mettent plus bas que la maladie.\n"
    },
    {
      "progress": 0.0,
      "text": "ses yeux, si bleus qu’il devait en coûter au ciel"
    },
    {
      "progress": 0.0,
      "text": " C’était la première fois que j’utilisais l’imagination comme arme de défense et rien ne devait m’être plus salutaire dans la vie. "
    },
    {
      "progress": 0.0,
      "text": " Je ne t’oublie pas. Je te cache, c’est tout."
    },
    {
      "progress": 0.0,
      "text": "cet effort qui est parfois le plus surhumain de tous et qui consiste à oublier,"
    },
    {
      "progress": 0.0,
      "text": "Le cerf-volant demande beaucoup d’innocence."
    },
    {
      "progress": 0.0,
      "text": "Méfie-toi. Il y a d’abord cette façon de regarder et puis cela devient une manière de vivre. A force de tout tordre, on voit tordu"
    },
    {
      "progress": 0.0,
      "text": "Il ne me venait pas à l’idée de penser à l’histoire au présent."
    },
    {
      "progress": 0.0,
      "text": "Jusqu’à Z ? Quel Z ? Parce qu’il y a déjà un Z en vue ?\n"
    },
    {
      "progress": 0.0,
      "text": "Quel est le premier homme à avoir dit merde – enfin, c’est une façon de parler – à la force, à la dureté, à la cruauté, aux poings, au sang versé ? Jésus a été le premier à réclamer la féminisation du monde et moi je la réclame aussi."
    },
    {
      "progress": 0.0,
      "text": "Le comique a une grande vertu : c’est un lieu sûr où le sérieux peut se réfugier et survivre."
    },
    {
      "progress": 0.0,
      "text": "  Je trouvai le pilote attablé devant un plat de tripes à la cuisine. Il s’appelait Lucchesi."
    },
    {
      "progress": 0.0,
      "text": ": ce n’étaient pas des monstres. Et c’était bien cela qui était monstrueux."
    },
    {
      "progress": 0.0,
      "text": "Quant à nos chers parents, on frémit à l’idée de ce qu’ils deviendraient si leur arbre généalogique ne les cachait si bien."
    },
    {
      "progress": 0.0,
      "text": ". Il se méfie des grands élans et il trouve que les hommes doivent tenir même leurs plus nobles idées au bout d’une solide ficelle."
    },
    {
      "progress": 0.0,
      "text": ". Je ne comprends même pas qu’on ne t’ait pas pris dans l’armée, con comme tu es"
    },
    {
      "progress": 0.0,
      "text": " On se prépare des souvenirs,"
    },
    {
      "progress": 0.0,
      "text": ". La vie a des oreilles."
    }
  ],
  "attribution": "Romain Gary",
  "cover": "Romain-Gary-Les-Cerfs-volants",
  "description": "<div>Pour Ludo le narrateur, l'unique amour de sa vie commence à l'âge de dix ans, en 1930, lorsqu'il aperçoit dans la forêt de sa Normandie natale la petite Lila Bronicka, aristocrate polonaise passant ses vacances avec ses parents. Depuis la mort des siens, le jeune garçon a pour tuteur son oncle Ambroise Fleury dit 'le facteur timbré' parce qu'il fabrique de merveilleux cerfs-volants connus dans le monde entier. Doué de l'exceptionnelle mémoire 'historique' de tous les siens, fidèle aux valeurs de 'l'enseignement public obligatoire', le petit Normand n'oubliera jamais Lila. Il essai de s'en rendre digne, étudie, souffre de jalousie à cause du bel Allemand Hans von Schwede, devient le secrétaire du comte Bronicki avant le départ de la famille en Pologne, où il les rejoint au mois de juin 1939, juste avant l'explosion de la Seconde Guerre mondiale qui l'oblige à rentrer en France.\n<p>Alors la séparation commence pour les très jeunes amants... Pour traverser les épreuves, défendre son pays et les valeurs humaines, pour retrouver son amour, Ludo sera toujours soutenu par l'image des grands cerfs-volants, leur symbole d'audace, de poésie et de liberté inscrit dans le ciel.</p></div>",
  "id": "Romain-Gary-Les-Cerfs-volants",
  "isbn": "01616d01-fe26-46c3-970f-84f486e12246",
  "language": "fr",
  "lastread": "2016-03-30T05:34:58Z",
  "publisher": "",
  "subtitle": null,
  "title": "Les Cerfs-volants"
}