{
  "annotations": [
    {
      "progress": 0.0,
      "text": "Le monde fut forcé d'acheter en\n\npermanence d'énormes quantités de dollars afin d'acquérir les indispensables approvisionnements énergétiques en pétrole."
    },
    {
      "progress": 0.0,
      "text": ". Le deuxième pilier de l’hégé -monie américaine reposait sur le rôle incontesté du dollar en tant que\n\ndevise mondiale de référence."
    },
    {
      "progress": 0.0,
      "text": "À partir d’un indice 100 en\n\njuillet 1922, juste après l’assassinat de Rathenau, les prix qui atteignaient\n\nl’indice 2 785 à la fin de janvier 1923, au début de l’occupation de la\n\nRuhr, avaient augmenté d’environ trente fois. En juillet, les prix s’étaient envolés à l’indice incroyable de 74 787; en septembre, jusqu’à\n\n23 949 000; et finalement en novembre jusqu’à 750 milliards, rapporté à\n\n100 un an plus tôt. Les économies de toute la population étaient\n\ndétruites. Le niveau de vie s’effondra."
    },
    {
      "progress": 0.0,
      "text": "le gouvernement\n\nfrançais annonçait qu’il exercerait son droit de veto vis-à-vis de l’entrée des\n\nBritanniques dans le marché commun européen."
    },
    {
      "progress": 0.0,
      "text": "Dès l’entrée en\n\nguerre officielle des États-Unis, Morgan & Co. avaient tranquillement\n\nreporté leurs prêts privés au gouvernement britannique sur la dette générale du Trésor américain, faisant ainsi de l’endettement britannique le far-deau des contribuables américains d’après guerre."
    },
    {
      "progress": 0.0,
      "text": "Les Américains achetaient leurs importations en distribuant leurs\n\ndollars, créant ainsi une montagne de dette dollarisée de laquelle le monde\n\nentier dépendait."
    },
    {
      "progress": 0.0,
      "text": "\n En 1977, Bhutto fut renversé par un coup d'État militaire dirigé par le\ngénéral Zia ul-Haq. Avant son exécution, Bhutto accusa le secrétaire d'État\naméricain Henry Kissinger d'avoir secrètement organisé sa chute à cause de\nson obstination à développer un programme nucléaire indépendant."
    },
    {
      "progress": 0.0,
      "text": "\n Peu d’attention a été accordée au rôle du pétrole dans le programme de\n\nredressement européen d’après-guerre (European Recovery Program, ERP),\n\nmieux connu sous le nom de plan Marshall, d’après le nom de son architecte, le secrétaire d’État George C. Marshall. Depuis l’origine de ce plan\n\nen 1947, le plus important poste de dépense des pays bénéficiaires\n\nd’Europe de l’Ouest fut l’acquisition du pétrole fourni d’abord par les\n\ncompagnies pétrolières américaines et payé aux Américains avec les dollars\n\ndu plan Marshall. Selon les rapports officiels du département d’État, plus\n\nde 10 % de toute l’aide du plan Marshall fut consacrée à l’acquisition de\n\npétrole américain"
    },
    {
      "progress": 0.0,
      "text": "En 1957, la Communauté Économique Européenne (CEE), centrée\n\nsur la France, l’Allemagne de l’Ouest et l’Italie, constituait une nouvelle\n\nforme de coopération économique stabilisée par la signature du traité de\n\nRome. Conformément aux termes du traité, la CEE naquit en janvier 1959."
    },
    {
      "progress": 0.0,
      "text": "Les banquiers de J P. Morgan avaient déjà testé l’efficacité de mesures\n\npolitiques directives radicales, notamment à l’occasion du remboursement\n\ndes prêts bancaires qu’ils avaient accordés pour financer à crédit le régime\n\nfasciste de Benito Mussolini, l’homme fort d’Italie."
    },
    {
      "progress": 0.0,
      "text": "Le 15 août 1971, Nixon prit l'avis d'un cercle restreint de conseillers\n\ndont faisaient partie George Shultz, son conseiller en chef au Budget, et\n\nun groupe de politiciens du département du Trésor, dont Paul Volcker et\n\nJack F. Bennett, futur directeur d'Exxon. Pendant ce tranquille mois\n\nd'août ensoleillé, procédant à une manœuvre qui devait chambouler le\n\nmonde, le président des États-Unis annonça la suspension formelle de\n\nla convertibilité du dollar en or, établissant de fait le dollar en tant que\n\nstandard mondial dépouillé de toute référence à l'or, et annulant ainsi uni-latéralement le dispositif central des accords de Bretton Woods qui datait\n\nde 1944."
    },
    {
      "progress": 0.0,
      "text": "Après 1880, la grande industrie se développa en\n\nsymbiose avec la Deutsche Bank et les autres grandes banques allemandes,\n\npour donner ce qui reste connu comme le modèle des «Grandes Banques»\n\nou plus simplement le «modèle allemand» de participations croisées entre\n\ngrandes banques et entreprises industrielles"
    },
    {
      "progress": 0.0,
      "text": "Depuis la fin de la guerre du Vietnam, des volumes entiers ont été\n\nécrits sur les raisons et les causes de cette horreur. Mais, à un certain\n\nniveau, il est clair qu’une part significative de l’industrie de défense et de\n\nla finance de New York a encouragé la décision belliqueuse de Washington, malgré l’absurdité des justifications militaires et la fracture sociale qui\n\nen résulterait, parce que l’effort de guerre offrait à ces intérêts une excuse\n\npolitiquement plausible pour relancer massivement l’industrie américaine\n\nvers la production militaire."
    },
    {
      "progress": 0.0,
      "text": "avec le déclin en valeur absolue du commerce mondial des années vingt comparé aux niveaux d'avant-guerre et l'instabilité\ngénérale que créait la situation économique et politique en  \nl'Europe, l'argent ne pouvait être emprunté qu'à court terme, pour moins d'un an le\nplus souvent.\n\n Il s'ensuivit une situation dans laquelle les gains spéculatifs à court\nterme devinrent le critère décisif des investissements, ce qui, en retour, alimenta l'explosion frénétique du marché new-yorkais des actions, explosion alimentée par l'afflux de capitaux en provenance de Londres et du\ncontinent à l'affût de gains fabuleux. Tout cela s'effondra en\noctobre 1929."
    },
    {
      "progress": 0.0,
      "text": "Après 1873, le décalage grandissant entre l’économie déprimée de\n\nl’Empire britannique et les économies industrielles émergentes de l’Eu-rope continentale, dont le Reich allemand était la plus avancée, créa les\n\nconditions qui permirent l’explosion de 1914."
    },
    {
      "progress": 0.0,
      "text": "Quand il devint clair que seule l’entrée en guerre de l’Amérique\n\npouvait éviter le désastre qui se profilait en Europe pour les intérêts de\n\nJ.P. Morgan et de ses clients européens, des articles favorables dans la\n\npresse américaine, relayés par l’assistance attentive des services secrets britanniques aux plus hauts niveaux, organisèrent l’entrée en guerre de\n\nl’Amérique du «bon» côté, c’est-à-dire du côté des intérêts britanniques.\n"
    },
    {
      "progress": 0.0,
      "text": "dans la Grande-Bretagne d'après 1846, les politiques libérales libreéchangistes d'Adam Smith et de David Ricardo conduisirent à l'abrogation des lois de protection des cours du blé (Corn Laws) ce qui ouvrit le\npays aux ruineuses importations de grain à bon marché, provoquant ainsi\nl'appauvrissement prévisible de la grande majorité des citoyens britanniques et la concentration de la richesse sociale entre les mains d'une\npetite minorité,"
    },
    {
      "progress": 0.0,
      "text": "Dans les années cinquante, la Grande-Bretagne, qui perdait la plupart\n\ndes fleurons de son empire, s’attacha avec ténacité à poursuivre une liste\n\nd’objectifs coloniaux prioritaires. Plutôt que de risquer de tout perdre en\n\nmaintenant un empire formel jusqu’en Inde, elle se concentra, avec l’assistance des États-Unis, sur le contrôle du pétrole mondial et des matières\n\npremières stratégiques."
    },
    {
      "progress": 0.0,
      "text": "Manquant d’un ravitaillement roumain suffisant, les camions inter-dits d’accès à Bakou ne purent acheminer le pétrole vers les forces\n\nallemandes qui furent incapables de mener l’offensive finale de 1918,\n\nmalgré l’accord germano-russe de cessation des hostilités conclu à Brest-Litovsk."
    },
    {
      "progress": 0.0,
      "text": "Depuis 1926, Schacht avait secrètement soutenu le Parti National\n\nSocialiste des Travailleurs Allemands, (NSDAP), le parti nazi d’Adolf\n\nHitler. Après sa démission de la Reichsbank, Schacht fut un agent de liaison crucial entre les puissants dirigeants de l’industrie allemande restés\n\nsceptiques, les fameux «Schlotbarone* » de la Ruhr, et les dirigeants financiers étrangers, particulièrement lord Norman"
    },
    {
      "progress": 0.0,
      "text": ". Le groupe Sinclair accepta d’investir 115 millions\n\nde dollars dans le projet, et se fit fort d’obtenir pour le gouvernement\n\nrusse un important prêt américain. Moscou connaissait l’étroitesse des\n\nliens de Sinclair avec Harding, le président américain, et avec l’administration républicaine de Washington. Un prêt américain impliquait une\n\nreconnaissance diplomatique de la Russie, rompant l’isolement international de l’Union soviétique. Sinclair convainquit aisément Harding de\n\nreconnaître le gouvernement soviétique"
    },
    {
      "progress": 0.0,
      "text": "En février 1917, dans le but d’interrompre notamment\n\nles approvisionnements en pétrole américain destinés aux Alliés, les Allemands déclarèrent une guerre sous-marine totale. La destruction des tankers américains fut le prétexte dont la presse contrôlée par Morgan avait\n\nbesoin pour exiger la fin de la neutralité américaine"
    },
    {
      "progress": 0.0,
      "text": "En novembre 1978, le président Carter nomma George Ball, membre du groupe de Bilderberg et de la Commission Trilatérale, à la direction\nd'un groupe de réflexion spécial de la Maison Blanche consacré à l'Iran et\ntravaillant sous l'autorité de Brzezinski, du Conseil de\nSécurité national (NSC). Ball recommanda que Washington cessât de soutenir le shah\nd'Iran et reportât son soutien vers l'opposant nationaliste fondamentaliste\nislamique, l'ayatollah Khomeini. Robert Bowie, de la CIA, était l'un des\n«officiers spécialisés» organisateurs du nouveau coup d'État que la CIA\nfomentait contre l'homme que son action secrète avait placé au pouvoir\nvingt-cinq ans auparavant."
    },
    {
      "progress": 0.0,
      "text": "La mécanisation agricole commença également à porter ses fruits: on\n\ncomptait 2 000 moissonneuses en 1882 et 300 000 en 1907."
    },
    {
      "progress": 0.0,
      "text": "\n Les divisions arbitraires créées par les Britanniques, qui perdurent de\n\nnos jours pour l’essentiel, parmi lesquelles il faut compter la création\n\nd’une Syrie et d’un Liban sous «protectorat» français, la Transjordanie, la\n\nPalestine (Israël), l’Iraq et le Koweït en tant qu’entités britanniques, sont\n\nissues de ces paragraphes secrets des accords Sykes-Picot."
    },
    {
      "progress": 0.0,
      "text": "le gouvernement britannique imposa en 1921, une taxe pro-hibitive de 26 % sur toutes les importations d’outre-Rhin, entravant\n\nd’autant les efforts allemands pour négocier un processus réaliste de rem-boursement de la dette"
    },
    {
      "progress": 0.0,
      "text": "Au-delà de sa rhétorique sur la liberté, la paix et la démocratie, le siècle\n\naméricain s’appuyait sur l’hégémonie de l’Amérique sur les autres nations.\n\nCelle-ci reposait sur deux piliers dont l’un était le rôle incontesté de la\n\npuissance militaire américaine qui établissait une domination qu’aucune\n\nalliance de puissances n’avait été en mesure de défier depuis la fin de la\n\nseconde guerre mondiale."
    },
    {
      "progress": 0.0,
      "text": "La première mission dévolue à ce nouvel institut fut d’écrire\n\nl’histoire «officielle» de la Conférence de paix de Versailles. À cet effet, la\n\nbanque J. P. Morgan, par l’intermédiaire de Thomas Lamont, dota l’Institut Royal de 2000 livres sterling tandis que l’historien Arnold J. Toynbee\n\nen fut le premier membre salarié."
    },
    {
      "progress": 0.0,
      "text": "\n La guerre des Boers (1899-1902) était un projet de ce groupe, financé\n\net personnellement promu par Rhodes en vue d’assurer le contrôle britannique sur les vastes richesses minérales du Transvaal, à cette époque contrôlé par la minorité boer d’origine hollandaise."
    },
    {
      "progress": 0.0,
      "text": "mois après mois, l’embargo déstabilisait la fragile économie\n\niranienne et les troubles se multipliaient. Les revenus pétroliers, principale\n\nsource de revenus d’exportation du pays, s’effondrèrent de 400 millions de\n\ndollars en 1950 à moins de 2 millions de dollars entre juillet 1951 et la\n\nchute de Mossadegh en août 1953."
    },
    {
      "progress": 0.0,
      "text": "Mais si le choc pétrolier de Kissinger de 1973 avait eu un impact\n\ndévastateur sur la croissance industrielle mondiale, il avait, en revanche,\n\npermis à certains intérêts anglo-américains bien établis, aux plus grandes\n\nbanques de New York et de Londres et aux sept sœurs multinationales du\n\npétrole, de réaliser d'énormes bénéfices. En 1974, le montant des revenus\n\nbruts d'Exxon dépassait celui de la General Motors. Ses sœurs, y compris\n\nMobil, Texaco, Chevron et Gulf, les talonnaient de près."
    },
    {
      "progress": 0.0,
      "text": "Entre 1924 et 1931, l’Allemagne paya 10,5 milliards de marks en réparations, mais emprunta 18,6 milliards de marks à l’étranger."
    },
    {
      "progress": 0.0,
      "text": "Dans les années 1890, l’industrie britannique avait été dépassée tant en\n\nquantité qu’en qualité par l’étonnant essor agricole et industriel de l’Allemagne."
    },
    {
      "progress": 0.0,
      "text": "Toute la pyramide des finances internationales post-versaillaises reposait sur une structure de dettes de guerre fondée sur la\n\npunition."
    },
    {
      "progress": 0.0,
      "text": "la pertinence de la déclaration de Bismarck\n\nde 1897: «La seule condition qui pourrait mener à une amélioration des relations germano-anglaises serait que nous bridions notre développement\n\néconomique, et cela n’est pas possible»8.\n"
    },
    {
      "progress": 0.0,
      "text": "\n À Versailles, les hommes de Morgan, dont Thomas Lamont, et Bernard Baruch, l’un de ses comparses familier de Wall Street, étaient assis à\n\nla table des négociations lors de la séance à huis clos au cours de laquelle la\n\n«facture» de la Grande Guerre fut établie."
    },
    {
      "progress": 0.0,
      "text": "Allemagne et l’Union Soviétique avaient\n\nconclu un accord bilatéral par lequel la Russie renonçait à ses prétentions\n\nconcernant les réparations de guerre allemandes, en échange de quoi\n\nl’Alle magne était prête à vendre à l’Union soviétique des biens et produits,\n\ny compris de la technologie industrielle."
    },
    {
      "progress": 0.0,
      "text": "Malgré les déclarations solennelles faites en pleine guerre par Staline,\n\nChurchill et Roosevelt qui devaient restaurer la souveraineté iranienne à la\n\nfin des hostilités, lors de la conférence de Téhéran, la Russie exigea une\n\nconcession pétrolière exclusive au nord de l’Iran le long de la frontière\n\nazerbaïdjanaise, tandis que la Grande-Bretagne exigeait d’autres concessions pour la Royal Dutch Shell. Dans cette situation de chantage des\n\npuissances étrangères occupant de fait le territoire national, le dirigeant\n\nnationaliste iranien Mohamed Mossadegh présenta, en décembre 1944,\n\nun projet de loi au Parlement iranien visant à interdire les négociations\n\npétrolières avec les pays étrangers."
    },
    {
      "progress": 0.0,
      "text": "Telle a été la politique qui continue de dominer la législation britannique. En pratique, elle a considéré la nation dans son ensemble comme\n\nun opérateur commercial géant face au reste du monde, gérant un formidable stock de biens destiné non pas à l’usage mais à la vente, s’efforçant\n\nde produire au plus bas prix afin de vendre en dessous du prix de la\n\nconcurrence et considérant les salaires payés à son propre peuple comme\n\nun manque à gagner pour les nantis"
    },
    {
      "progress": 0.0,
      "text": "Ce fut un tournant historique désastreux, non seulement\n\npour l’Angleterre mais pour le monde entier qui reçut un déluge de produits agricoles à bon marché, ruinant ainsi non seulement les paysans britanniques mais également ceux d’autres nations."
    },
    {
      "progress": 0.0,
      "text": "Zbigniew Brzezinski, conseiller de Carter à la Sécurité, et Cyrus Vance,\nson secrétaire d'État, appliquèrent leur politique de «l'arc de \ncrise» en diffusant la crise iranienne dans tout le périmètre de l'Union soviétique.\nToute la zone islamique, du Pakistan à l'Iran, fut également l'objet des\nmanœuvres américaines visant à la déstabiliser, ou pire encore."
    },
    {
      "progress": 0.0,
      "text": "Jusqu’en 1920, avec le soutien\n\nde Churchill et du gouvernement britannique, Deterding avait envoyé de\n\ngrosses sommes d’argent à un mouvement contre-révolutionnaire russe\n\ndirigé par les généraux Wrangel, Denikine et l’amiral Koltchak,"
    },
    {
      "progress": 0.0,
      "text": "Rien mieux que l’accord secret signé en 1916, au plus fort de la\n\nbataille, ne révèle les objectifs cachés des puissances alliées contre les puissances centrales regroupées autour de l’Allemagne, de l’Autriche-Hongrie\n\net de la Turquie ottomane lors de la guerre de 1914-1918. Les signataires\n\nen étaient la Grande-Bretagne, la France et plus tard l’Italie et la Russie\n\ntsariste. Dénommés d’après les deux officiels, français et britannique,\n\nrédacteurs du document, les accords Sykes-Picot annonçaient le parjure et\n\nl’intention de la Grande-Bretagne de s’assurer après la guerre du contrôle\n\ndes potentiels pétroliers sous-exploités du golfe Arabe."
    },
    {
      "progress": 0.0,
      "text": "Selon l'argument simpliste et passablement erroné selon lequel la\nsimple suppression des taxes sur les personnes ou les sociétés permettrait\nde libérer «des énergies créatives étouffées» et d'autres talents novateurs,\nle président Ronald Reagan entérina en août 1981 la plus grande réduction de taxes de l'histoire d'après guerre."
    },
    {
      "progress": 0.0,
      "text": "La crise bancaire qui s’ensuivit, la dépression économique et les développements tragiques en Allemagne et en Autriche furent pratiquement\n\ndictés à la lettre par Montagu Norman, de la Banque d’Angleterre, George\n\nHarrison, le gouverneur de la Réserve fédérale de New York, la maison Morgan et ses amis de Wall Street. La décision de couper tous les crédits à\n\nl’Allemagne avait été prise, alors que des sommes nominalement faibles\n\neussent vraisemblablement suffi pour assurer un fond de roulement minimum et empêcher la crise de devenir incontrôlable."
    },
    {
      "progress": 0.0,
      "text": "Thatcher et son milieu d'idéologues acquis au «libre-échange» selon les\nconceptions modernisées d'Adam Smith, usèrent d'un argument mensonger\nen affirmant que les 18 % d'inflation britannique avaient pour principale\n«origine» les déficits budgétaires du gouvernement, et non les 140 %\nd'augmentation du prix du pétrole consécutifs à la chute du shah d'Iran."
    },
    {
      "progress": 0.0,
      "text": "En 1958, la quantité d’acier nécessaire pour\n\nproduire une Chevrolet de la General Motors fut divisée par deux par rapport au modèle de 1956. Inutile de dire que le taux de mortalité sur les\n\nautoroutes augmenta. L’industrie nationale de l’acier accusa également le\n\ncoup."
    },
    {
      "progress": 0.0,
      "text": "Depuis son triomphe sur l’Armada espagnole en 1588, la Grande-Bretagne a profité des circonstances particulières qui font d’elle une île séparée de l’Europe continentale pour se libérer des coûts d’entretien d’une\n\narmée maintenue sur le pied de guerre, afin de se concentrer sur la maîtrise des mers. "
    },
    {
      "progress": 0.0,
      "text": "C’est ainsi que la Triple Alliance anglo-franco-russe fut pleinement établie en 1907. La Grande-Bretagne avait réussi à créer un réseau\n\nd’alliances secrètes qui, en encerclant l’Allemagne, avait établi les bases de\n\nla grande explication militaire à venir contre le Reich du Kaiser."
    },
    {
      "progress": 0.0,
      "text": "En 1929-1930, au moment de\n\nl’effondrement de la bourse de New York, l’Allemagne, cas unique parmi\n\nles grands pays développés d’Europe, devait à ses créanciers internationaux\n\nune dette à court terme estimée à seize milliards de Reichsmarks."
    },
    {
      "progress": 0.0,
      "text": ", l’Angleterre tenta pendant les quinze années suivantes de retarder et d’empêcher la progression du chemin de fer par tous\n\nles moyens possibles, tout en entretenant l’espoir d’un accord final en vue\n\nde maintenir durablement l’Allemagne en porte-à-faux. Ce jeu dura jusqu’à la déclaration de guerre d’août 1914."
    },
    {
      "progress": 0.0,
      "text": "En 1882, la boue noire et lourde que nous appelons «pétrole» n’avait\n\nque peu d’intérêt commercial hormis celui de combustible pour les nouvelles lampes à huile minérale, une technique développée à Berlin en\n\n1853 par Stohwasser, qui fabriquait ces lampes en Allemagne. Le\n\npétrole, qu’on appelait à l’époque «huile de roche», suintait de la pierre\n\ndans certaines régions, vers Titusville en Pennsylvanie, Bakou en Russie\n\net en Galicie, devenue polonaise depuis."
    },
    {
      "progress": 0.0,
      "text": "Après 1905, Witte fut forcé de démissionner de la\n\nprésidence du Conseil des ministres sous le tsar Nicolas II. Son successeur,\n\narguant que la Russie devait se réconcilier avec la puissance britannique,\n\nrenonça, au profit des Anglais, à ses droits sur l’Afghanistan et sur de\n\ngrandes parties de la Perse, réduisant d’autant les ambitions asiatiques de\n\nla Russie."
    },
    {
      "progress": 0.0,
      "text": "Face à ce poing franco-anglais dressé sous son nez, Rathenau, descendant d’une célèbre famille d’industriels allemands et ex-président de l’importante compagnie électrique AEG, s’orienta vers une stratégie de\n\ndéveloppement permettant à l’Allemagne de se reconstruire par le moyen\n\nd’une politique d’exportation d’industrie lourde vers la Russie soviétique."
    },
    {
      "progress": 0.0,
      "text": "En 1947, la moitié\n\nde tout le pétrole européen était fournie par les cinq grandes compagnies\n\naméricaines."
    },
    {
      "progress": 0.0,
      "text": "Depuis 1890, l’Allemagne avait décidé de bâtir une solide alliance économique avec la Turquie afin d’étendre vers l’est l’exportation de ses pro-duits industriels."
    },
    {
      "progress": 0.0,
      "text": "L’autre pays qui à cette époque osa défier ouvertement les puissants\n\nintérêts financiers de Londres et de New York fut la République d’Afrique\n\ndu Sud, le plus grand producteur occidental d’or."
    },
    {
      "progress": 0.0,
      "text": "\n L’abrogation des lois sur le blé étendit à tout l’Empire le principe de la\n\npolitique de main-d’œuvre à bon marché. Après une déferlante de produits d’alimentation à bas prix, les seuls bénéficiaires de cette politique\n\nfurent les gigantesques établissements londoniens de commerce international et les banques qui les finançaient. Le clivage social de la société britannique s’aggrava, entre une mince frange de population très opulente et\n\nune masse d’individus paupérisés en nombre grandissant,"
    },
    {
      "progress": 0.0,
      "text": "\n Le congrès de Vienne de 1814-15 avait procédé au dépeçage de\n\nl’Europe post-napoléonienne, et les manœuvres diplomatiques de lord\n\nCastlereagh, ministre des Affaires étrangères britannique, avaient permis à\n\nl’Empire de dominer les mers en échange de «concessions» intéressées\n\nconcédées aux Habsbourg d’Autriche et aux autres puissances européennes."
    },
    {
      "progress": 0.0,
      "text": "En mai 1921, la commission des Réparations Alliées se réunit et lança\n\nce qui fut appelé l’«Ultimatum de Londres», le plan «définitif» de paiement exigé de l’Allemagne qui établissait la dette de réparation allemande\n\ndue aux Alliés victorieux au niveau astronomique de 132 milliards de\n\nmarks-or, une somme que l’expert britannique John Maynard Keynes luimême considérait comme supérieure au triple de ce que l’Allemagne pouvait effectivement payer"
    },
    {
      "progress": 0.0,
      "text": "Après la crise de 1957, les grandes industries et les banques américaines\n\ns’alignèrent progressivement sur le «modèle» de la politique industrielle\n\nbritannique. La fraude systématique sur la qualité des produits devint à la\n\nmode. Le «monétarisme» de Milton Friedman et autres économistes n’était\n\nrien de plus qu’une extension généralisée du principe britannique d’après\n\n1846, «buy cheap, sell dear», dans l’économie et la production américaines.\n\nLa fierté du travail bien fait et l’engagement pour le progrès industriel commencèrent à céder face aux critères de rendement financier calculés chaque\n\ntrimestre pour satisfaire les actionnaires de la compagnie."
    },
    {
      "progress": 0.0,
      "text": "Le\ngouvernement s'endetta pour financer les énormes réductions des impôts\nsur le revenu et l'expansion des projets de défense."
    },
    {
      "progress": 0.0,
      "text": "En 1820, le Parlement britannique approuva une déclaration de principe qui, à travers une série d’évolutions sur une période d’un siècle ou\n\npresque, eut pour conséquence majeure le déclenchement de la première\n\nguerre mondiale et ses suites tragiques.\n\n\n\n Cette déclaration avait pour but la promotion du soi-disant «libreéchange absolu», un concept élaboré quelques décennies auparavant par\n\nl’économiste écossais Adam Smith."
    },
    {
      "progress": 0.0,
      "text": "\n Le 9 janvier 1923, la commission des Réparations décida à trois contre\n\nun (le compte rendu fait état de l’opposition de la Grande-Bretagne, de la\n\nFrance, de la Belgique et du gouvernement de Mussolini nouvellement\n\nétabli en Italie) que l’Allemagne avait failli au paiement de ses réparations.\n\nLe 11 janvier, Poincaré ordonna aux forces militaires françaises, avec une\n\nparticipation symbolique de la Belgique et de l’Italie, d’occuper par la\n\nforce Essen et d’autres cités de la Ruhr industrielle. La Grande-Bretagne\n\ndénonça hypocritement l’occupation alors qu’elle avait précisément\n\nmenacé d’une action analogue en 1921.\n\n\n\n\n  \n\n En réaction, le gouvernement allemand appela ses citoyens à une résistance passive générale à l’occupation. Il ordonna à tous les officiels allemands, y compris les cheminots, de refuser de prendre des ordres de la\n\npart des autorités occupantes. Les travailleurs refusèrent de faire fonctionner les hauts-fourneaux et les usines de la Ruhr. Pour aider les familles des\n\nmineurs et d’autres travailleurs en grève, le gouvernement fit tourner la\n\nplanche à billets. La zone occupée était longue de cent kilomètres et large\n\nde cinquante, mais elle incluait 10 % de la population allemande, produisait 80 % de l’acier, du fer et du charbon allemands et participait pour\n\nplus de 70 % au trafic de fret."
    },
    {
      "progress": 0.0,
      "text": "L’ultimatum de Londres n’était pas seulement un ultimatum sur le\n\npapier. Les termes en étaient tels, qu’à défaut d’une acceptation complète\n\ndans les six jours de ces incroyables conditions par le Parlement allemand,\n\nla Ruhr, qui était le cœur industriel de l’Allemagne, serait occupée et\n\ncontrôlée par les troupes alliées. Sans surprise, le Reichstag approuva\n\nl’ulti matum draconien à une faible majorité"
    },
    {
      "progress": 0.0,
      "text": "Ces mêmes intérêts Anglo-américains, après avoir manipulé\n\nles événements politiques pour susciter une augmentation de 400 % du\n\nprix du pétrole, se tournèrent ensuite vers les pays victimes de cette offensive et «offrirent» de leur prêter, à un taux d'intérêt naturellement surévalué, des pétrodollars, afin de financer leurs achats de ce pétrole si onéreux\n\net des autres importations indispensables"
    },
    {
      "progress": 0.0,
      "text": "’à ce\n\nmoment critique, quand le NSDAP ne rassemblait qu’un peu plus de six\n\nmillions de voix aux élections de 1930, le soutien international de Montagu Norman, Tiarks et de leurs amis londoniens fut décisif."
    },
    {
      "progress": 0.0,
      "text": "Après que la Grande-Bretagne eut consolidé sa nouvelle stratégie de la\n\nTriple-Entente visant à l’encerclement de l’Allemagne et de ses alliés, des\n\ncrises et des guerres régionales continuelles furent déclenchées dans les\n\nBalkans, le «bas-ventre mou» de l’Europe centrale."
    },
    {
      "progress": 0.0,
      "text": "Entre 1914 et 1918, pendant la période d’hostilités ouvertes, le\n\npétrole était devenu le levier indiscuté d’une révolution de la stratégie\n\nmilitaire. À l’âge du combat aérien, des tanks et des flottes rapides, un approvisionnement abondant et sécurisé du nouveau combustible était\n\ndevenu chaque jour plus indispensable."
    },
    {
      "progress": 0.0,
      "text": "Après 1980, au moment où le poids des taux d'intérêts sur le service de\nleur dette extérieure s'envolait vers la stratosphère, les marchés d'exportation des biens produits par les pays du Tiers Monde s'effondrèrent quand\nles économies industrialisées plongèrent dans la pire crise économique\ndepuis la récession mondiale des années trente, résultat de l'impact de la\n«cure» monétariste de Thatcher et de Volcker. Pour ces pays endettés\nenvers les pays industrialisés, ces marchés étaient primordiaux pour le\nremboursement de leur dette."
    },
    {
      "progress": 0.0,
      "text": "Au début des années quatre-vingt, les investissements dans les infrastructures d'État financées à long terme, chemins de fer, autoroutes,\nponts, usines d'épuration d'eau et de production d'électricité, furent\ndévastés par cette offensive politique thatchéro-volckerienne."
    },
    {
      "progress": 0.0,
      "text": "En août 1953, la CIA, avec l’opération AJAX, coopéra pleinement\n\navec les Britanniques du SIS au renversement de Mohamed Mossadegh.\n\nLe jeune Reza Shah Pahlavi fut soutenu par l’opposition anglo-américaine\n\nà Mossadegh. Le shah revint et les sanctions économiques furent suspen-dues: les intérêts pétroliers anglo-américains avaient prévalu et montré ce\n\nqu’ils étaient prêts à faire à quiconque essaierait de mettre en question leur\n\nsuprématie. Ironiquement, ce sont ces mêmes intérêts anglo-américains\n\nqui démirent le shah quelque 25 ans plus tard7."
    },
    {
      "progress": 0.0,
      "text": "\n Les prescriptions du FMI, autrement dit la médecine des «exigences»,\nétaient invariablement les mêmes. Le pays débiteur qui en était la victime\nétait averti que s'il voulait à nouveau pouvoir disposer du premier centime\nde prêt de la part d'une banque étrangère, il devait gratter les importations\njusqu'à l'os, sabrer sauvagement le budget national, d'où une réduction\ndes subventions à l'alimentation et aux autres besoins de base. Il devait aussi\ndévaluer sa monnaie nationale afin de rendre ses exportations «attractives»\npour les pays industrialisés, renchérissant ainsi les biens d'importation des\npays développés à un niveau inabordable. Tout cela, soutenait-on, devait\npermettre de disposer de devises fortes pour rembourser la dette."
    },
    {
      "progress": 0.0,
      "text": "Les banques privées américaines et européennes se ruèrent pour prêter\n\nà ces pays, selon la stratégie de Bilderberg du «recyclage des pétrodollars», mais seulement pour «équilibrer» des comptes qui avaient été\n\ncomplètement déséquilibrés par le choc pétrolier anglo-américain et non\n\npour financer la création d'infrastructures de production ou le développement technologique dont ils avaient tant besoin. Ces prêts privés en\n\npétrodollars venaient des banques britanniques et américaines basées à\n\nLondres et opérant sur le marché des eurodollars. Les revenus pétroliers de\n\nl'OPEP étaient payés en dollars à l'Arabie Saoudite, au Koweït et aux\n\nautres pays producteurs de pétrole et ces dollars étaient ensuite «canalisés» vers les banques londoniennes offshore opérant sur le marché des\n\neurodollars, pour être à nouveau prêtés aux victimes de la crise."
    },
    {
      "progress": 0.0,
      "text": "Une conséquence rarement notée de cette extraordinaire mainmise sur\n\nle marché mondial de l’énergie par les grandes compagnies pétrolières\n\naméricaines à la suite de la seconde guerre mondiale fut l’essor parallèle\n\nde la domination internationale des groupes bancaires liés au pétrole."
    },
    {
      "progress": 0.0,
      "text": "\n Le général Zia inversa le cours de la politique étrangère d'indépendance nationale en adoptant rapidement les vues de Washington qui\nrépondit en envoyant une abondante assistance militaire."
    },
    {
      "progress": 0.0,
      "text": "En janvier 1915, quatre mois après le début de la guerre, le gouvernement britannique choisissait la banque privée new-yorkaise J. P. Morgan\n\n& Co. comme agent acheteur exclusif de toutes les fournitures de guerre\n\naux États-Unis."
    },
    {
      "progress": 0.0,
      "text": "L’un des secrets les mieux gardés de la guerre de 1914-1918 fut qu’au\n\ndébut d’août 1914, quand la Grande-Bretagne déclara la guerre au Reich\n\nallemand, le Trésor et les finances de l’Empire britannique étaient en\n\nfaillite."
    },
    {
      "progress": 0.0,
      "text": "Ils procédèrent à l'imposition de ce qu'un observateur extérieur qualifia de «socialisme des banquiers», par lequel les banques privées mutualisèrent les\nrisques en les transférant sur la dette publique de la majorité des contribuables, tandis qu'ils privatisaient tous les gains pour eux-mêmes."
    },
    {
      "progress": 0.0,
      "text": "contrefaits conçus pour\n\nembarrasser le gouvernement iranien, prétendant que le ministre des Affaires\n\nétrangères Esfandiari avait approuvé des concessions humiliantes face au\n\nministre britannique des Affaires étrangères Ernest Bevin pour amender la\n\nconstitution iranienne. "
    },
    {
      "progress": 0.0,
      "text": "En 1948, à la suite d’une lutte d’une intensité telle que l’affaire fut\n\ndébattue jusque devant la nouvelle Cour des Nations unies, l’Iran avait\n\nfinalement réussi à imposer le retrait des troupes étrangères de son sol.\n\nMais le pays et son économie restaient sous le contrôle de fait du gouvernement britannique par le truchement de l’Anglo-Iranian Oil Company.\n"
    },
    {
      "progress": 0.0,
      "text": "Bretton Woods\n\ncréa ce qui fut appelé le système d’équivalent-or, dans lequel la monnaie de\n\nchaque État membre était indexée sur le dollar américain, celuici étant luimême indexé à l’or au taux officiel de 35 dollars l’once d’or fin, taux fixé par\n\nle président Roosevelt au creux de la grande dépression d’avant-guerre."
    },
    {
      "progress": 0.0,
      "text": "Personne ne semblait se soucier du fait que vers 1985, après cinq courtes années, les États-Unis\nétaient passés de l'état de plus grand créditeur du monde à celui de nation\nendettée pour la première fois depuis 1914. "
    },
    {
      "progress": 0.0,
      "text": ". À l'instar de l'Iran, un Mexique moderne et indépendant\nétait considéré par certains puissants intérêts anglo-américains comme\nintolérable. La décision fut prise d'intervenir pour saboter les ambitions\nindustrielles du Mexique en lui imposant des taux exorbitants sur le remboursement de sa dette extérieure."
    },
    {
      "progress": 0.0,
      "text": "En suivant la logique d’équilibre des forces, les intérêts britanniques imposaient de faire évoluer la stratégie des alliances «pro-ottomane et\n\nanti-russe» du XIXe  siècle vers une stratégie d’alliances «pro-russe et\n\nanti-allemande». Ce changement était déjà évident dès la fin des années\n\n1890, alors que l’alliance naissante entre la France de Gabriel Hanotaux\n\net la Russie de Sergueï Witte avec une Allemagne en plein essor semblait\n\nimminente."
    },
    {
      "progress": 0.0,
      "text": ", ce furent\n\nces mêmes puissantes personnalités et institutions, J. P. Morgan & Co.,\n\nMontagu Norman et la Réserve fédérale de New York qui organisèrent\n\nvéritablement le contrôle économique de la plupart des pays continentaux\n\nd’Europe, au prétexte d’établir des politiques nationales «solvables», préfigurant ainsi informellement le rôle du Fonds monétaire international\n\n(FMI) des années quatre-vingt."
    },
    {
      "progress": 0.0,
      "text": "\n Le système de Bretton Woods fut établi sur «trois piliers»: le Fonds\n\nmonétaire international, dont les contributions des pays membres\n\ndevaient constituer une réserve disponible en cas de crise majeure des\n\npaiements; la Banque mondiale, qui pouvait accorder des prêts aux gouvernements membres pour de grands projets publics; l’Accord général sur\n\nles tarifs douaniers et le commerce (General Agreement on Tariffs and\n\nTrade, GATT), prévu pour créer et gérer un programme de mise en œuvre\n\ndu «libre-échange»."
    },
    {
      "progress": 0.0,
      "text": "Au contraire de la Grande-Bretagne qui avait pu financer ses coûts\n\nde guerre par le recours à des sources étrangères, principalement J. P. Morgan & Co. de New York, l’Allemagne n’avait pu accéder à ces\n\ngrands marchés de crédit."
    },
    {
      "progress": 0.0,
      "text": "Quand, à la suite du choc pétrolier iranien du début de l'année 1979,\nle coût moyen des importations pétrolières cotées en dollars eut augmenté\nde 140 %, les pays en voie de développement réalisèrent qu'en termes de\nmonnaie locale, le dollar lui-même grimpait comme une fusée du fait des\ntaux d'intérêts américains élevés que la politique de Volcker avait favorisés. Non seulement les pays en voie de développement qui se débattaient\nne pouvaient qu'à peine gérer leurs emprunts pour financer les déficits\npétroliers accumulés depuis la crise du pétrole de 1974, mais, vers 1980,\nils se trouvèrent confrontés à un élément complètement nouveau: des\ntaux d'intérêts flottants sur leurs emprunts en eurodollars."
    },
    {
      "progress": 0.0,
      "text": "un fil rouge court à travers l’Histoire,\n\ntrempé de sang et de pétrole. "
    },
    {
      "progress": 0.0,
      "text": "Désormais, l’Anglo-Iranian étant nationalisée par l’Iran, le gouvernement britannique non seulement intervint dans\n\nles négociations entre l’Iran et la compagnie, mais soutint également ses\n\nexigences en envoyant des unités de la marine royale britannique dans les\n\neaux iraniennes, menaçant d’occuper Abadan avec des troupes parachutées au prétexte évident de protéger les intérêts britanniques."
    },
    {
      "progress": 0.0,
      "text": "Le 27 octobre 1962, un mois après que l’usine de pipeline de la Finsider eut commencé de rouler l’acier pour les pipelines soviétiques, l’avion\n\nprivé de Mattei, après avoir décollé de Sicile pour Milan, s’écrasa, tuant les\n\ntrois passagers à bord, dans des circonstances obscures sur lesquelles planent aujourd’hui encore des accusations de sabotage."
    },
    {
      "progress": 0.0,
      "text": "Avec l’aide d’éléments royalistes des forces armées iraniennes, les services secrets britanniques et américains firent arrêter Mossadegh, son\n\ninfluence ayant été sévèrement amoindrie par deux années de guerre économique acharnée menée par les Anglo-américains, combinée avec une\n\nsubversion des principaux soutiens du gouvernement."
    },
    {
      "progress": 0.0,
      "text": "Morgan luimême fut plus tard inculpé à l’occasion d’une enquête du Sénat américain\n\npour avoir réalisé des profits excessifs et avoir redirigé des achats vers des\n\nfirmes dans lesquelles ses associés avaient des intérêts."
    },
    {
      "progress": 0.0,
      "text": "Pendant plus de deux décennies, la question de la construction d’une\n\nliaison ferroviaire moderne reliant l’Europe continentale à Bagdad fut un\n\npoint de friction au cœur des relations anglo-allemandes."
    },
    {
      "progress": 0.0,
      "text": "Sur fond de slogans exhortant à une nouvelle ère d’«anti-impérialisme», la Grande-Bretagne mit en œuvre une méthode beaucoup plus sophistiquée et bien\n\nplus efficace pour maintenir sa domination mondiale, connue sous le nom\n\nd’«empire informel». Tout en maintenant ses possessions impériales en\n\nInde et en Extrême-Orient, des quantités prodigieuses de capitaux affluèrent en Argentine, au Brésil et aux États-Unis, créant ainsi des liens de\n\ndépendance financière plus efficaces par bien des aspects que des titres formels de colonisation."
    },
    {
      "progress": 0.0,
      "text": "\n Vers la fin des années 1890, la Grande-Bretagne était la première puissance mondiale, tant aux plans politique que militaire et économique."
    },
    {
      "progress": 0.0,
      "text": "Quand Carranza prit des dispositions pour défendre les intérêts économiques nationaux du Mexique plutôt que ceux des compagnies pétrolières\n\naméricaines, il devint l’objet d’une intense campagne au cours de laquelle la\n\nStandard Oil finança contre lui le bandit de grand chemin Pancho Villa."
    },
    {
      "progress": 0.0,
      "text": "Dans les années cinquante, le prix du pétrole semblait être devenu une\n\npréoccupation quotidienne. Les compagnies récoltèrent des profits\n\nénormes de leurs ventes de pétrole sur le nouveau marché mondial.\n\nL’auto mobile et les industries associées étaient devenues le segment le plus\n\nimportant de l’économie américaine. Les impôts américains déversèrent\n\ndes milliards de dollars dans la construction d’une infrastructure moderne\n\nd’autoroutes sous l’égide du National Defense Highway Act d’Eisenhower,\n\nau prétexte que des autoroutes rapides étaient indispensables pour fuir les\n\nvilles en cas d’attaque nucléaire soviétique. L’infrastructure ferroviaire fut\n\nnégligée au bénéfice du transport routier, énergétiquement beaucoup\n\nmoins efficace."
    },
    {
      "progress": 0.0,
      "text": "En 1918, Alves réussit à faire reconnaître le gouvernement de Tinoco\n\nau Costa Rica, en échange de quoi la BCO fut récompensée par une\n\nconcession pétrolière couvrant presque trois millions d’hectares, en bordure de la frontière du Panama et de la zone stratégique du canal. Les\n\nÉtats-Unis avaient refusé de reconnaître Tinoco, et quand une «dispute»\n\néclata, en 1921, entre le Panama et le Costa Rica, l’Amérique intervint\n\npour soutenir un nouveau régime costaricain dans ce qui fut appelé par\n\ndérision la «guerre des guignols». Le nouveau gouvernement déclara\n\n«nulles et non avenues» les concessions du précédent régime, spécialement celles attribuées à la BCO. Les compagnies américaines bénéfi -cièrent immédiatement de nouvelles et vastes concessions, tandis que les\n\nbanques de New York accordaient au nouveau régime du Costa Rica des\n\nprêts généreux."
    },
    {
      "progress": 0.0,
      "text": "L’ambassadeur de Russie en France, Iswolski,\n\nles rejoignit, et les trois puissances signèrent une alliance secrète dirigée\n\ncontre l’Allemagne et les puissances austro-hongroises. Grey s’abstint délibérément de prévenir l’Allemagne de cette alliance secrète par laquelle\n\nl’Angleterre s’engageait à participer à toute guerre impliquant n’importe\n\nlequel des partenaires du réseau d’alliances qu’elle avait patiemment tissé\n\ncontre l’Allemagne"
    },
    {
      "progress": 0.0,
      "text": "Avec ce concept d'une petite élite spécialisée gouvernant au nom\nde la masse, le libéralisme anglo-américain moderne offrait une curieuse\nanalogie avec la conception léniniste d'une «avant garde du parti» imposant une «dictature du prolétariat» au nom d'une future société idéale."
    },
    {
      "progress": 0.0,
      "text": "En septembre 1958, l’une des premières mesures du nouveau président\n\nde Gaulle fut d’inviter le chancelier allemand Konrad Adenauer dans sa\n\nrésidence privée de Colombey-les-Deux-Églises. Ce fut le commencement\n\nnon seulement d’un rapprochement politique entre deux nations qui\n\navaient été ennemies, mais aussi d’une amitié personnelle intime entre ces\n\ndeux hommes d’État expérimentés."
    },
    {
      "progress": 0.0,
      "text": "Pendant les quinze années qui précédèrent la guerre de 1914, et grâce à l’établissement d’une politique nationale d’infrastructure encourageant le transport au moindre coût,\n\nl’Allemagne étendit sa présence maritime à travers le monde, y compris sur\n\nles marchés habituellement monopolisés par les Britanniques, dans leurs\n\ncolonies et autres sphères d’influences traditionnelles, en Égypte, voire\n\nmême en Amérique du Nord et du Sud."
    },
    {
      "progress": 0.0,
      "text": ". Le soutien à la Turquie qui\n\ncontrôlait l’accès aux mers chaudes par les Dardanelles, vital pour la\n\nRussie, avait été jusque-là une part essentielle de la géopolitique britannique."
    },
    {
      "progress": 0.0,
      "text": "Ce ne fut pas un hasard si, à la suite de la récession consécutive au\n\nchoc pétrolier de 1974-1975, une part grandissante de la population\n\nd'Europe de l'Ouest, spécialement en Allemagne, commença de parler,\n\npour la première fois depuis la guerre, des «limites de la croissance», des\n\nmenaces sur l'environnement, et entreprit de mettre en question la croissance industrielle et le progrès technologique. Très peu furent ceux qui\n\nréalisèrent à quel point leurs nouvelles «convictions» avaient été soigneusement manipulées au plus haut niveau par un réseau organisé par les\n\nmilieux financiers et industriels anglo-américains à l'origine de la stratégie\n\npétrolière de Saltsjöbaden."
    },
    {
      "progress": 0.0,
      "text": " l’Empire britannique et la Grande-Bretagne\n\nelle-même étaient pratiquement en faillite au début de la guerre de 1914"
    },
    {
      "progress": 0.0,
      "text": "À la fin de l’automne 1931, un homme arriva d’Allemagne à la gare de\n\nchemin de fer de Liverpool Street à Londres. Son nom était Alfred Rosen-berg. Rosenberg rencontra Geoffrey Dawson, le rédacteur en chef du\n\nTimes, l’influent journal londonien. The Times donna au mouvement\n\nd’Hitler une popularité internationale inestimable dans les mois qui suivi-rent. Mais la rencontre la plus importante que Rosenberg fit pendant sa\n\npremière visite en Angleterre en 1931 fut Montagu Norman, gouverneur de la Banque d’Angleterre, la figure la plus influente de cette époque dans\n\nle monde de la finance. D’après son secrétaire personnel, Norman détestait trois choses: les Français, les catholiques et les Juifs. Norman et Rosen-berg, qui avaient été présentés par Hjalmar Schacht, sympathi sèrent."
    },
    {
      "progress": 0.0,
      "text": "\n Le Transvaal était le lieu de la plus grande découverte aurifère depuis la\n\nruée vers l’or californienne de 1848 et sa conquête était essentielle pour\n\nassurer la pérennité de l’étalon-or britannique et de Londres en tant que\n\ncapitale du système financier mondial."
    },
    {
      "progress": 0.0,
      "text": "Les guerres du pétrole, qui avaient ébranlé le monde pendant plus d’une\n\ndécennie, s’étaient finalement conclues par un «cessez-le-feu» à l’origine\n\nde la création d’un cartel pétrolier anglo-américain d’une puissance\n\nénorme, surnommé plus tard les «sept sœurs» (Seven Sisters). En 1927,\n\nun traité de paix fut signé à Achnacarry, dans le château écossais de sir\n\nHenry Deterding, de la Shell. John Cadman, représentant de l’Anglo-Per-sian Oil Co. dépendante du gouvernement britannique (British Petroleum) et Walter Teagle, président de la Standard Oil de Rockefeller du\n\nNew Jersey (Exxon), se réunirent sous prétexte d’une partie de chasse à la\n\ngelinotte pour établir le cartel économique le plus puissant de l’histoire\n\nmoderne. En fait, les sept sœurs n’en faisaient qu’une."
    },
    {
      "progress": 0.0,
      "text": "Même dans le cas d’une simple coïncidence, il\n\nfaut néanmoins noter que le directeur de la CIA, John Mac Cone, détenait à l’époque de la mort suspecte de Mattei plus d’un million de dollars\n\nd’actions de la Standard Oil de Californie"
    },
    {
      "progress": 0.0,
      "text": "\n L'influence écrasante de l'establishment financier dans les médias américains et britanniques est notamment repérable durant cette période par\n\nle fait qu'aucune protestation publique ne se manifesta quant au probable conflit d'intérêts qu'impliquait l'offensive antinucléaire bien pour-vue en fonds de Robert O. Anderson, et le fait que sa compagnie,\n\nAtlantic Richfield, fût l'une des principales bénéficiaires de l'augmentation de 1974 du prix du pétrole."
    },
    {
      "progress": 0.0,
      "text": "Sous la menace de perdre l'accès à de futurs prêts de la Banque mondiale\n\net des banques privées des nations industrielles, ces pays moins développés\n\nfurent forcés de détourner de précieux fonds de leur développement industriel et agricole pour simplement réduire le déficit de leur balance des paiements."
    },
    {
      "progress": 0.0,
      "text": "le 22 juin 1922, un peu plus de deux mois après que le\n\ntraité de Rapallo eut été rendu public, Walter Rathenau était assassiné"
    },
    {
      "progress": 0.0,
      "text": "Sous l’égide du plan Dawes, l’Allemagne paya des réparations pendant\n\ncinq ans, jusqu’en 1929. À la fin de 1929, elle devait plus qu’au début. Il\n\ns’agissait en fait d’un pillage organisé par la communauté bancaire internationale dominée par Londres et New York. Des garanties sur des fonds\n\nallemands spéciaux furent apportées au paiement des réparations; un\n\nagent général des réparations, S. Parker Gilbert, partenaire de J. P. Morgan\n\net protégé de Owen D. Young, fut installé à Berlin pour collecter ces remboursements pour les banques anglo-américaines, si bien que les banques\n\nde Londres et New York purent prêter à l’Allemagne avec un risque\n\nproche de zéro, et à des conditions extrêmement profitables, un argent\n\nrecyclé par les banques émettrices sous forme de réparations avec commissions et intérêts. C’était une vaste pyramide internationale de crédit au\n\nsommet de laquelle se tenaient les banques de Londres et, derrière, celles\n\nde New York."
    },
    {
      "progress": 0.0,
      "text": "En 1919, à la fin des délibérations de la Conférence de Versailles, la\n\nGrande-Bretagne apparaissait à beaucoup d’égards comme la puissance\n\nmondialement dominante. Pourtant, un petit détail resté à l’arrière-plan\n\navait été négligé entre 1914 et 1918, pendant le déroulement des hostilités: cette guerre avait été gagnée avec de l’argent emprunté."
    },
    {
      "progress": 0.0,
      "text": "l’Allemagne\n\ndécida que la France devait être défaite la première, calculant avec justesse que la Russie tarderait à mobiliser. Le 3 août 1914 l’Allemagne\n\ndéclarait la guerre à la France et les troupes allemandes y pénétraient par\n\nla Belgique"
    },
    {
      "progress": 0.0,
      "text": "pour la grande majorité des dirigeants américains, la préservation de l’Empire américain passe par le contrôle du pétrole"
    },
    {
      "progress": 0.0,
      "text": "\n La déclaration finale de la rencontre de Colombo, datée du 20 août\n1976, ne ressemblait à aucun document publié antérieurement par les\nchefs d'État des PVD. Initialement, le thème central publiquement\nannoncé des quatre-vingt-cinq pays non-alignés était «Un développement\néconomique loyal et équitable». "
    },
    {
      "progress": 0.0,
      "text": "\n Le chemin de fer est comme un levain qui crée une fermentation culturelle dans la population."
    },
    {
      "progress": 0.0,
      "text": "Le miracle industriel allemand date de cette période d’après 1870. Le\n\nfameux redressement de l’industrie allemande de la fin des années cinquante qui succéda aux dévastations de la guerre et à la dépression mondiale est dû, dans une très large mesure, au rétablissement de ces\n\nfondations posées entre 1880 et 1914"
    },
    {
      "progress": 0.0,
      "text": "Henry Kissinger formulait ainsi ce rôle suprême: «Contrôlez l’énergie et vous\n\ncontrôlerez les nations». "
    },
    {
      "progress": 0.0,
      "text": "après la guerre les Alliés victorieux avaient systématiquement dépouillé l’Allemagne de ses ressources. Toutes ses colonies riches en\n\nressources naturelles, particulièrement le Tanganyika et l’Afrique du SudOuest, avaient été accaparées par la Grande-Bretagne. Les marchés pro-metteurs de l’Empire ottoman, ouverts grâce à l’extension du chemin de\n\nfer vers Bagdad, avaient disparu. Et l’Allemagne elle-même avait perdu la\n\nprincipale ressource en minerai de fer de son industrie métallurgique:\n\nl’Alsace, la Lorraine et l’Est, y compris la Silésie riche en ressources agricoles\n\net minérales."
    },
    {
      "progress": 0.0,
      "text": "La reconstruction de l’Allemagne après 1923, sous la férule de Montagu Norman et\n\nde son collègue de la Reichsbank, Hjalmar Schacht, était entièrement\n\npilotée par les prêts anglo-américains. On ne craignait plus d’initiatives\n\ncomme l’accord de Rapallo, propre à bousculer l’ordre anglo-américain –\n\njusqu’à ce que la pyramide s’effondre en 1929, quand le crédit qui affluait\n\ndes banques de New York et de Londres vers l’Allemagne pour reconduire\n\nla dette s’interrompit brusquement"
    },
    {
      "progress": 0.0,
      "text": "au début des années\n\nsoixante, les voix les plus influentes de la politique américaine avaient\n\noublié la leçon de Ford. Elles étaient trop obsédées par l’appât du gain\n\nrapide qui consiste à acheter bon marché pour vendre cher. À la fin des\n\nannées cinquante, l’establishment américain avait abandonné toute ambition d’investissement en faveur de la reconstruction des villes américaines,\n\nd’une politique d’éducation de sa classe laborieuse, ou de modernisation\n\nde l’outil industriel et d’amélioration de l’économie nationale."
    },
    {
      "progress": 0.0,
      "text": "\n Le 6 octobre 1973, l'Égypte et la Syrie envahirent Israël. Ce fut le\n\ndébut de la «guerre de Kippour». Contrairement à l'impression répan-due, la guerre de Kippour n'était pas simplement le résultat d'un défaut\n\nd'évaluation, d'une bourde ou de la simple décision arabe de lancer une\n\nattaque militaire contre l'État d'Israël. Toute la constellation des événements qui présidèrent au déclenchement de la guerre d'Octobre fut secrètement orchestrée par Washington et Londres en utilisant le puissant\n\nréseau diplomatique secret mis en place par Henry Kissinger, alors\n\nconseiller à la Sécurité nationale de Nixon. Kissinger contrôla effectivement la réponse politique d'Israël à travers ses relations intimes avec\n\nSimcha Dinitz, l'ambassadeur d'Israël à Washington. De plus, Kissinger\n\ncultivait des liens avec les parties syrienne et égyptienne. Sa méthode\n\nconsistait simplement à induire chaque partie en erreur quant aux intentions de l'autre, s'assurant ainsi du déclenchement de la guerre et de l'embargo arabe sur le pétrole qui en résulterait."
    },
    {
      "progress": 0.0,
      "text": "Si le choc pétrolier avait\n\nvraiment été une question vitale pour les Anglo-Américains, Washington\n\naurait trouvé les moyens de restaurer un prix raisonnable du pétrole. Mais\n\nils voulaient un prix élevé et de plus, que ce fût l'OPEP qui en supportât\n\nl'opprobre"
    },
    {
      "progress": 0.0,
      "text": "L’embargo économique était la\n\nréponse de Londres et de Washington aux démonstrations de souveraineté\n\nnationale des pays en voie de développement qui interféraient avec leurs\n\nintérêts vitaux."
    },
    {
      "progress": 0.0,
      "text": "Pendant les années soixante, le cœur de l’économie américaine fut progressivement transformé en une sorte d’économie militaire, au service de\n\nlaquelle la guerre froide contre le danger communiste fut utilisée pour justifier les dizaines de milliards de dollars dépensés. Ces dépenses militaires\n\ndevinrent le soutien des intérêts économiques new-yorkais de la finance et\n\ndu pétrole, écho de l’Empire britannique du XIXe  siècle costumé dans les\n\natours de l’anticommunisme du XXe  siècle."
    },
    {
      "progress": 0.0,
      "text": "John Foster Dulles, avocat à Wall Street et principal auteur\n\nde l’article 231 du traité de Versailles, la fameuse clause infâme sur la\n\n«culpabilité de guerre» allemande,"
    },
    {
      "progress": 0.0,
      "text": "\n En 1912, les États-Unis produisaient plus de 63 % du pétrole mondial, Bakou en Russie en produisait 19 % et le Mexique environ 5 %. "
    },
    {
      "progress": 0.0,
      "text": "La crise bancaire et l’effondrement industriel qui suivirent créèrent, dans l’Allemagne de l’hiver\n\n1931-32, ce qui fut appelé «l’hiver le plus dur depuis cent ans». C’était le terreau propice sur lequel une alternative politique radicale pouvait se\n\ndévelopper."
    },
    {
      "progress": 0.0,
      "text": "En 1914, au début de la guerre, l’armée française disposait\n\nde 110 camions, 60 tracteurs et 132 avions. En 1918, quatre ans plus\n\ntard, les chiffres étaient de 70 000 camions, 12 000 avions,"
    },
    {
      "progress": 0.0,
      "text": "Quatre ans de manœuvres ouvertes ou secrètes pour essayer de renverser le nouveau régime bolchevique n’ayant donné aucun résultat, les Britanniques changèrent de tactique vers 1922. Ils étaient désormais\n\ndéterminés à intervenir dans le Nouveau Programme Économique (NEP)\n\nmis en œuvre par le régime léniniste de Moscou et qui, vu de Londres,\n\nsemblait plus réaliste, bien que manifestement désespéré."
    },
    {
      "progress": 0.0,
      "text": "Comme frappées par un mauvais sort, les années 1974-1975 virent le\n\ndébut de la pire sécheresse depuis des décennies coïncider avec l'impact du\n\nchoc pétrolier, pénalisant sévèrement les récoltes, surtout en Afrique, en\n\nAmérique du Sud et dans certaines parties de l'Asie."
    },
    {
      "progress": 0.0,
      "text": "La cause fondamentale de la récession n’était pas difficile à prévoir,\n\nl’eût-on sérieusement cherchée. Les vastes investissements industriels en\n\néquipements et usines, qui, dans les années trente, avaient sorti l’économie américaine de la dépression, dataient de l’effort de guerre industriel\n\nde 1939-1943, presque deux décennies auparavant. En 1957, les usines et\n\nles équipements, aussi bien que les qualifications de la force de travail,\n\ndevaient être remis à niveau. Pour continuer de dominer l’économie mondiale, les États-Unis de la fin des années cinquante devaient investir massivement dans la force de travail productive, le système éducatif et la\n\ntechnologie. Mais malheureusement pour les États-Unis et pour le reste\n\ndu monde, les milieux dirigeants de la politique américains firent en sorte\n\nque ce soit précisément les mauvais choix politiques qui soient faits à\n\nWashington dans le sillage de la récession de 1957."
    },
    {
      "progress": 0.0,
      "text": "l’Entente cordiale fut conclue et formalisée par un\n\naccord secret entre la France et la Grande-Bretagne signé par Delcassé en\n\n1904. La menace économique allemande était le lien qui unissait les deux\n\nalliés improbables."
    },
    {
      "progress": 0.0,
      "text": "\n En mai 1973, alors que la dramatique chute du dollar restait encore\n\nvivace dans les esprits, un groupe de quatre-vingt-quatre des plus\n\ninfluentes personnalités de la finance et de la politique se réunit en Suède,\n\nà Saltsjöbaden, station retirée sur une île appartenant à la famille du banquier suédois Wallenberg. Cette réunion du groupe dit «de Bilderberg»,\n\nfondé par le prince Bernhard, écouta Walter Lévy, un participant \naméricain, exposer le «scénario» d'une hausse imminente de 400 % \ndes reve-nus pétroliers de l'OPEP."
    },
    {
      "progress": 0.0,
      "text": "Clemenceau écrivit à Wilson:\n\n\n\n La sécurité des Alliés est en jeu. Si les Alliés ne veulent pas perdre la\n\nguerre, il faut que la France combattante, à l’heure du suprême choc germanique, possède l’essence, aussi nécessaire que le sang dans les batailles\n\nde demain."
    },
    {
      "progress": 0.0,
      "text": "L’occupation française entraîna l’arrêt brutal et complet de l’activité\n\nindustrielle allemande. Ce n’est qu’à la fin de 1923 que les troupes et les\n\ningénieurs français purent amener la production de la Ruhr au tiers de son\n\nniveau de 1922."
    },
    {
      "progress": 0.0,
      "text": "Après la seconde guerre mondiale, la cotation du prix du pétrole en\n\ndollar avait été une pratique initialement encouragée par les majors américaines du pétrole et par leurs banquiers de New York. Mais à la suite de la\n\ncrise du pétrole du début de 1974, les principaux gouvernements d'Europe ouvrirent de sérieuses négociations avec les fournisseurs de pétrole\n\narabes en vue d'accords d'achat à long terme pour couvrir leurs besoins en\n\nimportation et les payer en devises nationales, une manœuvre délicate qui\n\naurait considérablement réduit l'impact du choc pétrolier. Mais c'est alors\n\nqu'un événement extraordinaire se produisit au sein de l'OPEP. L'Allemagne ou la France eussent rencontré beaucoup moins de difficultés à\n\ngarantir leurs importations de pétrole en deutschemarks ou en francs\n\nplutôt qu'en dollars. Cela rend encore plus étrange la décision prise par les\n\nministres de l'OPEP, lors de leur rencontre de 1975, de n'accepter aucune\n\nautre devise que le dollar américain pour paiement de leurs fournitures de\n\npétrole, pas même la livre britannique."
    },
    {
      "progress": 0.0,
      "text": "Le pétrole est surabondant.\n\nMais ses réserves sont contrôlées par des compagnies nationales dans des\n\npays tels que l’Iraq, le Soudan ou le Venezuela, au lieu de dépendre des\n\nquatre grandes compagnies anglo-américaines: Exxon Mobil, Chevron\n\nTexaco, British Petroleum et Royal Dutch Shell."
    },
    {
      "progress": 0.0,
      "text": "c’est\n\nle prince de Galles, couronné Edouard VIII début 1936, qui fut vraisemblablement le plus puissant soutien britannique du mouvement hitlérien,\n\njusqu’à son abdication à la fin de la même année."
    },
    {
      "progress": 0.0,
      "text": "Les «droits de l'homme»\nde Carter devaient devenir la matraque justifiant des interventions américaines sans précédent dans les affaires intérieures des nations cibles du\nTiers Monde"
    },
    {
      "progress": 0.0,
      "text": "les trois piliers de la\n\npuissance impériale britannique – le contrôle des voies maritimes, le\n\ncontrôle de la banque et de la finance mondiale et le contrôle des matières\n\npremières stratégiques – étaient menacés par l’émergence d’un nouvel establishment «internationaliste» américain."
    },
    {
      "progress": 0.0,
      "text": "La Grande-Bretagne prit soin de se distancier publiquement de la politique revancharde française du régime de Poincaré, mais, en sous-main,\n\nelle avait négocié une contrepartie. La France devait céder aux Britanniques les territoires qui lui avaient été octroyés par l’accord secret Sykes-Picot dans le Mossoul (Iraq) en 1916. En échange (cf. chapitre 3), la\n\nGrande-Bretagne garantissait secrètement à la France qu’elle n’irait pas audelà d’une protestation verbale dans le cas où celle-ci déciderait d’occuper\n\nmilitairement la Ruhr."
    },
    {
      "progress": 0.0,
      "text": "\n En novembre 1917, à la suite de la prise de pouvoir par les Bolcheviks,\n\nles communistes léninistes découvrirent dans les archives du ministère tsariste des Affaires étrangères un document secret qu’ils rendirent rapidement public. C’était le plan des grandes puissances visant au dépeçage de\n\nl’ensemble de l’Empire ottoman après la guerre, pour en distribuer les\n\nmeilleurs parts aux vainqueurs. Le détail en avait été mis au point en\n\nfévrier 1916 et secrètement ratifié par les gouvernements respectifs en\n\nmai 1916."
    },
    {
      "progress": 0.0,
      "text": "En 1931, Norman et la Banque d’Angleterre avaient catégoriquement\n\nrefusé d’avancer le moindre pfennig à l’Allemagne, précipitant la crise\n\nbancaire et le chômage. Dans cette situation désespérée, la prise de pouvoir d’Hitler devint une option envisageable pour les milieux dirigeants de\n\nl’Allemagne. Dès le début de 1933, quand Hitler eut consolidé son pouvoir, le même Montagu Norman manœuvra avec une hâte indécente pour\n\nrécompenser le gouvernement hitlérien en lui accordant le crédit de la\n\nBanque d’Angleterre dont il avait besoin"
    },
    {
      "progress": 0.0,
      "text": "Vers 1902, il était de notoriété publique que le Koweït et la Mésopotamie, aujourd’hui l’Iraq, alors dépendants de l’Empire ottoman, recelaient\n\ndes réserves de pétrole. Seules les quantités et leur accessibilité restaient un\n\nsujet de spéculations. Cette découverte entraîna de gigantesques batailles\n\npour le contrôle économique et militaire du monde. Elles n’ont jamais\n\ncessé depuis."
    },
    {
      "progress": 0.0,
      "text": "La Royal Dutch Shell avait\n\ndes contacts étroits avec le NSDAP et lui apportait son soutien."
    },
    {
      "progress": 0.0,
      "text": "«L’Allemagne, comme n’importe quelle puissance, était libre de dévelop-per pour elle-même une flotte aussi puissante qu’elle le souhaitait. La\n\nquestion posée était celle de son opportunité dans le cadre d’une évaluation réaliste. Une flotte de guerre allemande ne pouvait être qu’un défi à la\n\nGrande-Bretagne, la puissance maritime dominante»"
    },
    {
      "progress": 0.0,
      "text": "En juin 1967, le gouvernement du général de Gaulle\n\nannonça que la France se retirait du «pool de l’or» institué par l’Amérique. "
    },
    {
      "progress": 0.0,
      "text": "L'or en lui-même a peu de valeur intrinsèque. Il a quelque utilité\n\nindustrielle. Mais historiquement et du fait même de sa rareté, il a servi\n\nd'étalon de la valeur des termes de l'échange, et donc du niveau des\n\ndevises des différentes nations. Quand Nixon décida de cesser d'honorer\n\nla convertibilité de la devise américaine en or, il ouvrit les vannes du grand\n\ncasino de la spéculation avec une ampleur jamais vue dans l'histoire. Au\n\nlieu d'évaluer les affaires économiques sur le long terme selon des standards d'échange stables, après août 1971 le commerce mondial ne fit plus\n\nque jouer sur la fluctuation du niveau des diverses devises."
    },
    {
      "progress": 0.0,
      "text": "Une importante conséquence de l'augmentation de\n\n400 % du prix du pétrole de l'OPEP fut que les centaines de millions de\n\ndollars investis par la British Petroleum, la Royal Dutch Shell et d'autres\n\nintérêts pétroliers anglo-américains en mer du Nord, et dont l'exploitation\n\nétait difficile, pouvaient désormais produire du pétrole avec profit."
    },
    {
      "progress": 0.0,
      "text": "\n En septembre 1951, la Grande-Bretagne avait déclaré les pleines sanctions économiques contre l’Iran, y compris un embargo contre les expéditions de pétrole iranien et un gel des avoirs iraniens dans les banques\n\nbritanniques à l’étranger."
    },
    {
      "progress": 0.0,
      "text": "Brice Lalonde, directeur\n\ndes Amis de la Terre en France et futur ministre de l'Environnement\n\nde François Mitterrand en 1989, était à l'époque le partenaire parisien de\n\nCoudert Frères, cabinet juridique allié à la famille Rockefeller."
    },
    {
      "progress": 0.0,
      "text": "Au milieu des années 1970, l'un des indices de l'efficacité de la nouvelle propagande déchaînée par l'establishment anglo-américain, était que\n\nles officiels américains pouvaient s'afficher ouvertement «malthusiens»\n\ndans des conférences de presse, ce qui leur aurait valu d'être limogés sous\n\nles quolibets une décennie auparavant."
    },
    {
      "progress": 0.67,
      "text": "À la fin de 1980, au moment de l'élection de Reagan, la dette\ntotale, privée et publique des États-Unis était de 3 873 milliards de dollars. À la fin de la décennie, elle atteignait 10 trillions de dollars, autrement dit 10 000 milliards de dollars, ce qui correspondait à une\naugmentation de plus de 6 000 milliards pendant ce court laps de temps"
    },
    {
      "progress": 0.69,
      "text": "\n Les milieux dirigeants des gouvernements Thatcher et Bush avaient\ndécidé de créer un événement qui serait, pour leurs deux pays, le prétexte\nà établir une présence militaire directe sur les goulots d'étranglement des\napprovisionnements pétroliers mondiaux et particulièrement ceux\nd'Europe occidentale."
    },
    {
      "progress": 0.69,
      "text": "Washington avait secrètement incité Saddam Hussein à envahir l'Iran en\n1980, le nourrissant d'informations qui lui promettaient un prompt\nsuccès."
    },
    {
      "progress": 0.69,
      "text": "La France\nétait le deuxième plus grand fournisseur d'armes de l'Iraq après l'URSS."
    },
    {
      "progress": 0.71,
      "text": "Selon certaines estimations\nfiables, en comptant les contributions de tous les alliés pour l'ensemble de\nl'affaire du Golfe, les États-Unis auraient réalisé un «profit» net de l'ordre\nde 19 milliards de dollars."
    },
    {
      "progress": 0.71,
      "text": ". L'Iraq s'était\nengagé en contrats pétroliers à hauteur de plus d'un milliard de dollars\nenvers la Bulgarie, la Hongrie et d'autres pays de l'Est, sommes qui devin-rent irrécupérables du fait de la guerre"
    },
    {
      "progress": 0.72,
      "text": "Entre la fin de la guerre froide et l'aube de la nouvelle guerre contre le\nterrorisme au commencement du nouveau millénaire, la stabilité et la paix\nfurent rarement au rendez-vous."
    },
    {
      "progress": 0.72,
      "text": "Pendant la guerre froide, la domination américaine sur le monde non\ncommuniste avait été bâtie sur la perception de la menace d'une \nagression communiste soviétique et potentiellement chinoise. \nÀ la fin des années quatre-vingt, Washington savait que l'extinction de cette menace\nentraînait la fin de son pouvoir sur ses principaux alliés militaires. L'économie du Japon et de l'Asie orientale, aussi bien que celle de l'Union\neuropéenne, rivalisaient maintenant avec l'hégémonie américaine. C'est ce\ndéfi économique qui devint le centre des préoccupations de la géopolitique américaine après 1990."
    },
    {
      "progress": 0.72,
      "text": ", le modèle japonais, toléré par Washington pendant la guerre froide en tant que contrepoids géopolitique aux puissances soviétique et chinoise, était devenu un\nproblème majeur depuis la fin de celle-ci."
    },
    {
      "progress": 0.73,
      "text": "En 1988, les dix plus grandes banques du monde portaient toutes des\nnoms japonais."
    },
    {
      "progress": 0.73,
      "text": "Quand l'Union soviétique s'effondra, le Japon et la Corée du Sud furent perçus par beaucoup comme\ndes alternatives avantageuses au modèle américain du marché libre. C'était\nune menace capitale pour les plans de Washington."
    },
    {
      "progress": 0.74,
      "text": "Pendant les années quatre-vingt, les pays d'Asie orientale dont les taux\nde croissance annuelle avoisinaient 7 à 8 % disposaient d'un système élaboré de sécurité sociale, d'un système éducatif généralisé et d'une productivité du travail élevée, le tout soutenu par un État qui jouait\nsimultanément un rôle de guide et de modérateur dans un contexte général d'économie de marché: une forme asiatique de paternalisme bienveillant."
    },
    {
      "progress": 0.74,
      "text": " L'Asie devait devenir une autre province du royaume du dollar grâce au FMI."
    },
    {
      "progress": 0.74,
      "text": "\n À la fin de la première guerre mondiale, Mackinder avait énoncé:\n«Qui commande l'Europe centrale commande le cœur-de-pays; qui commande le cœur-de-pays commande l'île-monde, qui contrôle l'îlemonde commande le monde.». "
    },
    {
      "progress": 0.75,
      "text": ", la thérapie de choc du FMI était\nprévue pour créer à la périphérie de la Russie des économies faibles et\ninstables, dépendantes pour leur survie du capital occidental et des perfusions en dollars: une nouvelle forme de colonialisme."
    },
    {
      "progress": 0.75,
      "text": ". Les Russes devaient subir le\ntraitement standard du Tiers Monde, tout comme une ancienne colonie\nafricaine ou une république bananière: les exigences du FMI et le plongeon dans la pauvreté pour la population. Une mince élite était autorisée à\ndevenir fabuleusement riche en dollars, tout en étant manipulée par les\nbanquiers et les investisseurs de Wall Street"
    },
    {
      "progress": 0.75,
      "text": "En 1992, le FMI exigea, comme passage obligé vers l'économie de\nmarché, le libre flottement du rouble, ce qui entraîna dans l'année une\naugmentation des prix de 9 900 % et une chute corrélative du niveau de\nvie de 84 %"
    },
    {
      "progress": 0.76,
      "text": " l'Ukraine, qui avait été le grenier\nde l'Europe, fut forcée de mendier une aide alimentaire à l'Amérique qui\nlui fourgua ses excédents de blé, détruisant d'autant l'autosuffisance alimentaire locale"
    },
    {
      "progress": 0.76,
      "text": "Sous l'empire des privatisations contrôlées et manipulées de l'ère\nTchoubaïs, les joyaux du gaz et du pétrole russe furent offerts pour trois\nfois rien à une petite bande d'amis d'Eltsine, de Tchoubaïs et de leurs relations. En 1998, un rapport du FMI estimait que 17 compagnies russes du\npétrole et du gaz d'une valeur minimale de 17 milliards de dollars, avaient\nété vendues par Tchoubaïs pour un total de 1,4 milliards de dollars. Plus\nencore, 60 % de Gazprom, le monopole gazier de l'État qui était aussi le\nplus grand producteur de gaz du monde, fut vendu à des groupes russes\nprivés pour la somme de 20 millions de dollars."
    },
    {
      "progress": 0.76,
      "text": "Sous l'empire des privatisations contrôlées et manipulées de l'ère\nTchoubaïs, les joyaux du gaz et du pétrole russe furent offerts pour trois\nfois rien à une petite bande d'amis d'Eltsine, de Tchoubaïs et de leurs relations. En 1998, un rapport du FMI estimait que 17 compagnies russes du\npétrole et du gaz d'une valeur minimale de 17 milliards de dollars, avaient\nété vendues par Tchoubaïs pour un total de 1,4 milliards de dollars. Plus\nencore, 60 % de Gazprom, le monopole gazier de l'État qui était aussi le\nplus grand producteur de gaz du monde, fut vendu à des groupes russes\nprivés pour la somme de 20 millions de dollars. La valeur marchande en\nétait d'environ 119 milliards de dollars, soit 6 000 fois plus. "
    },
    {
      "progress": 0.77,
      "text": "que le FMI imposa la convertibilité complète du dinar et la\nlibération des taux d'intérêt tout en empêchant explicitement le gouvernement yougoslave de solliciter des crédits de sa propre Banque centrale,\nparalysant ainsi les possibilités de financement des programmes sociaux\npar le gouvernement central."
    },
    {
      "progress": 0.77,
      "text": "\n En novembre 1990, sous la pression de l'administration Bush, le\nCongrès approuva le Foreign Operations Appropriation Act. Cette nouvelle\nloi américaine prévoyait que n'importe quelle partie de \nla Yougoslavie qui ne déclarerait pas son indépendance dans les six mois de la promulgation de\nl'acte perdrait tous les soutiens américains. La loi exigeait que des élections\nséparées supervisées par le département d'État américain fussent organisées\ndans chacune des six républiques yougoslaves. Elle stipulait aussi que l'aide\ndevrait être adressée directement à chaque république et non pas au gouvernement central de Belgrade. En bref, l'administration Bush exigeait l'auto-dissolution de la Fédération yougoslave. Elle mettait délibérément le feu\npour déclencher une nouvelle série de guerres balkaniques."
    },
    {
      "progress": 0.77,
      "text": "Par le biais de groupes comme la Fondation Soros et la NED, le soutien\nfinancier de Washington fut bien souvent dirigé vers des organisations\nnationalistes extrémistes ou anciennement fascistes qui rêvaient de démembrer la Yougoslavie."
    },
    {
      "progress": 0.78,
      "text": "Plusieurs rapports sur la région, réalisés par des observateurs\nimpartiaux, confirmaient qu'au milieu des années quatre-vingt-dix, tous\nles camps de l'ex-Yougoslavie déstabilisée s'étaient rendus coupables\nd'atrocités, qu'ils fussent Bosniaques musulmans, Croates catholiques ou\nSerbes orthodoxes. Les reportages des médias contrôlés par Washington et\nl'OTAN se concentrèrent sur un côté: le président serbe Milosevic récalcitrant. Aussi longtemps qu'une enclave bien défendue au milieu des Balkans restait rétive aux «réformes» du FMI et à la présence de l'OTAN, le\nprogramme géopolitique à long terme de Washington pour le contrôle des\npipelines de la Caspienne et de l'Asie centrale restait bloqué."
    },
    {
      "progress": 0.78,
      "text": "\n L'étude de faisabilité du projet AMBO fut prise en charge par Brown\n& Root, filiale d'Halliburton dont Dick Cheney était à ce moment-là le\ndirigeant."
    },
    {
      "progress": 0.81,
      "text": "Avec une prescience aiguë, le rapport du PNAC de septembre 2000\nentreprenait d'identifier ce qui devait plus tard être immortalisé par\nGeorge W. Bush comme «l'Axe du Mal». Il identifiait trois régimes rétifs\nau Nouveau Siècle Américain: la Corée du Nord, l'Iran et l'Iraq"
    },
    {
      "progress": 0.81,
      "text": "Le terrorisme devait remplacer le communisme en tant que\nnouvelle image de «l'ennemi». "
    },
    {
      "progress": 0.81,
      "text": "Initialement, Washington avait envisagé le gouvernement des Talibans\ncomme un partenaire possible pour les affaires de pipelines. Fin 1997, les\nreprésentants des Talibans avaient été invités au Texas par Unocal pour en\nparler sérieusement, bien qu'aucun accord n'ait été conclu."
    },
    {
      "progress": 0.81,
      "text": "La construction des pipelines afghans, évaluée à plusieurs milliards de\ndollars, avait été commandée par Enron à Halliburton, la bonne vieille\nsociété de Cheney."
    },
    {
      "progress": 0.81,
      "text": "Khalilzad recommanda alors à Bush de nommer un\nautre représentant local d'Unocal, Hamid Karzaï, comme prochain président de l'Afghanistan ruiné par la guerre."
    },
    {
      "progress": 0.82,
      "text": "En 2002, Washington prépara son attaque militaire contre Bagdad\nsans le soutien ni du Conseil de sécurité de l'ONU, en violation de la\nCharte de l'ONU, ni de la plupart de ses principaux alliés, hormis la\nGrande-Bretagne de Blair, le Portugal et l'Espagne, la Pologne et quelques\nautres États."
    },
    {
      "progress": 0.82,
      "text": "Fin décembre 2003, Washington retira sans tapage un contingent de\n400 hommes sous commandement américain qui avait passé des mois en\nIraq à chercher des indices d'armes de destruction massives. Ils n'avaient\nrien trouvé. En janvier 2004, Colin Powell fut forcé d'admettre que les\nÉtats-Unis n'avaient aucune preuve de l'existence d'un lien entre l'Iraq et\nAl-Qaida,"
    },
    {
      "progress": 0.83,
      "text": "La priorité de la politique étrangère américaine consistait à établir une\nzone de conflits permanents à travers l'Eurasie dans le but de justifier l'établissement d'une nouvelle chaîne de bases militaires des États-Unis et de\nl'OTAN, déployée de la Pologne à la République tchèque, du Kosovo à la\nBulgarie, du Kirghizistan à la Géorgie et au-delà. "
    },
    {
      "progress": 0.83,
      "text": "Les géologues et les ingénieurs pétroliers russes étaient capables de\ntrouver du pétrole là où les géologues occidentaux n'auraient jamais pensé\nà en chercher. "
    },
    {
      "progress": 0.84,
      "text": "\n Au moment de son arrestation, Khodorkovsky utilisait ses fonds pour\n«acheter» une majorité de l'opposition de la Douma (le parlement russe)\navant les élections présidentielles de 2004. Selon la presse russe, son intention était d'obtenir de la Douma qu'elle modifiât la réglementation sur les\nressources souterraines qui empêchaient Ioukos ou d'autres compagnies\nprivées d'obtenir le contrôle direct des matières premières du sous sol, ou\nde développer des pipe-lines privés indépendants de ceux de l'État.\n"
    },
    {
      "progress": 0.86,
      "text": "\nAu début du nouveau millénaire, les États-Unis disposaient d'un\nmonopole quasi absolu de puissance et de technologie militaires. Ils\ncontrôlaient les réserves de devises mondiales, ce qui leur conférait la mainmise\nsur l'essentiel des actifs du monde industrialisé. À la suite de l'occupation\ndes champs de pétrole iraquiens, la puissance américaine détenait à\nelle seule le monopole des ressources énergétiques du futur. Le Pentagone\ndisposait d'un terme pour cela: full spectrum dominance, domination totale\nsur tous les fronts. Cela signifiait que les États-Unis étaient en voie de\ncontrôler, partout, les situations militaires, économiques et \npolitiques."
    }
  ],
  "attribution": "William Engdahl",
  "cover": "William-Engdahl-Pétrole-Une-guerre-d-un-siècle-L-ordre-mondial-anglo-américain",
  "description": "",
  "id": "William-Engdahl-Pétrole-Une-guerre-d-un-siècle-L-ordre-mondial-anglo-américain",
  "isbn": "44842cf1-95fb-4e73-9d8c-7fc2cda98559",
  "language": "fr",
  "lastread": "2016-03-17T19:38:34Z",
  "publisher": "",
  "subtitle": null,
  "title": "Pétrole: Une guerre d'un siècle - L'ordre mondial anglo-américain"
}