{
  "annotations": [
    {
      "progress": 0.0,
      "text": "Une politique de relance centrée sur la transition écologique serait peu coûteuse aujourd’hui dans la mesure\noù travail et capital sont en grande partie inemployés. Les\ntaux d’intérêt sont bas. "
    },
    {
      "progress": 0.0,
      "text": "Le coût annuel de la fraude fiscale est important. Le\nParlement européen l’évalue à 1 000 milliards d’euros pour\nl’Union européenne ; les estimations pour la France sont\nde l’ordre de 60 à 80 milliards, soit la quasi-totalité du déficit public de 2013."
    },
    {
      "progress": 0.0,
      "text": "Il est indispensable de réhabiliter l’impôt. Chacun\njuge légitime de payer sa nourriture. Il doit être tout aussi\névident qu’il convient de payer des impôts et des cotisations pour éduquer nos enfants, nous soigner, faire\nvivre dignement les retraités ; finalement, pour vivre\nensemble, pour construire une société. Pour être socialement admise, la fiscalité doit cependant être juste et\nefficace."
    },
    {
      "progress": 0.0,
      "text": "Le PIB, comme tout indicateur statistique, a des limites,\ndont la principale est probablement de ne pas prendre en\ncompte les préoccupations écologiques. "
    },
    {
      "progress": 0.0,
      "text": "la\ncombinaison des austérités salariale et budgétaire déprime\nla demande"
    },
    {
      "progress": 0.0,
      "text": "La protection privée demanderait au contraire à chacun\nde cotiser selon ses risques : les familles nombreuses, les\npersonnes âgées ou en mauvaise santé devraient payer\nplus cher pour s’assurer."
    },
    {
      "progress": 0.0,
      "text": "La dépense publique soutient l’activité, mais elle joue\naussi un rôle majeur dans la cohésion sociale et dans la\nréduction des inégalités."
    },
    {
      "progress": 0.0,
      "text": "Les règles\nqui régissent l’économie sont des constructions sociales\net relèvent de choix démocratiques."
    },
    {
      "progress": 0.0,
      "text": " ? Il est légitime que les entreprises cotisent pour la protection sociale. Celle-ci leur permet de bénéficier d’une\nmain-d’œuvre disponible, qui se renouvelle (en partie\ngrâce aux prestations familiales) et est en bonne santé\n(grâce à l’assurance-maladie)."
    },
    {
      "progress": 0.0,
      "text": "). Le poids des dépenses générales de fonctionnement\n(police, justice, armée, service des impôts) rapporté au PIB\nest pratiquement identique dans tous les pays développés.\nLe fort niveau des dépenses publiques françaises provient\nuniquement des prestations sociales ou de dépenses profitant directement aux ménages."
    },
    {
      "progress": 0.0,
      "text": "La Commission européenne a rendu impossible toute\npolitique industrielle, en la remplaçant par une politique\nde la concurrence qui a privé les États de leurs moyens\nd’action."
    },
    {
      "progress": 0.0,
      "text": "– L’effet taux d’intérêt : à partir des années 1980, sous\nl’effet des changements de politique économique, les\ntaux d’intérêt réels (le taux d’intérêt moins le taux d’inflation) ont fortement augmenté dans les pays développés,\nl’inflation a chuté, la croissance a ralenti. "
    },
    {
      "progress": 0.0,
      "text": "les énergies « vertes »\nsont devenues sur le continent européen la première source\nd’électricité à hauteur de 28 %."
    },
    {
      "progress": 0.0,
      "text": "moins qualifiés, la France a été pionnière\n– preuve que des réformes radicales ont bien été introduites dans notre pays – en matière d’exonération de\ncotisations sociales employeurs sur les bas salaires. En ce\nqui concerne le Smic, la baisse du taux de cotisation pour\nl’employeur atteint aujourd’hui 28 points. Cette politique\nextrêmement coûteuse (plus de 20 milliards d’euros par\nan) enferme des travailleurs dans des emplois à bas salaire,\nsans perspective de promotion."
    },
    {
      "progress": 0.0,
      "text": "). La difficulté des jeunes à trouver un emploi s’explique,\nen quasi-totalité, par la situation macroéconomique : les\nentreprises n’embauchent pas car elles n’ont pas besoin de\ntravailleurs supplémentaires, compte tenu de la faiblesse\nde la demande."
    },
    {
      "progress": 0.0,
      "text": "Jusqu’au début des années 1970, le plein-emploi était\nl’objectif central des politiques économiques. Son maintien renforçait le rapport de force en faveur des salariés.\nAvec la crise, le choc pétrolier et le ralentissement des\ngains de productivité, le conflit sur le partage de la valeur\najoutée s’est traduit par une hausse de l’inflation et par un\npartage défavorable aux détenteurs du capital. Au début\ndes années 1980, la contre-révolution libérale s’est donné\ncomme objectif de revivifier le capitalisme, de restaurer la\npart du capital dans la valeur ajoutée et de réduire le taux\nd’inflation."
    },
    {
      "progress": 0.0,
      "text": "À partir des années 1970, avec une forte accélération\ndepuis les années 1980, un changement crucial est intervenu dans la représentation de l’entreprise, conçue désormais comme devant avant tout servir les actionnaires."
    },
    {
      "progress": 0.0,
      "text": "Que les entreprises se préoccupent de maintenir et de\ndévelopper les qualifications de leurs salariés, plutôt que\nde les exploiter au maximum et de les envoyer au chômage\nquand ils deviennent moins productifs : voilà un élément\ndu développement économique de la nation."
    },
    {
      "progress": 0.0,
      "text": "locale La France a un fort niveau d’impôts locaux. Archaïques\net peu progressifs, ceux-ci sont plus inégalitaires que les\nimpôts nationaux ; les riches paient peu dans les communes riches et les pauvres paient beaucoup dans les\ncommunes pauvres."
    },
    {
      "progress": 0.0,
      "text": "La protection sociale publique est redistributive : les\nprestations dépendent des besoins, quand les cotisations\ndépendent des revenus. La redistribution est à la fois « verticale », entre riches et pauvres, et « horizontale », entre les\nménages sans enfants et les familles, les actifs et les retraités, les salariés et les chômeurs…"
    },
    {
      "progress": 0.0,
      "text": "En période de\nrécession et de déflation larvées comme aujourd’hui en\nFrance et en Europe, la baisse des dépenses publiques\ngénère un cercle vicieux : baisse de l’activité publique et\nprivée, chômage, baisse de la demande de consommation\net d’investissement…"
    },
    {
      "progress": 0.0,
      "text": "les décidément bien mal\nnommées « charges sociales » sont aussi un revenu pour les\nménages, revenu qui bénéficie grandement au privé."
    },
    {
      "progress": 0.0,
      "text": "Bénéficiant de travailleurs formés et en bonne santé,\nd’infrastructures publiques de qualité, les entreprises profitent largement de l’action publique. Il est légitime qu’elles\ncontribuent à son financement."
    },
    {
      "progress": 0.0,
      "text": "La RTT est une tendance séculaire : la durée du travail ne cesse de baisser depuis le milieu du XIXe siècle. La\nquestion est de savoir sous quelle forme cette réduction\ns’opère et doit s’opérer."
    },
    {
      "progress": 0.0,
      "text": "La politique industrielle, qui a longtemps été un de ses points forts, a été\npresque complètement démantelée. L’esprit des politiques\nde « grands projets », a été abandonné. On est ainsi passé\nd’une logique selon laquelle l’État était un acteur majeur\ndu développement économique et industriel à une logique\nselon laquelle seuls les marchés sont jugés pertinents pour\ndécider de l’organisation productive des pays."
    },
    {
      "progress": 0.0,
      "text": "Le gouvernement s’est lancé à\ncorps perdu dans une vaine politique de l’offre misant\nsur les exonérations de cotisations sociales alors que les\nentreprises sont d’abord confrontées à l’atonie de leur\ncarnet de commandes et aux exigences de rentabilité du\ncapital."
    },
    {
      "progress": 0.0,
      "text": "Les bâtiments absorbant près de la moitié (45 %) de la consommation finale\nd’énergie, cela passe par la construction de bâtiments\nà basse consommation (ou à énergie positive) et par\nun vaste plan de rénovation thermique du bâti ancien."
    },
    {
      "progress": 0.0,
      "text": "Passées sous silence, les\ninnombrables largesses accordées aux riches, les niches,\nla fraude et l’évasion fiscales qui ont rongé les recettes\npubliques et creusé les déficits publics."
    },
    {
      "progress": 0.0,
      "text": "Nos sociétés sont à un carrefour. La crise sociale et\nécologique impose de remettre en cause nos modèles\nde production et de consommation. Elle nous invite à\nreconsidérer la nature même de la richesse. "
    },
    {
      "progress": 0.0,
      "text": "L’État ne doit pas seulement se préoccuper de\nsa propre situation financière, mais aussi de l’équilibre\nmacroéconomique. Dans une situation de récession économique, où les ménages épargnent beaucoup par peur de\nl’avenir, consomment peu car leur niveau de vie est affaibli\npar la montée du chômage, où les entreprises investissent\npeu, car la demande est faible, il est légitime d’avoir un\ndéficit public plus important que celui de la règle d’or."
    },
    {
      "progress": 0.0,
      "text": "Mettre en place un programme européen de revalorisation des bas et moyens salaires (avec hausse plus élevée\ndans les pays dégageant des excédents commerciaux), via\nnotamment la généralisation du salaire minimum."
    },
    {
      "progress": 0.0,
      "text": "L’entreprise\nest un lieu central de mise en œuvre des qualifications\net des compétences des salariés ainsi que de déploiement des techniques. Elle joue aussi un rôle majeur dans\nla répartition des revenus, notamment entre profits et\nsalaires."
    },
    {
      "progress": 0.0,
      "text": "professionnels. Les libéraux ont toujours argué que la protection sociale\nn’était pas « viable ». L’histoire leur a donné tort. Grâce au\nprogrès social, avec la protection sociale en son cœur, l’espérance de vie a augmenté considérablement au cours du\ndernier siècle (de 50,5 ans en moyenne en 1913 à 81,8 ans\nen 2013"
    },
    {
      "progress": 0.0,
      "text": "Nos sociétés, et\nsingulièrement la France, souffrent de l’absence de projet\ncommun, mobilisateur et émancipateur."
    },
    {
      "progress": 0.0,
      "text": "Les libéraux clament qu’elle représente 29 000 euros par\npersonne, c’est ce dont hériterait chaque bébé qui naît.\nC’est oublier que cette dette, calculée en « brut », ne prend\nen compte ni les actifs financiers détenus par les administrations (actions d’entreprises par exemple), ni leurs actifs\nréels (bâtiments, routes). Avec eux, le solde (la « valeur\nnette » des administrations) est positif : 326 milliards d’euros fin 2012, soit environ 5000 euros par personne. Nous\nne laissons pas une dette à nos enfants, mais un patrimoine public (sans parler du « non-monétaire » : éducation, bonne santé)"
    },
    {
      "progress": 0.0,
      "text": "Le travail\nest dès lors considéré uniquement comme un coût."
    },
    {
      "progress": 0.0,
      "text": "Ils doivent être jugés, et l’entreprise elle-même être évaluée, sur la base de la poursuite d’objectifs faisant une\nlarge place à sa responsabilité pleine et entière tant en\nmatière environnementale qu’en matière sociale."
    },
    {
      "progress": 0.0,
      "text": "Les représentations de la réalité influencent la réalité\nelle-même : elles contribuent à façonner nos conceptions du bien-être, qu’il soit individuel ou collectif, et à\nconstruire les imaginaires. L’imaginaire hérité du productivisme et du consumérisme, inhérents à l’accumulation\ncapitaliste, demande à être déconstruit en faisant de la\ndémocratie le moyen de définir les besoins sociaux prioritaires, au lieu d’abandonner des choix de cette importance au seul marché. Alors que moins de gaspillages, plus\nd’accès gratuit aux services fondamentaux et plus de respect des équilibres écologiques n’impliquent pas moins de\nbien-être, nos indicateurs ne permettent pas de prendre\nen compte ces objectifs."
    },
    {
      "progress": 0.0,
      "text": "La société a pour devoir de veiller à ce que les différences\nentre les personnes ne se cristallisent pas en inégalités de\nstatuts"
    },
    {
      "progress": 0.0,
      "text": "Avec la contrainte écologique, il faut faire décroître\ncertains secteurs polluants et gourmands en énergie. Mais\ncette contrainte impose aussi de développer des activités\nriches en emplois et souvent peu délocalisables (rénovation des bâtiments, par exemple)"
    },
    {
      "progress": 0.0,
      "text": "Quant\nau transport des personnes, il peut être réduit de la même\nfaçon par une relocalisation des activités de production\nau plus près des lieux d’habitation. Cette relocalisation\ndoit s’accompagner d’un programme de développement\ndes transports collectifs accordant la priorité à la densité\ndes dessertes locales (plutôt qu’aux réseaux à très grande\nvitesse), dont l’usage serait favorisé par la gratuité des\ntransports locaux."
    },
    {
      "progress": 0.0,
      "text": "L’État\ndoit assurer aux entreprises industrielles comme à celles\ndu BTP qu’il mènera une telle politique de façon résolue,\navec un volet demande (commandes publiques, soutien à\nla demande privée) et un volet offre (recherche, formation,\naide à la reconversion). "
    },
    {
      "progress": 0.0,
      "text": "En France (comme dans la plupart des pays industrialisés), la dette publique est inférieure à la dette privée\n(115 % du PIB pour les ménages et les entreprises). "
    },
    {
      "progress": 0.0,
      "text": "L’injustice, les inégalités, la pauvreté engendrent un\nimmense gaspillage de compétences. L’égalité, source de\njustice, est aussi source de bien-être économique, d’efficacité."
    },
    {
      "progress": 0.0,
      "text": "Il n’y a pas de particularité française en la matière. Avec\nune dette publique de 93.5 % du PIB fin 2013, la France est\ndans la moyenne de la zone euro, à un niveau inférieur à\ncelui des États-Unis (104,5 %) ou du Japon (244 %)."
    },
    {
      "progress": 0.0,
      "text": "S’il est bien un\ndomaine dans lequel la politique de grands programmes\ndoit être réhabilitée, c’est celui de l’écologie."
    },
    {
      "progress": 0.0,
      "text": "La première préoccupation devrait être celle des enfants."
    },
    {
      "progress": 0.0,
      "text": "Le discours habituel défend toujours la baisse des\nimpôts. Il vise à orienter le débat public et la colère\nsociale vers la « pression fiscale excessive » en occultant\nles véritables causes de l’appauvrissement social : la crise,\nl’austérité salariale, le pouvoir des grandes entreprises et\nde la finance, le creusement des inégalités de revenus et\nde patrimoines."
    },
    {
      "progress": 0.0,
      "text": "Les salaires soutiennent la consommation, donc la\ndemande adressée aux entreprises, l’activité économique\net le niveau de l’emploi."
    },
    {
      "progress": 0.0,
      "text": "Créer de nouveaux supports en faveur de l’économie\nsociale et solidaire, via notamment la création de banques\nrégionales adossées aux collectivités locales."
    },
    {
      "progress": 0.0,
      "text": "La France et\nl’Europe doivent refuser la logique de la concurrence\nfiscale et supprimer tous les dispositifs qui permettent\nd’échapper à l’impôt."
    },
    {
      "progress": 0.0,
      "text": "refonder l’entreprise en la\ndotant de bases sûres est sans doute l’une des tâches les\nplus urgentes auxquelles il faut s’atteler."
    },
    {
      "progress": 0.0,
      "text": "La crise mondiale de ce début du XXIe siècle est la conséquence d’une double impasse : celle du régime d’accumulation financière, mais aussi celle du productivisme\nqui conduit à l’épuisement des ressources naturelles, à\ndes atteintes graves à la biodiversité, à la pollution et au\nréchauffement climatique."
    },
    {
      "progress": 0.0,
      "text": "La préoccupation méritocratique\nde classer les enfants, de constituer une élite, l’emporte\ntrop souvent sur une conception égalitaire de l’éducation.\n"
    },
    {
      "progress": 0.69,
      "text": "Les riches ont fait d’une\npierre deux coups : ils ont payé moins d’impôts, ce qui a\ncreusé les déficits, puis ils ont financé ces déficits en touchant des intérêts"
    },
    {
      "progress": 0.69,
      "text": "L’effet PIB joue aussi directement : la baisse du\nPIB fait spontanément augmenter le rapport dette/PIB. La"
    },
    {
      "progress": 0.69,
      "text": "L’effet PIB joue aussi directement : la baisse du\nPIB fait spontanément augmenter le rapport dette/PIB. La"
    },
    {
      "progress": 0.69,
      "text": "la baisse du\nPIB fait spontanément augmenter le rapport dette/PIB. La"
    },
    {
      "progress": 0.69,
      "text": "la baisse du\nPIB fait spontanément augmenter le rapport dette/PIB"
    },
    {
      "progress": 0.71,
      "text": "La Cour\ndes comptes se plaint régulièrement dans ses rapports :\nla croissance est finalement moindre que ce qu’elle avait\nprévu, les recettes fiscales aussi, les déficits se réduisent\npeu et la dette continue à augmenter. Elle en tire à chaque\nfois la même conclusion : il faut réduire plus fortement la\ndépense publique. Mais pourquoi la croissance est-elle\nmoindre ? La Cour, devenue temple du libéralisme le plus\ndogmatique, ne s’interroge jamais sur ce point. La réponse\nest pourtant simple : ce sont les politiques d’austérité,\ncelles-là même qu’elle préconise, qui étouffent la croissance."
    },
    {
      "progress": 0.72,
      "text": "Il importe donc de distinguer deux types de déficit. Le\ndéficit expansionniste : lorsque c’est nécessaire, le déficit\npublic initial permet de relancer l’activité, ce qui engendre\nfinalement un surcroît de recettes (l’État « gagne ce qu’il\ndépense »). Le déficit récessif : les politiques d’austérité\nbudgétaire, en plombant l’activité, creusent les déficits par\ndéfaut de recettes."
    },
    {
      "progress": 0.72,
      "text": "Les dettes publiques,\nl’histoire de ces deux derniers siècles le prouve, ne peuvent\npas être réduites par l’austérité. Celle-ci engendre finalement la stagnation et la déflation (la baisse généralisée du\nniveau des prix), ce qui fait augmenter les taux d’intérêt\nréels par rapport à un taux de croissance affaibli, et plus\naffaibli encore par l’austérité."
    },
    {
      "progress": 0.74,
      "text": "Non seulement les marchés financiers sont une cause\nmajeure d’instabilité, mais ils sont incapables de financer les besoins économiques, sociaux et environnementaux."
    },
    {
      "progress": 0.74,
      "text": "Depuis trente ans, les banques commerciales ont vécu\ndans l’idée que les activités traditionnelles d’octroi et de\nfinancement du crédit, de gestion des dépôts, étaient\ndevenues peu rentables et qu’elles devaient chercher des\nrentabilités plus élevées sur les activités de marché."
    },
    {
      "progress": 0.74,
      "text": "Les banques universelles sont une menace pour la stabilité du système financier car elles sont trop grosses et\ntrop interconnectées. En cas de crise systémique (la défaillance d’une institution entraîne la chute des autres), l’État\nse trouve obligé de venir en aide aux banques en difficulté. Celles-ci bénéficient donc d’une garantie implicite\nde l’État, véritable gage de sécurité aux yeux des prêteurs.\nCela permet aux grandes banques d’emprunter à des\ntaux moindres que ceux consentis à des établissements\nplus petits ou plus spécialisés."
    },
    {
      "progress": 0.77,
      "text": "La première réforme doit procéder à une séparation\nstricte des activités de banque de détail, tournées vers le\nfinancement de l’économie, et des activités de banque\nd’investissement, consacrées à des opérations de marché\nà caractère spéculatif."
    },
    {
      "progress": 0.77,
      "text": "D’un côté, existeront des banques publiquement garanties, destinées à prêter aux entreprises, aux ménages, aux\ncollectivités locales, aux États. Ces banques n’auront pas le\ndroit de spéculer sur les marchés financiers, ni de prêter\naux spéculateurs, ni de mettre en place des produits compliqués (emprunts toxiques par exemple)"
    },
    {
      "progress": 0.77,
      "text": "Les pays européens ont besoin de\nbanques publiques de développement,"
    },
    {
      "progress": 0.78,
      "text": "D’un autre côté, les banques de marché ou d’affaires,\ncomme toutes les « banques de l’ombre » ne pourront plus\nbénéficier du financement de la BCE et de la garantie de\nl’État, et ce, afin de protéger les contribuables et de réduire\nles incitations à la prise de risque inconsidéré."
    },
    {
      "progress": 0.78,
      "text": "Dans l’intention de décourager la spéculation, malgré\nl’opposition du lobby financier, une taxe sur l’ensemble\ndes transactions financières, incluant toutes les opérations\nsur produits dérivés, devra être instituée en appliquant les\nrègles édictées par la directive européenne de 2013."
    },
    {
      "progress": 0.79,
      "text": "Séparer strictement les banques de détail des banques\nd’investissement.   Imposer une autorisation obligatoire de mise sur les\nmarchés pour tout nouveau produit financier. Taxer les\ntransactions financières afin de décourager la spéculation.\nFermer les marchés de gré à gré opaques et non régulés."
    },
    {
      "progress": 0.8,
      "text": "Les banques commerciales assurent la majeure partie de la création monétaire. Elles le font principalement\nlorsqu’elles accordent des crédits à leurs clients ou quand\nelles achètent des titres, en particulier des titres de la\ndette publique. Cette possibilité de création monétaire\nn’est certes pas infinie, elle est notamment limitée par la\ncapacité des banques à se procurer de la « monnaie centrale », émise par la banque centrale, qui est la banque des\nbanques. Cette dernière peut agir sur l’activité des banques\nen utilisant de multiples instruments, notamment le taux\nd’intérêt directeur, celui auquel les banques se refinancent\nauprès d’elle, lequel influe sur le coût du crédit proposé\naux entreprises et aux ménages."
    },
    {
      "progress": 0.8,
      "text": "le crédit permet de susciter une demande qui n’a\npas pour origine les revenus générés par la production.\nL’un des rôles de la politique monétaire est donc d’ajuster\nla demande et l’offre."
    },
    {
      "progress": 0.8,
      "text": ". L’État ne\npeut pas faire faillite puisque la banque centrale peut toujours le financer."
    },
    {
      "progress": 0.8,
      "text": "La norme est devenue une banque centrale gérée par des banquiers centraux\nindépendants des pouvoirs politiques, c’est-à-dire n’ayant\npas à rendre de comptes aux peuples."
    },
    {
      "progress": 0.8,
      "text": "selon le\ntraité même de l’Union européenne, la BCE ne garantit pas\nles dettes publiques, laissant les taux auxquels les États se\nfinancent dépendre des craintes et humeurs des marchés\nfinanciers."
    },
    {
      "progress": 0.81,
      "text": "Banque centrale la plus indépendante au monde, la\nBCE n’a de comptes à rendre ni aux gouvernements, qui\ndoivent se plier à ses injonctions, ni au Parlement européen."
    },
    {
      "progress": 0.83,
      "text": "Il est essentiel que les\ndettes publiques des États membres redeviennent des\nactifs sans risques, ce qui implique une garantie par la\nBCE et donc la possibilité d’intervenir sur les marchés primaires. Les États doivent pouvoir s’endetter à bas taux."
    },
    {
      "progress": 0.83,
      "text": "Le\ntaux d’intérêt ne saurait rester le seul levier d’action de la\npolitique monétaire, comme le montre la situation actuelle\nde la BCE dont le taux d’intérêt proche de zéro ne suffit\nguère à sortir la zone euro de la dépression économique."
    },
    {
      "progress": 0.85,
      "text": ". Il faut en particulier refonder l’euro sur d’autres\nbases ou le remettre en cause. "
    },
    {
      "progress": 0.85,
      "text": "Elle n’a pas le droit (contrairement aux banques centrales américaine ou anglaise)\nd’acheter directement des titres de dettes publiques, donc\nde garantir la solvabilité des États membres, qui est ainsi\nplacée entre les mains des marchés financiers."
    },
    {
      "progress": 0.86,
      "text": "Avec une monnaie unique, les taux de change sont devenus intangibles dans la zone euro. Or, les variations de taux\nde change ont deux fonctions. À long terme, elles tendent\nà compenser les évolutions divergentes entre les pays (des\ncoûts de production ou du solde extérieur). À court terme,\nelles permettent des dévaluations (réévaluations) destinées à ramener vers l’équilibre les soldes commerciaux."
    },
    {
      "progress": 0.86,
      "text": "les conditions pour rendre viable l’euro n’ont pas été\nremplies : il n’existe ni coordination des politiques économiques permettant de rendre les politiques conjoncturelles nationales cohérentes entre elles, ni budget commun\nsuffisamment important pour soutenir de grands projets\nstructurants, ni accord pour éviter une concurrence délétère conduisant au dumping fiscal et social. Enfin et surtout, pas de coordination entre les pays membres et une\nBanque centrale européenne au service de l’économie\nréelle et des politiques économiques nationales"
    },
    {
      "progress": 0.88,
      "text": "Certes,\nles pays du Sud ont résorbé leur déficit commercial, mais\nessentiellement par la chute de leurs importations, après\nl’effondrement de leur demande intérieure. Il aurait fallu\nrésorber autrement les déséquilibres, en demandant aux\npays excédentaires de relancer leur demande intérieure\npar des hausses de salaires et des prestations sociales, par\ndes investissements s’inscrivant dans la reconversion écologique."
    },
    {
      "progress": 0.92,
      "text": "L’OMC, seul organisme véritablement\nmultilatéral (les pays du Sud ayant pu s’organiser pour y\nfaire entendre leur voix depuis la conférence de Seattle),\nest aujourd’hui une institution bloquée. Alors qu’aucun\naccord significatif n’a été signé depuis longtemps, on voit\nrefleurir les accords bilatéraux. Les négociations sur le\nTAFTA (projet de traité de libre-échange) entre les États-Unis et l’Europe, après celles menées entre l’UE et le\nCanada, marquent le retour des vieilles puissances qui\ntentent de fixer, contre les pays du Sud, leurs règles et leurs\nnormes."
    },
    {
      "progress": 0.92,
      "text": "Les pays du Nord ont imposé la libéralisation commerciale à ceux du Sud dès les années 1970-1980, tout en se\nprotégeant eux-mêmes, rudement à l’occasion. Ainsi, en\nmatière agricole, l’Europe (avec la Pac) comme les États-Unis ont bâti des forteresses et subventionné un modèle\nproductiviste pour conquérir les marchés intérieurs et\ndétruire les agricultures vivrières de nombre de pays du\nSud."
    },
    {
      "progress": 0.93,
      "text": "Il est de l’intérêt de tous que chaque pays connaisse un\ndéveloppement harmonieux, qu’aucun ne plonge dans\nla misère."
    },
    {
      "progress": 0.93,
      "text": "La « quatrième liberté » inscrite dans l’Acte unique de la\nCommission européenne en 1986 a généralisé la « liberté de\ncirculation des capitaux », non seulement entre pays européens mais aussi avec le reste du monde. Cette décision,\npour laquelle la finance a durement bataillé, s’est révélée\ncatastrophique. Elle rend possible une spéculation échevelée des capitaux de court ou très court terme. Elle met en\nconcurrence des travailleurs, en permettant au capital de\nse déplacer d’un point du globe à un autre. C’est elle, enfin\nqui autorise l’évasion dans les paradis fiscaux. "
    },
    {
      "progress": 0.93,
      "text": "Une\nvéritable taxe sur les transactions financières freinerait la\nvolatilité des capitaux de court terme"
    },
    {
      "progress": 0.94,
      "text": ". Le climat, la santé, la\nprotection des océans doivent accéder au statut de biens\npublics globaux et être traités comme tels."
    },
    {
      "progress": 0.95,
      "text": "La stratégie de la balance commerciale excédentaire est\nillusoire : l’excédent des uns repose sur le déficit des autres"
    },
    {
      "progress": 0.96,
      "text": ". L’obligation\nde déclaration doit être généralisée : elle implique que\ntoute institution financière soit tenue de déclarer les avoirs\net les revenus de ses clients au fisc de leur pays de résidence."
    }
  ],
  "attribution": "Économistes atterrés",
  "cover": "Économistes-atterrés-Nouveau-Manifeste-des-économistes-atterrés",
  "description": "",
  "id": "Économistes-atterrés-Nouveau-Manifeste-des-économistes-atterrés",
  "isbn": "ed1ff110d7f662c26d17f1d013a2b2816859ba7a",
  "language": "fr",
  "lastread": "2016-04-11T11:40:33Z",
  "publisher": "",
  "subtitle": null,
  "title": "Nouveau Manifeste des économistes atterrés"
}